[
    {
        "E": 29702.65182372005,
        "chi2": 0.0,
        "ip": 0.01893819227063117,
        "ipchi2": 1.5233086326460097,
        "mass": 1879.151,
        "particleId": "D0",
        "pvx": 0.5977,
        "pvy": 0.0476,
        "pvz": -7.1712,
        "px": 1740.67,
        "py": -2645.04,
        "pz": 29473.55,
        "q": 0.0,
        "trajectory": [
            [
                0.5976999998092651,
                0.047600001096725464,
                -7.171199798583984
            ],
            [
                0.6470999717712402,
                -0.054099999368190765,
                -6.015200138092041
            ]
        ],
        "zFirstMeasurement": -9999.0
    },
    {
        "E": 4456.580685184262,
        "chi2": 1.2329427003860474,
        "ip": 0.13743703680328406,
        "ipchi2": 65.37976799515474,
        "mass": 493.677,
        "particleId": "K-",
        "pvx": 0.5977,
        "pvy": 0.0476,
        "pvz": -7.1712,
        "px": 743.84,
        "py": -424.71,
        "pz": 4345.54,
        "q": -1.0,
        "trajectory": [
            [
                0.6623702049255371,
                -0.022400278598070145,
                -6.015200138092041
            ],
            [
                1.5182231664657593,
                -0.5110680460929871,
                -1.0152000188827515
            ],
            [
                2.3740639686584473,
                -0.9997350573539734,
                3.984800100326538
            ],
            [
                3.2298924922943115,
                -1.4884014129638672,
                8.984800338745117
            ],
            [
                4.085707187652588,
                -1.9770275354385376,
                13.984800338745117
            ],
            [
                4.9415106773376465,
                -2.4656925201416016,
                18.984800338745117
            ],
            [
                5.797301769256592,
                -2.9543566703796387,
                23.984800338745117
            ],
            [
                6.653080463409424,
                -3.4430201053619385,
                28.984800338745117
            ],
            [
                7.508846282958984,
                -3.931682825088501,
                33.984798431396484
            ],
            [
                8.364599227905273,
                -4.420344829559326,
                38.984798431396484
            ],
            [
                9.220338821411133,
                -4.909006118774414,
                43.984798431396484
            ],
            [
                10.076065063476563,
                -5.397666931152344,
                48.984798431396484
            ],
            [
                10.931777954101563,
                -5.886326313018799,
                53.984798431396484
            ],
            [
                11.787476539611816,
                -6.374985694885254,
                58.984798431396484
            ],
            [
                12.64316177368164,
                -6.863643646240234,
                63.984798431396484
            ],
            [
                13.498831748962402,
                -7.352301120758057,
                68.98480224609375
            ],
            [
                14.354488372802734,
                -7.8409576416015625,
                73.98480224609375
            ],
            [
                15.210129737854004,
                -8.32961368560791,
                78.98480224609375
            ],
            [
                16.06575584411621,
                -8.818268775939941,
                83.98480224609375
            ],
            [
                16.921367645263672,
                -9.306922912597656,
                88.98480224609375
            ],
            [
                17.77696418762207,
                -9.795576095581055,
                93.98480224609375
            ],
            [
                18.632543563842773,
                -10.284229278564453,
                98.98480224609375
            ],
            [
                19.488107681274414,
                -10.772880554199219,
                103.98480224609375
            ],
            [
                22.910205841064453,
                -12.727478981018066,
                123.98480224609375
            ],
            [
                26.332149505615234,
                -14.68206787109375,
                143.98480224609375
            ],
            [
                29.753765106201172,
                -16.636640548706055,
                163.98480224609375
            ],
            [
                33.175106048583984,
                -18.59119987487793,
                183.98480224609375
            ],
            [
                36.59616470336914,
                -20.545743942260742,
                203.98480224609375
            ],
            [
                40.016929626464844,
                -22.500272750854492,
                223.98480224609375
            ],
            [
                43.4373893737793,
                -24.454788208007813,
                243.98480224609375
            ],
            [
                46.85751724243164,
                -26.409286499023438,
                263.98480224609375
            ],
            [
                50.277305603027344,
                -28.363767623901367,
                283.98480224609375
            ],
            [
                53.69675064086914,
                -30.318233489990234,
                303.98480224609375
            ],
            [
                57.115821838378906,
                -32.27267837524414,
                323.98480224609375
            ],
            [
                60.534515380859375,
                -34.227108001708984,
                343.98480224609375
            ],
            [
                63.95282745361328,
                -36.1815185546875,
                363.98480224609375
            ],
            [
                67.37073516845703,
                -38.13591003417969,
                383.98480224609375
            ],
            [
                70.78823852539063,
                -40.09027862548828,
                403.98480224609375
            ],
            [
                74.20531463623047,
                -42.04462814331055,
                423.98480224609375
            ],
            [
                77.62195587158203,
                -43.99895477294922,
                443.98480224609375
            ],
            [
                81.03814697265625,
                -45.95326232910156,
                463.98480224609375
            ],
            [
                84.45386505126953,
                -47.90754318237305,
                483.98480224609375
            ],
            [
                87.86906433105469,
                -49.86180114746094,
                503.98480224609375
            ],
            [
                91.2837142944336,
                -51.81604766845703,
                523.9848022460938
            ],
            [
                94.69784545898438,
                -53.770267486572266,
                543.9848022460938
            ],
            [
                98.11144256591797,
                -55.724464416503906,
                563.9848022460938
            ],
            [
                101.52448272705078,
                -57.67863845825195,
                583.9848022460938
            ],
            [
                104.93688201904297,
                -59.632789611816406,
                603.9848022460938
            ],
            [
                108.3486328125,
                -61.5869255065918,
                623.9848022460938
            ],
            [
                111.75975036621094,
                -63.54104232788086,
                643.9848022460938
            ],
            [
                115.17015838623047,
                -65.49512481689453,
                663.9848022460938
            ],
            [
                118.57990264892578,
                -67.44918823242188,
                683.9848022460938
            ],
            [
                121.98902130126953,
                -69.4032211303711,
                703.9848022460938
            ],
            [
                125.39762878417969,
                -71.35720825195313,
                723.9848022460938
            ],
            [
                128.80557250976563,
                -73.3111801147461,
                743.9848022460938
            ],
            [
                132.2128448486328,
                -75.2651138305664,
                763.9848022460938
            ],
            [
                135.6194305419922,
                -77.21902465820313,
                783.9848022460938
            ],
            [
                139.0253143310547,
                -79.17290496826172,
                803.9848022460938
            ],
            [
                142.42996215820313,
                -81.12681579589844,
                823.9848022460938
            ],
            [
                145.83358764648438,
                -83.08074188232422,
                843.9848022460938
            ],
            [
                149.2363739013672,
                -85.03466033935547,
                863.9848022460938
            ],
            [
                152.6383056640625,
                -86.98856353759766,
                883.9848022460938
            ],
            [
                156.03939819335938,
                -88.94245147705078,
                903.9848022460938
            ],
            [
                159.43960571289063,
                -90.89632415771484,
                923.9848022460938
            ],
            [
                162.83876037597656,
                -92.85018157958984,
                943.9848022460938
            ],
            [
                166.2369384765625,
                -94.80401611328125,
                963.9848022460938
            ],
            [
                169.63381958007813,
                -96.7579116821289,
                983.9848022460938
            ],
            [
                173.02928161621094,
                -98.71190643310547,
                1003.9848022460938
            ],
            [
                189.98768615722656,
                -108.4819564819336,
                1103.9847412109375
            ],
            [
                206.92515563964844,
                -118.25213623046875,
                1203.9847412109375
            ],
            [
                223.83563232421875,
                -128.02276611328125,
                1303.9847412109375
            ],
            [
                240.71746826171875,
                -137.7943115234375,
                1403.9847412109375
            ],
            [
                257.57281494140625,
                -147.5662384033203,
                1503.9847412109375
            ],
            [
                274.4109802246094,
                -157.3377685546875,
                1603.9847412109375
            ],
            [
                291.2231750488281,
                -167.1094970703125,
                1703.9847412109375
            ],
            [
                308.00909423828125,
                -176.8803253173828,
                1803.9847412109375
            ],
            [
                324.764404296875,
                -186.64913940429688,
                1903.9847412109375
            ],
            [
                341.4773864746094,
                -196.4176025390625,
                2003.9847412109375
            ],
            [
                358.14007568359375,
                -206.1833953857422,
                2103.98486328125
            ],
            [
                374.7619323730469,
                -215.94578552246094,
                2203.98486328125
            ],
            [
                391.3287353515625,
                -225.70208740234375,
                2303.98486328125
            ],
            [
                407.8453063964844,
                -235.45179748535156,
                2403.98486328125
            ],
            [
                424.2700500488281,
                -245.19276428222656,
                2503.98486328125
            ],
            [
                440.59765625,
                -254.9209442138672,
                2603.98486328125
            ],
            [
                456.8019104003906,
                -264.6361083984375,
                2703.98486328125
            ],
            [
                472.8714599609375,
                -274.333740234375,
                2803.98486328125
            ],
            [
                488.7630920410156,
                -284.0138854980469,
                2903.98486328125
            ],
            [
                504.4593505859375,
                -293.67376708984375,
                3003.98486328125
            ],
            [
                519.8709716796875,
                -303.3106994628906,
                3103.98486328125
            ],
            [
                535.069091796875,
                -312.91766357421875,
                3203.98486328125
            ],
            [
                549.9520263671875,
                -322.4974670410156,
                3303.98486328125
            ],
            [
                564.4840087890625,
                -332.0427551269531,
                3403.98486328125
            ],
            [
                578.61376953125,
                -341.5540771484375,
                3503.98486328125
            ],
            [
                592.3189697265625,
                -351.0366516113281,
                3603.98486328125
            ],
            [
                605.52685546875,
                -360.4832458496094,
                3703.98486328125
            ],
            [
                618.2322387695313,
                -369.9003601074219,
                3803.98486328125
            ],
            [
                630.29541015625,
                -379.28485107421875,
                3903.98486328125
            ],
            [
                641.7859497070313,
                -388.64495849609375,
                4003.98486328125
            ],
            [
                652.5807495117188,
                -397.9993896484375,
                4103.98486328125
            ],
            [
                662.7318725585938,
                -407.319091796875,
                4203.98486328125
            ],
            [
                672.1688232421875,
                -416.6200256347656,
                4303.98486328125
            ],
            [
                680.8202514648438,
                -425.90399169921875,
                4403.98486328125
            ],
            [
                688.8077392578125,
                -435.1847839355469,
                4503.98486328125
            ],
            [
                695.9981689453125,
                -444.4566650390625,
                4603.98486328125
            ],
            [
                702.5039672851563,
                -453.7217102050781,
                4703.98486328125
            ],
            [
                705.4169311523438,
                -466.46685791015625,
                4803.98486328125
            ],
            [
                710.2802124023438,
                -475.9464111328125,
                4903.98486328125
            ],
            [
                714.3963012695313,
                -485.4180908203125,
                5003.98486328125
            ],
            [
                717.779296875,
                -494.89544677734375,
                5103.98486328125
            ],
            [
                720.45556640625,
                -504.36981201171875,
                5203.98486328125
            ],
            [
                722.4227294921875,
                -513.8472290039063,
                5303.98486328125
            ],
            [
                723.6917114257813,
                -523.3211059570313,
                5403.98486328125
            ],
            [
                724.2523193359375,
                -532.7891845703125,
                5503.98486328125
            ],
            [
                724.1644287109375,
                -542.2679443359375,
                5603.98486328125
            ],
            [
                723.4013061523438,
                -551.741943359375,
                5703.98486328125
            ],
            [
                721.9806518554688,
                -561.2164306640625,
                5803.98486328125
            ],
            [
                719.9346923828125,
                -570.6867065429688,
                5903.98486328125
            ],
            [
                717.25634765625,
                -580.1588745117188,
                6003.98486328125
            ],
            [
                713.9843139648438,
                -589.6287841796875,
                6103.98486328125
            ],
            [
                710.1328735351563,
                -599.0942993164063,
                6203.98486328125
            ],
            [
                705.7012329101563,
                -608.55517578125,
                6303.98486328125
            ],
            [
                700.7239379882813,
                -618.01123046875,
                6403.98486328125
            ],
            [
                695.212158203125,
                -627.4583129882813,
                6503.98486328125
            ],
            [
                689.1940307617188,
                -636.9004516601563,
                6603.98486328125
            ],
            [
                682.6893920898438,
                -646.3329467773438,
                6703.98486328125
            ],
            [
                675.7312622070313,
                -655.7545776367188,
                6803.98486328125
            ],
            [
                668.3287353515625,
                -665.1640625,
                6903.98486328125
            ],
            [
                660.52001953125,
                -674.5607299804688,
                7003.98486328125
            ],
            [
                652.3291015625,
                -683.943359375,
                7103.98486328125
            ],
            [
                643.7825927734375,
                -693.3115844726563,
                7203.98486328125
            ],
            [
                634.904541015625,
                -702.6640014648438,
                7303.98486328125
            ],
            [
                625.7122802734375,
                -712.0006103515625,
                7403.98486328125
            ],
            [
                616.2471923828125,
                -721.3211669921875,
                7503.98486328125
            ],
            [
                606.516357421875,
                -730.6253051757813,
                7603.98486328125
            ],
            [
                596.5525512695313,
                -739.9132690429688,
                7703.98486328125
            ],
            [
                586.3684692382813,
                -749.185302734375,
                7803.98486328125
            ],
            [
                575.986083984375,
                -758.441650390625,
                7903.98486328125
            ],
            [
                565.42431640625,
                -767.6829223632813,
                8003.98486328125
            ],
            [
                554.6953735351563,
                -776.9095458984375,
                8103.98486328125
            ],
            [
                543.81982421875,
                -786.122314453125,
                8203.984375
            ],
            [
                532.8085327148438,
                -795.3216552734375,
                8303.984375
            ],
            [
                521.6730346679688,
                -804.5082397460938,
                8403.984375
            ],
            [
                510.4237365722656,
                -813.6826171875,
                8503.984375
            ],
            [
                499.07611083984375,
                -822.8458251953125,
                8603.984375
            ],
            [
                487.63525390625,
                -831.998291015625,
                8703.984375
            ],
            [
                476.1106262207031,
                -841.1406860351563,
                8803.984375
            ],
            [
                464.5102844238281,
                -850.27392578125,
                8903.984375
            ],
            [
                452.8402099609375,
                -859.3984375,
                9003.984375
            ],
            [
                441.1070861816406,
                -868.5148315429688,
                9103.984375
            ],
            [
                429.3169250488281,
                -877.623779296875,
                9203.984375
            ],
            [
                417.4747619628906,
                -886.725830078125,
                9303.984375
            ],
            [
                405.5853271484375,
                -895.8214111328125,
                9403.984375
            ],
            [
                393.6531677246094,
                -904.9111938476563,
                9503.984375
            ],
            [
                381.6819152832031,
                -913.9954833984375,
                9603.984375
            ],
            [
                369.6752624511719,
                -923.0747680664063,
                9703.984375
            ],
            [
                357.6363830566406,
                -932.1494750976563,
                9803.984375
            ],
            [
                345.568359375,
                -941.219970703125,
                9903.984375
            ],
            [
                333.4736328125,
                -950.28662109375,
                10003.984375
            ],
            [
                309.2136535644531,
                -968.4096069335938,
                10203.984375
            ],
            [
                284.87286376953125,
                -986.5206909179688,
                10403.984375
            ],
            [
                260.4662780761719,
                -1004.6220092773438,
                10603.984375
            ],
            [
                236.0032196044922,
                -1022.7149658203125,
                10803.984375
            ],
            [
                211.49607849121094,
                -1040.80126953125,
                11003.984375
            ],
            [
                186.95079040527344,
                -1058.882080078125,
                11203.984375
            ],
            [
                162.37318420410156,
                -1076.9580078125,
                11403.984375
            ],
            [
                137.7714385986328,
                -1095.0303955078125,
                11603.984375
            ],
            [
                113.1485595703125,
                -1113.099609375,
                11803.984375
            ],
            [
                88.50943756103516,
                -1131.16650390625,
                12003.984375
            ],
            [
                63.85392379760742,
                -1149.2310791015625,
                12203.984375
            ],
            [
                39.18769454956055,
                -1167.2940673828125,
                12403.984375
            ],
            [
                14.515050888061523,
                -1185.356201171875,
                12603.984375
            ],
            [
                -10.164459228515625,
                -1203.4173583984375,
                12803.984375
            ],
            [
                -34.85129928588867,
                -1221.4775390625,
                13003.984375
            ],
            [
                -59.54360580444336,
                -1239.5369873046875,
                13203.984375
            ],
            [
                -84.23876190185547,
                -1257.5960693359375,
                13403.984375
            ]
        ],
        "zFirstMeasurement": 36.2749
    },
    {
        "E": 25244.396255543474,
        "chi2": 0.9437792897224426,
        "ip": 0.006294117310474258,
        "ipchi2": 0.15417278334330706,
        "mass": 139.57,
        "particleId": "pi+",
        "pvx": 0.5977,
        "pvy": 0.0476,
        "pvz": -7.1712,
        "px": 996.23,
        "py": -2220.61,
        "pz": 25126.41,
        "q": 1.0,
        "trajectory": [
            [
                0.6454053521156311,
                -0.0606042854487896,
                -6.015200138092041
            ],
            [
                0.843651533126831,
                -0.5024915933609009,
                -1.0152000188827515
            ],
            [
                1.0418998003005981,
                -0.9443789720535278,
                3.984800100326538
            ],
            [
                1.2401500940322876,
                -1.3862663507461548,
                8.984800338745117
            ],
            [
                1.4384024143218994,
                -1.8281538486480713,
                13.984800338745117
            ],
            [
                1.6366569995880127,
                -2.2700412273406982,
                18.984800338745117
            ],
            [
                1.834913730621338,
                -2.7119288444519043,
                23.984800338745117
            ],
            [
                2.033172845840454,
                -3.1538164615631104,
                28.984800338745117
            ],
            [
                2.2314341068267822,
                -3.5957040786743164,
                33.984798431396484
            ],
            [
                2.4296975135803223,
                -4.037591934204102,
                38.984798431396484
            ],
            [
                2.62792706489563,
                -4.479464054107666,
                43.984798431396484
            ],
            [
                2.826195001602173,
                -4.921351909637451,
                48.984798431396484
            ],
            [
                3.024465322494507,
                -5.363239765167236,
                53.984798431396484
            ],
            [
                3.2227375507354736,
                -5.8051276206970215,
                58.984798431396484
            ],
            [
                3.4210121631622314,
                -6.247015953063965,
                63.984798431396484
            ],
            [
                3.619288921356201,
                -6.68890380859375,
                68.98480224609375
            ],
            [
                3.817568063735962,
                -7.130792140960693,
                73.98480224609375
            ],
            [
                4.015849590301514,
                -7.5726799964904785,
                78.98480224609375
            ],
            [
                4.214133262634277,
                -8.014568328857422,
                83.98480224609375
            ],
            [
                4.41241979598999,
                -8.456456184387207,
                88.98480224609375
            ],
            [
                4.610708236694336,
                -8.898344993591309,
                93.98480224609375
            ],
            [
                4.808999538421631,
                -9.340232849121094,
                98.98480224609375
            ],
            [
                5.007293224334717,
                -9.782121658325195,
                103.98480224609375
            ],
            [
                5.800494194030762,
                -11.549675941467285,
                123.98480224609375
            ],
            [
                6.593739032745361,
                -13.317231178283691,
                143.98480224609375
            ],
            [
                7.387030601501465,
                -15.084787368774414,
                163.98480224609375
            ],
            [
                8.180371284484863,
                -16.852344512939453,
                183.98480224609375
            ],
            [
                8.973738670349121,
                -18.619901657104492,
                203.98480224609375
            ],
            [
                9.767170906066895,
                -20.387460708618164,
                223.98480224609375
            ],
            [
                10.560654640197754,
                -22.155019760131836,
                243.98480224609375
            ],
            [
                11.354192733764648,
                -23.92258071899414,
                263.98480224609375
            ],
            [
                12.147788047790527,
                -25.690141677856445,
                283.98480224609375
            ],
            [
                12.941441535949707,
                -27.45770263671875,
                303.98480224609375
            ],
            [
                13.735156059265137,
                -29.22526741027832,
                323.98480224609375
            ],
            [
                14.528932571411133,
                -30.992830276489258,
                343.98480224609375
            ],
            [
                15.322773933410645,
                -32.76039505004883,
                363.98480224609375
            ],
            [
                16.116682052612305,
                -34.52796173095703,
                383.98480224609375
            ],
            [
                16.91065788269043,
                -36.295528411865234,
                403.98480224609375
            ],
            [
                17.704708099365234,
                -38.06309509277344,
                423.98480224609375
            ],
            [
                18.498830795288086,
                -39.830665588378906,
                443.98480224609375
            ],
            [
                19.29303741455078,
                -41.598236083984375,
                463.98480224609375
            ],
            [
                20.087324142456055,
                -43.365806579589844,
                483.98480224609375
            ],
            [
                20.88169288635254,
                -45.13337707519531,
                503.98480224609375
            ],
            [
                21.676149368286133,
                -46.90094757080078,
                523.9848022460938
            ],
            [
                22.470693588256836,
                -48.668521881103516,
                543.9848022460938
            ],
            [
                23.26532554626465,
                -50.43609619140625,
                563.9848022460938
            ],
            [
                24.06005096435547,
                -52.203670501708984,
                583.9848022460938
            ],
            [
                24.85487174987793,
                -53.97124481201172,
                603.9848022460938
            ],
            [
                25.649810791015625,
                -55.73882293701172,
                623.9848022460938
            ],
            [
                26.444854736328125,
                -57.50640106201172,
                643.9848022460938
            ],
            [
                27.240001678466797,
                -59.27397537231445,
                663.9848022460938
            ],
            [
                28.03525733947754,
                -61.04155731201172,
                683.9848022460938
            ],
            [
                28.83061981201172,
                -62.80913543701172,
                703.9848022460938
            ],
            [
                29.626089096069336,
                -64.57671356201172,
                723.9848022460938
            ],
            [
                30.421672821044922,
                -66.34429931640625,
                743.9848022460938
            ],
            [
                31.217370986938477,
                -68.11188507080078,
                763.9848022460938
            ],
            [
                32.01322555541992,
                -69.87946319580078,
                783.9848022460938
            ],
            [
                32.80923843383789,
                -71.64704895019531,
                803.9848022460938
            ],
            [
                33.605384826660156,
                -73.41462707519531,
                823.9848022460938
            ],
            [
                34.40166091918945,
                -75.18221282958984,
                843.9848022460938
            ],
            [
                35.19807815551758,
                -76.94979095458984,
                863.9848022460938
            ],
            [
                35.99463653564453,
                -78.71736907958984,
                883.9848022460938
            ],
            [
                36.79133224487305,
                -80.48495483398438,
                903.9848022460938
            ],
            [
                37.58815383911133,
                -82.25253295898438,
                923.9848022460938
            ],
            [
                38.38514709472656,
                -84.02011108398438,
                943.9848022460938
            ],
            [
                39.18233108520508,
                -85.78768157958984,
                963.9848022460938
            ],
            [
                39.97967529296875,
                -87.55525207519531,
                983.9848022460938
            ],
            [
                40.77716827392578,
                -89.32281494140625,
                1003.9848022460938
            ],
            [
                44.76772689819336,
                -98.16065979003906,
                1103.9847412109375
            ],
            [
                48.76219940185547,
                -106.99848175048828,
                1203.9847412109375
            ],
            [
                52.760982513427734,
                -115.83625030517578,
                1303.9847412109375
            ],
            [
                56.76393508911133,
                -124.67398071289063,
                1403.9847412109375
            ],
            [
                60.77137756347656,
                -133.5116729736328,
                1503.9847412109375
            ],
            [
                64.78218078613281,
                -142.34939575195313,
                1603.9847412109375
            ],
            [
                68.7975845336914,
                -151.1871337890625,
                1703.9847412109375
            ],
            [
                72.8174819946289,
                -160.02487182617188,
                1803.9847412109375
            ],
            [
                76.84297943115234,
                -168.86256408691406,
                1903.9847412109375
            ],
            [
                80.87393188476563,
                -177.7003173828125,
                2003.9847412109375
            ],
            [
                84.91375732421875,
                -186.53819274902344,
                2103.98486328125
            ],
            [
                88.96066284179688,
                -195.37612915039063,
                2203.98486328125
            ],
            [
                93.01533508300781,
                -204.21434020996094,
                2303.98486328125
            ],
            [
                97.08300018310547,
                -213.0526885986328,
                2403.98486328125
            ],
            [
                101.16447448730469,
                -221.891357421875,
                2503.98486328125
            ],
            [
                105.2647705078125,
                -230.73045349121094,
                2603.98486328125
            ],
            [
                109.38481140136719,
                -239.56979370117188,
                2703.98486328125
            ],
            [
                113.53031921386719,
                -248.4095916748047,
                2803.98486328125
            ],
            [
                117.7052993774414,
                -257.2501220703125,
                2903.98486328125
            ],
            [
                121.91434478759766,
                -266.09136962890625,
                3003.98486328125
            ],
            [
                126.16734313964844,
                -274.93353271484375,
                3103.98486328125
            ],
            [
                130.46446228027344,
                -283.7770080566406,
                3203.98486328125
            ],
            [
                134.81214904785156,
                -292.6217041015625,
                3303.98486328125
            ],
            [
                139.22463989257813,
                -301.4678649902344,
                3403.98486328125
            ],
            [
                143.70672607421875,
                -310.31536865234375,
                3503.98486328125
            ],
            [
                148.25999450683594,
                -319.1637268066406,
                3603.98486328125
            ],
            [
                152.8999786376953,
                -328.0135192871094,
                3703.98486328125
            ],
            [
                157.6309356689453,
                -336.86529541015625,
                3803.98486328125
            ],
            [
                162.4584197998047,
                -345.718994140625,
                3903.98486328125
            ],
            [
                167.39517211914063,
                -354.57391357421875,
                4003.98486328125
            ],
            [
                172.44119262695313,
                -363.42877197265625,
                4103.98486328125
            ],
            [
                177.6085968017578,
                -372.2862854003906,
                4203.98486328125
            ],
            [
                182.90089416503906,
                -381.14508056640625,
                4303.98486328125
            ],
            [
                188.31752014160156,
                -390.00408935546875,
                4403.98486328125
            ],
            [
                193.85372924804688,
                -398.86383056640625,
                4503.98486328125
            ],
            [
                199.52716064453125,
                -407.7236633300781,
                4603.98486328125
            ],
            [
                205.32708740234375,
                -416.5846862792969,
                4703.98486328125
            ],
            [
                210.7018585205078,
                -425.17681884765625,
                4803.98486328125
            ],
            [
                216.73513793945313,
                -434.0353698730469,
                4903.98486328125
            ],
            [
                222.89552307128906,
                -442.8941650390625,
                5003.98486328125
            ],
            [
                229.1870574951172,
                -451.753173828125,
                5103.98486328125
            ],
            [
                235.60076904296875,
                -460.6122131347656,
                5203.98486328125
            ],
            [
                242.1396026611328,
                -469.4712219238281,
                5303.98486328125
            ],
            [
                248.80044555664063,
                -478.3302001953125,
                5403.98486328125
            ],
            [
                255.58413696289063,
                -487.18927001953125,
                5503.98486328125
            ],
            [
                262.48193359375,
                -496.0479736328125,
                5603.98486328125
            ],
            [
                269.49749755859375,
                -504.906005859375,
                5703.98486328125
            ],
            [
                276.6282958984375,
                -513.7637939453125,
                5803.98486328125
            ],
            [
                283.866943359375,
                -522.6210327148438,
                5903.98486328125
            ],
            [
                291.2179260253906,
                -531.4777221679688,
                6003.98486328125
            ],
            [
                298.672119140625,
                -540.333740234375,
                6103.98486328125
            ],
            [
                306.2286071777344,
                -549.1890258789063,
                6203.98486328125
            ],
            [
                313.8853759765625,
                -558.0435791015625,
                6303.98486328125
            ],
            [
                321.6373596191406,
                -566.897216796875,
                6403.98486328125
            ],
            [
                329.48248291015625,
                -575.7499389648438,
                6503.98486328125
            ],
            [
                337.41607666015625,
                -584.6016845703125,
                6603.98486328125
            ],
            [
                345.4343566894531,
                -593.4521484375,
                6703.98486328125
            ],
            [
                353.531005859375,
                -602.3014526367188,
                6803.98486328125
            ],
            [
                361.7054748535156,
                -611.1494140625,
                6903.98486328125
            ],
            [
                369.9512939453125,
                -619.99609375,
                7003.98486328125
            ],
            [
                378.26336669921875,
                -628.8414306640625,
                7103.98486328125
            ],
            [
                386.63763427734375,
                -637.6854248046875,
                7203.98486328125
            ],
            [
                395.06982421875,
                -646.5280151367188,
                7303.98486328125
            ],
            [
                403.55718994140625,
                -655.3692626953125,
                7403.98486328125
            ],
            [
                412.0921325683594,
                -664.209228515625,
                7503.98486328125
            ],
            [
                420.6740417480469,
                -673.0479125976563,
                7603.98486328125
            ],
            [
                429.2969055175781,
                -681.8853759765625,
                7703.98486328125
            ],
            [
                437.95880126953125,
                -690.7216796875,
                7803.98486328125
            ],
            [
                446.6558532714844,
                -699.5568237304688,
                7903.98486328125
            ],
            [
                455.3846435546875,
                -708.3909912109375,
                8003.98486328125
            ],
            [
                464.1430969238281,
                -717.2242431640625,
                8103.98486328125
            ],
            [
                472.9276123046875,
                -726.056640625,
                8203.984375
            ],
            [
                481.7362365722656,
                -734.8882446289063,
                8303.984375
            ],
            [
                490.5669250488281,
                -743.7191772460938,
                8403.984375
            ],
            [
                499.4177551269531,
                -752.549560546875,
                8503.984375
            ],
            [
                508.2862243652344,
                -761.37939453125,
                8603.984375
            ],
            [
                517.1713256835938,
                -770.208740234375,
                8703.984375
            ],
            [
                526.0713500976563,
                -779.0377197265625,
                8803.984375
            ],
            [
                534.98486328125,
                -787.8663330078125,
                8903.984375
            ],
            [
                543.9108276367188,
                -796.6947021484375,
                9003.984375
            ],
            [
                552.8479614257813,
                -805.5228271484375,
                9103.984375
            ],
            [
                561.7952880859375,
                -814.3507080078125,
                9203.984375
            ],
            [
                570.7518920898438,
                -823.178466796875,
                9303.984375
            ],
            [
                579.7168579101563,
                -832.006103515625,
                9403.984375
            ],
            [
                588.6893920898438,
                -840.8336181640625,
                9503.984375
            ],
            [
                597.6688842773438,
                -849.6610717773438,
                9603.984375
            ],
            [
                606.6546630859375,
                -858.488525390625,
                9703.984375
            ],
            [
                615.6460571289063,
                -867.31591796875,
                9803.984375
            ],
            [
                624.6427001953125,
                -876.1432495117188,
                9903.984375
            ],
            [
                633.6439819335938,
                -884.9706420898438,
                10003.984375
            ],
            [
                651.6589965820313,
                -902.6255493164063,
                10203.984375
            ],
            [
                669.688232421875,
                -920.280517578125,
                10403.984375
            ],
            [
                687.7289428710938,
                -937.9356689453125,
                10603.984375
            ],
            [
                705.779541015625,
                -955.591064453125,
                10803.984375
            ],
            [
                723.8378295898438,
                -973.2467041015625,
                11003.984375
            ],
            [
                741.9027099609375,
                -990.9025268554688,
                11203.984375
            ],
            [
                759.97314453125,
                -1008.55859375,
                11403.984375
            ],
            [
                778.0477294921875,
                -1026.2149658203125,
                11603.984375
            ],
            [
                796.1259765625,
                -1043.8714599609375,
                11803.984375
            ],
            [
                814.2069702148438,
                -1061.528076171875,
                12003.984375
            ],
            [
                832.2908325195313,
                -1079.1849365234375,
                12203.984375
            ],
            [
                850.37646484375,
                -1096.842041015625,
                12403.984375
            ],
            [
                868.463134765625,
                -1114.4991455078125,
                12603.984375
            ],
            [
                886.5509643554688,
                -1132.156494140625,
                12803.984375
            ],
            [
                904.6400756835938,
                -1149.8138427734375,
                13003.984375
            ],
            [
                922.7300415039063,
                -1167.4713134765625,
                13203.984375
            ],
            [
                940.8204956054688,
                -1185.1287841796875,
                13403.984375
            ]
        ],
        "zFirstMeasurement": 94.1031
    },
    {
        "E": 58421.33589317203,
        "chi2": 1.103742003440857,
        "ip": 0.07482865930759576,
        "ipchi2": 7.261666407109247,
        "mass": 493.67699999999996,
        "particleId": "K-",
        "pvx": 0.5977,
        "pvy": 0.0476,
        "pvz": -7.1712,
        "px": -1074.5358050612285,
        "py": 601.3235206682842,
        "pz": 58406.271524465876,
        "q": -1.0,
        "trajectory": [
            [
                2.237173318862915,
                -0.8771678805351257,
                -100.0
            ],
            [
                2.1452033519744873,
                -0.8256904482841492,
                -95.0
            ],
            [
                2.0532326698303223,
                -0.7742130160331726,
                -90.0
            ],
            [
                1.9612667560577393,
                -0.722735583782196,
                -85.0
            ],
            [
                1.8692938089370728,
                -0.6712581515312195,
                -80.0
            ],
            [
                1.7773200273513794,
                -0.6197806596755981,
                -75.0
            ],
            [
                1.6853456497192383,
                -0.5683032274246216,
                -70.0
            ],
            [
                1.5933705568313599,
                -0.5168257355690002,
                -65.0
            ],
            [
                1.5013947486877441,
                -0.4653482437133789,
                -60.0
            ],
            [
                1.4094183444976807,
                -0.41387075185775757,
                -55.0
            ],
            [
                1.3174411058425903,
                -0.36239323019981384,
                -50.0
            ],
            [
                1.2254630327224731,
                -0.3109157085418701,
                -45.0
            ],
            [
                1.1334843635559082,
                -0.2594381868839264,
                -40.0
            ],
            [
                1.0415048599243164,
                -0.20796063542366028,
                -35.0
            ],
            [
                0.9495245814323425,
                -0.15648308396339417,
                -30.0
            ],
            [
                0.8575435280799866,
                -0.10500551760196686,
                -25.0
            ],
            [
                0.7655616402626038,
                -0.053527940064668655,
                -20.0
            ],
            [
                0.6735789179801941,
                -0.002050353679805994,
                -15.0
            ],
            [
                0.5815954208374023,
                0.04942724481225014,
                -10.0
            ],
            [
                0.4896109998226166,
                0.10090485215187073,
                -5.0
            ],
            [
                0.39762574434280396,
                0.15238246321678162,
                0.0
            ],
            [
                0.3056396245956421,
                0.2038601040840149,
                5.0
            ],
            [
                0.2136526256799698,
                0.25533774495124817,
                10.0
            ],
            [
                0.12166471779346466,
                0.30681538581848145,
                15.0
            ],
            [
                0.029675891622900963,
                0.3582930564880371,
                20.0
            ],
            [
                -0.06231387332081795,
                0.4097707271575928,
                25.0
            ],
            [
                -0.1543045938014984,
                0.46124839782714844,
                30.0
            ],
            [
                -0.24629627168178558,
                0.5127260684967041,
                35.0
            ],
            [
                -0.33828893303871155,
                0.5642037987709045,
                40.0
            ],
            [
                -0.4302825927734375,
                0.6156814694404602,
                45.0
            ],
            [
                -0.5222772359848022,
                0.6671591997146606,
                50.0
            ],
            [
                -0.614272952079773,
                0.7186369299888611,
                55.0
            ],
            [
                -0.7062696814537048,
                0.7701146602630615,
                60.0
            ],
            [
                -0.7982674837112427,
                0.8215924501419067,
                65.0
            ],
            [
                -0.8902663588523865,
                0.8730701804161072,
                70.0
            ],
            [
                -0.9822663068771362,
                0.9245479702949524,
                75.0
            ],
            [
                -1.0742673873901367,
                0.9760257601737976,
                80.0
            ],
            [
                -1.1662695407867432,
                1.027503490447998,
                85.0
            ],
            [
                -1.2582728862762451,
                1.0789812803268433,
                90.0
            ],
            [
                -1.3502774238586426,
                1.130459189414978,
                95.0
            ],
            [
                -1.442283034324646,
                1.1819369792938232,
                100.0
            ],
            [
                -1.8103092908859253,
                1.3878483772277832,
                120.0
            ],
            [
                -2.178358316421509,
                1.5937598943710327,
                140.0
            ],
            [
                -2.546426296234131,
                1.7996715307235718,
                160.0
            ],
            [
                -2.9145145416259766,
                2.0055832862854004,
                180.0
            ],
            [
                -3.282623767852783,
                2.2114953994750977,
                200.0
            ],
            [
                -3.65075421333313,
                2.417407512664795,
                220.0
            ],
            [
                -4.018898010253906,
                2.623298406600952,
                240.0
            ],
            [
                -4.387074947357178,
                2.8292107582092285,
                260.0
            ],
            [
                -4.755275726318359,
                3.035123348236084,
                280.0
            ],
            [
                -5.1235032081604,
                3.2410359382629395,
                300.0
            ],
            [
                -5.491756439208984,
                3.446948766708374,
                320.0
            ],
            [
                -5.860036849975586,
                3.6528618335723877,
                340.0
            ],
            [
                -6.228335857391357,
                3.8587749004364014,
                360.0
            ],
            [
                -6.596678256988525,
                4.064687728881836,
                380.0
            ],
            [
                -6.965048789978027,
                4.270601272583008,
                400.0
            ],
            [
                -7.333448886871338,
                4.4765143394470215,
                420.0
            ],
            [
                -7.70188045501709,
                4.682427883148193,
                440.0
            ],
            [
                -8.070344924926758,
                4.888340950012207,
                460.0
            ],
            [
                -8.438844680786133,
                5.094254493713379,
                480.0
            ],
            [
                -8.807381629943848,
                5.300168037414551,
                500.0
            ],
            [
                -9.175956726074219,
                5.506081581115723,
                520.0
            ],
            [
                -9.544572830200195,
                5.7119951248168945,
                540.0
            ],
            [
                -9.913214683532715,
                5.917909145355225,
                560.0
            ],
            [
                -10.281907081604004,
                6.1238226890563965,
                580.0
            ],
            [
                -10.650641441345215,
                6.329736232757568,
                600.0
            ],
            [
                -11.01941967010498,
                6.535650253295898,
                620.0
            ],
            [
                -11.38824462890625,
                6.74156379699707,
                640.0
            ],
            [
                -11.757116317749023,
                6.9474778175354,
                660.0
            ],
            [
                -12.126036643981934,
                7.153391361236572,
                680.0
            ],
            [
                -12.495006561279297,
                7.359305381774902,
                700.0
            ],
            [
                -12.864029884338379,
                7.565218925476074,
                720.0
            ],
            [
                -13.233104705810547,
                7.771132946014404,
                740.0
            ],
            [
                -13.602234840393066,
                7.977046489715576,
                760.0
            ],
            [
                -13.971421241760254,
                8.18295955657959,
                780.0
            ],
            [
                -14.340664863586426,
                8.388873100280762,
                800.0
            ],
            [
                -14.709966659545898,
                8.594786643981934,
                820.0
            ],
            [
                -15.079328536987305,
                8.800699234008789,
                840.0
            ],
            [
                -15.448751449584961,
                9.006612777709961,
                860.0
            ],
            [
                -15.818235397338867,
                9.212525367736816,
                880.0
            ],
            [
                -16.187782287597656,
                9.418438911437988,
                900.0
            ],
            [
                -16.557392120361328,
                9.62435245513916,
                920.0
            ],
            [
                -16.927066802978516,
                9.830265045166016,
                940.0
            ],
            [
                -17.296812057495117,
                10.036177635192871,
                960.0
            ],
            [
                -17.6666316986084,
                10.24208927154541,
                980.0
            ],
            [
                -18.036521911621094,
                10.44800090789795,
                1000.0
            ],
            [
                -19.88701629638672,
                11.477553367614746,
                1100.0
            ],
            [
                -21.739404678344727,
                12.507097244262695,
                1200.0
            ],
            [
                -23.593650817871094,
                13.536635398864746,
                1300.0
            ],
            [
                -25.449800491333008,
                14.566171646118164,
                1400.0
            ],
            [
                -27.307178497314453,
                15.595732688903809,
                1500.0
            ],
            [
                -29.166845321655273,
                16.625263214111328,
                1600.0
            ],
            [
                -31.02849578857422,
                17.6547908782959,
                1700.0
            ],
            [
                -32.89206314086914,
                18.684314727783203,
                1800.0
            ],
            [
                -34.75811004638672,
                19.713834762573242,
                1900.0
            ],
            [
                -36.627037048339844,
                20.743350982666016,
                2000.0
            ],
            [
                -38.4990119934082,
                21.77286720275879,
                2100.0
            ],
            [
                -40.37486267089844,
                22.802385330200195,
                2200.0
            ],
            [
                -42.255584716796875,
                23.831899642944336,
                2300.0
            ],
            [
                -44.14131164550781,
                24.861412048339844,
                2400.0
            ],
            [
                -46.033836364746094,
                25.890958786010742,
                2500.0
            ],
            [
                -47.934242248535156,
                26.92045783996582,
                2600.0
            ],
            [
                -49.84551239013672,
                27.94994354248047,
                2700.0
            ],
            [
                -51.76727294921875,
                28.97942543029785,
                2800.0
            ],
            [
                -53.70331954956055,
                30.00889778137207,
                2900.0
            ],
            [
                -55.65540313720703,
                31.038366317749023,
                3000.0
            ],
            [
                -57.62511444091797,
                32.06785202026367,
                3100.0
            ],
            [
                -59.61821365356445,
                33.09735870361328,
                3200.0
            ],
            [
                -61.63413619995117,
                34.12689208984375,
                3300.0
            ],
            [
                -63.67543029785156,
                35.156429290771484,
                3400.0
            ],
            [
                -65.74911499023438,
                36.186065673828125,
                3500.0
            ],
            [
                -67.8543472290039,
                37.21563720703125,
                3600.0
            ],
            [
                -69.9969482421875,
                38.24521255493164,
                3700.0
            ],
            [
                -72.17906951904297,
                39.274818420410156,
                3800.0
            ],
            [
                -74.40116882324219,
                40.304481506347656,
                3900.0
            ],
            [
                -76.66597747802734,
                41.33406448364258,
                4000.0
            ],
            [
                -78.98469543457031,
                42.36354064941406,
                4100.0
            ],
            [
                -81.34838104248047,
                43.393035888671875,
                4200.0
            ],
            [
                -83.76234436035156,
                44.42250442504883,
                4300.0
            ],
            [
                -86.22422790527344,
                45.45195770263672,
                4400.0
            ],
            [
                -88.74201965332031,
                46.48122024536133,
                4500.0
            ],
            [
                -91.31391906738281,
                47.510398864746094,
                4600.0
            ],
            [
                -93.9365463256836,
                48.539608001708984,
                4700.0
            ],
            [
                -96.61449432373047,
                49.568668365478516,
                4800.0
            ],
            [
                -99.34242248535156,
                50.59759521484375,
                4900.0
            ],
            [
                -102.51486206054688,
                51.721832275390625,
                5000.0
            ],
            [
                -105.35942840576172,
                52.750267028808594,
                5100.0
            ],
            [
                -108.25596618652344,
                53.778663635253906,
                5200.0
            ],
            [
                -111.20504760742188,
                54.80677795410156,
                5300.0
            ],
            [
                -114.20489501953125,
                55.8350715637207,
                5400.0
            ],
            [
                -117.25499725341797,
                56.86341857910156,
                5500.0
            ],
            [
                -120.35321044921875,
                57.89129638671875,
                5600.0
            ],
            [
                -123.50102233886719,
                58.91923522949219,
                5700.0
            ],
            [
                -126.69638061523438,
                59.946983337402344,
                5800.0
            ],
            [
                -129.9363250732422,
                60.97457504272461,
                5900.0
            ],
            [
                -133.22232055664063,
                62.001956939697266,
                6000.0
            ],
            [
                -136.5515899658203,
                63.0291633605957,
                6100.0
            ],
            [
                -139.92306518554688,
                64.05630493164063,
                6200.0
            ],
            [
                -143.33531188964844,
                65.08336639404297,
                6300.0
            ],
            [
                -146.78665161132813,
                66.11034393310547,
                6400.0
            ],
            [
                -150.276123046875,
                67.13729095458984,
                6500.0
            ],
            [
                -153.8013153076172,
                68.1640853881836,
                6600.0
            ],
            [
                -157.3615264892578,
                69.19075775146484,
                6700.0
            ],
            [
                -160.9540557861328,
                70.21733856201172,
                6800.0
            ],
            [
                -164.57847595214844,
                71.24386596679688,
                6900.0
            ],
            [
                -168.23248291015625,
                72.27030181884766,
                7000.0
            ],
            [
                -171.9142303466797,
                73.29666900634766,
                7100.0
            ],
            [
                -175.6220245361328,
                74.32294464111328,
                7200.0
            ],
            [
                -179.35447692871094,
                75.34912872314453,
                7300.0
            ],
            [
                -183.11038208007813,
                76.375244140625,
                7400.0
            ],
            [
                -186.88697814941406,
                77.40125274658203,
                7500.0
            ],
            [
                -190.683837890625,
                78.42716979980469,
                7600.0
            ],
            [
                -194.49891662597656,
                79.45298767089844,
                7700.0
            ],
            [
                -198.33143615722656,
                80.47869873046875,
                7800.0
            ],
            [
                -202.17994689941406,
                81.50431060791016,
                7900.0
            ],
            [
                -206.04302978515625,
                82.52981567382813,
                8000.0
            ],
            [
                -209.919921875,
                83.55522155761719,
                8100.0
            ],
            [
                -213.80908203125,
                84.58052825927734,
                8200.0
            ],
            [
                -217.70973205566406,
                85.60574340820313,
                8300.0
            ],
            [
                -221.62103271484375,
                86.6308822631836,
                8400.0
            ],
            [
                -225.54208374023438,
                87.65593719482422,
                8500.0
            ],
            [
                -229.47183227539063,
                88.68092346191406,
                8600.0
            ],
            [
                -233.40980529785156,
                89.70584106445313,
                8700.0
            ],
            [
                -237.35523986816406,
                90.73070526123047,
                8800.0
            ],
            [
                -241.30746459960938,
                91.7555160522461,
                8900.0
            ],
            [
                -245.2659912109375,
                92.78026580810547,
                9000.0
            ],
            [
                -249.23023986816406,
                93.80496978759766,
                9100.0
            ],
            [
                -253.19970703125,
                94.82962799072266,
                9200.0
            ],
            [
                -257.1739807128906,
                95.854248046875,
                9300.0
            ],
            [
                -261.152587890625,
                96.87882232666016,
                9400.0
            ],
            [
                -265.1351623535156,
                97.90336608886719,
                9500.0
            ],
            [
                -269.1213684082031,
                98.9278793334961,
                9600.0
            ],
            [
                -273.11090087890625,
                99.9523696899414,
                9700.0
            ],
            [
                -277.10345458984375,
                100.9768295288086,
                9800.0
            ],
            [
                -281.0987243652344,
                102.00127410888672,
                9900.0
            ],
            [
                -285.0965270996094,
                103.02569580078125,
                10000.0
            ],
            [
                -293.0987548828125,
                105.07447814941406,
                10200.0
            ],
            [
                -301.108642578125,
                107.12321472167969,
                10400.0
            ],
            [
                -309.1247863769531,
                109.17190551757813,
                10600.0
            ],
            [
                -317.1462707519531,
                111.22056579589844,
                10800.0
            ],
            [
                -325.1719970703125,
                113.26919555664063,
                11000.0
            ],
            [
                -333.20135498046875,
                115.31781768798828,
                11200.0
            ],
            [
                -341.2337951660156,
                117.36641693115234,
                11400.0
            ],
            [
                -349.2685852050781,
                119.4150161743164,
                11600.0
            ],
            [
                -357.30535888671875,
                121.46360778808594,
                11800.0
            ],
            [
                -365.3437194824219,
                123.51219940185547,
                12000.0
            ],
            [
                -373.3836669921875,
                125.56078338623047,
                12200.0
            ],
            [
                -381.4246826171875,
                127.609375,
                12400.0
            ],
            [
                -389.4662780761719,
                129.65797424316406,
                12600.0
            ],
            [
                -397.5085754394531,
                131.70657348632813,
                12800.0
            ],
            [
                -405.5516052246094,
                133.75515747070313,
                13000.0
            ],
            [
                -413.5951232910156,
                135.8037567138672,
                13200.0
            ],
            [
                -421.6388854980469,
                137.85235595703125,
                13400.0
            ]
        ],
        "zFirstMeasurement": 449.2342
    }
]
