[
    {
        "E": 110511.61972019539,
        "chi2": 0.0,
        "ip": 0.2584325666808069,
        "ipchi2": 146.818369765647,
        "mass": 1845.368,
        "particleId": "D0",
        "pvx": 0.5815,
        "pvy": 0.1301,
        "pvz": 74.6557,
        "px": -958.58,
        "py": -3427.48,
        "pz": 110438.88,
        "q": 0.0,
        "trajectory": [
            [
                0.5814999938011169,
                0.13009999692440033,
                74.65570068359375
            ],
            [
                0.376800000667572,
                -0.527899980545044,
                88.03060150146484
            ]
        ],
        "zFirstMeasurement": -9999.0
    },
    {
        "E": 37842.256928862706,
        "chi2": 0.5271348357200623,
        "ip": 0.021401490851528402,
        "ipchi2": 0.7841032926729123,
        "mass": 493.677,
        "particleId": "K-",
        "pvx": 0.5815,
        "pvy": 0.1301,
        "pvz": 74.6557,
        "px": -550.99,
        "py": -1914.81,
        "pz": 37786.54,
        "q": -1.0,
        "trajectory": [
            [
                0.377658873796463,
                -0.5281440019607544,
                88.03060150146484
            ],
            [
                0.30474787950515747,
                -0.7815160751342773,
                93.03060150146484
            ],
            [
                0.23183518648147583,
                -1.0348881483078003,
                98.03060150146484
            ],
            [
                0.15892080962657928,
                -1.2882601022720337,
                103.03060150146484
            ],
            [
                -0.13275423645973206,
                -2.301748037338257,
                123.03060150146484
            ],
            [
                -0.4244590103626251,
                -3.3152358531951904,
                143.0305938720703
            ],
            [
                -0.7161954045295715,
                -4.328723430633545,
                163.0305938720703
            ],
            [
                -1.0079326629638672,
                -5.342186450958252,
                183.0305938720703
            ],
            [
                -1.299731731414795,
                -6.355673789978027,
                203.0305938720703
            ],
            [
                -1.591562271118164,
                -7.3691606521606445,
                223.0305938720703
            ],
            [
                -1.8834264278411865,
                -8.382647514343262,
                243.0305938720703
            ],
            [
                -2.175326347351074,
                -9.396134376525879,
                263.0306091308594
            ],
            [
                -2.46726393699646,
                -10.40962028503418,
                283.0306091308594
            ],
            [
                -2.7592413425445557,
                -11.423107147216797,
                303.0306091308594
            ],
            [
                -3.0512607097625732,
                -12.436593055725098,
                323.0306091308594
            ],
            [
                -3.3433244228363037,
                -13.450079917907715,
                343.0306091308594
            ],
            [
                -3.63541841506958,
                -14.463565826416016,
                363.0306091308594
            ],
            [
                -3.927565574645996,
                -15.477051734924316,
                383.0306091308594
            ],
            [
                -4.219759464263916,
                -16.490537643432617,
                403.0306091308594
            ],
            [
                -4.512002468109131,
                -17.5040225982666,
                423.0306091308594
            ],
            [
                -4.804294586181641,
                -18.51750946044922,
                443.0306091308594
            ],
            [
                -5.0966386795043945,
                -19.530994415283203,
                463.0306091308594
            ],
            [
                -5.389035701751709,
                -20.54448127746582,
                483.0306091308594
            ],
            [
                -5.681488513946533,
                -21.557966232299805,
                503.0306091308594
            ],
            [
                -5.974000930786133,
                -22.571453094482422,
                523.0305786132813
            ],
            [
                -6.26657247543335,
                -23.584938049316406,
                543.0305786132813
            ],
            [
                -6.559205055236816,
                -24.598424911499023,
                563.0305786132813
            ],
            [
                -6.851900100708008,
                -25.611909866333008,
                583.0305786132813
            ],
            [
                -7.144659519195557,
                -26.625396728515625,
                603.0305786132813
            ],
            [
                -7.437486171722412,
                -27.638883590698242,
                623.0305786132813
            ],
            [
                -7.730380535125732,
                -28.652368545532227,
                643.0305786132813
            ],
            [
                -8.023345947265625,
                -29.665855407714844,
                663.0305786132813
            ],
            [
                -8.316390991210938,
                -30.67934226989746,
                683.0305786132813
            ],
            [
                -8.609511375427246,
                -31.69283103942871,
                703.0305786132813
            ],
            [
                -8.90270709991455,
                -32.70631790161133,
                723.0305786132813
            ],
            [
                -9.195991516113281,
                -33.71980285644531,
                743.0305786132813
            ],
            [
                -9.489362716674805,
                -34.73329162597656,
                763.0305786132813
            ],
            [
                -9.782818794250488,
                -35.74678039550781,
                783.0305786132813
            ],
            [
                -10.076360702514648,
                -36.7602653503418,
                803.0305786132813
            ],
            [
                -10.369990348815918,
                -37.77375411987305,
                823.0305786132813
            ],
            [
                -10.663721084594727,
                -38.7872428894043,
                843.0305786132813
            ],
            [
                -10.957548141479492,
                -39.80073547363281,
                863.0305786132813
            ],
            [
                -11.251472473144531,
                -40.81422805786133,
                883.0305786132813
            ],
            [
                -11.545494079589844,
                -41.82771682739258,
                903.0305786132813
            ],
            [
                -11.839608192443848,
                -42.841209411621094,
                923.0305786132813
            ],
            [
                -12.13382339477539,
                -43.85470199584961,
                943.0305786132813
            ],
            [
                -12.428143501281738,
                -44.86819839477539,
                963.0305786132813
            ],
            [
                -12.72256851196289,
                -45.881690979003906,
                983.0305786132813
            ],
            [
                -13.017090797424316,
                -46.89518356323242,
                1003.0305786132813
            ],
            [
                -14.491275787353516,
                -51.962642669677734,
                1103.0306396484375
            ],
            [
                -15.968396186828613,
                -57.03010559082031,
                1203.0306396484375
            ],
            [
                -17.448749542236328,
                -62.09760665893555,
                1303.0306396484375
            ],
            [
                -18.931657791137695,
                -67.16508483886719,
                1403.0306396484375
            ],
            [
                -20.417118072509766,
                -72.23258209228516,
                1503.0306396484375
            ],
            [
                -21.905508041381836,
                -77.30007934570313,
                1603.0306396484375
            ],
            [
                -23.397098541259766,
                -82.36759948730469,
                1703.0306396484375
            ],
            [
                -24.89134407043457,
                -87.43511962890625,
                1803.0306396484375
            ],
            [
                -26.38957405090332,
                -92.50264739990234,
                1903.0306396484375
            ],
            [
                -27.891996383666992,
                -97.57019805908203,
                2003.0306396484375
            ],
            [
                -29.399106979370117,
                -102.63778686523438,
                2103.030517578125
            ],
            [
                -30.91171646118164,
                -107.70541381835938,
                2203.030517578125
            ],
            [
                -32.43266296386719,
                -112.77320098876953,
                2303.030517578125
            ],
            [
                -33.960689544677734,
                -117.84099578857422,
                2403.030517578125
            ],
            [
                -35.50013732910156,
                -122.90888214111328,
                2503.030517578125
            ],
            [
                -37.05094528198242,
                -127.97686004638672,
                2603.030517578125
            ],
            [
                -38.61655044555664,
                -133.0449981689453,
                2703.030517578125
            ],
            [
                -40.200103759765625,
                -138.11326599121094,
                2803.030517578125
            ],
            [
                -41.803279876708984,
                -143.1817169189453,
                2903.030517578125
            ],
            [
                -43.432342529296875,
                -148.25042724609375,
                3003.030517578125
            ],
            [
                -45.08836364746094,
                -153.31930541992188,
                3103.030517578125
            ],
            [
                -46.775325775146484,
                -158.38833618164063,
                3203.030517578125
            ],
            [
                -48.50395202636719,
                -163.4575653076172,
                3303.030517578125
            ],
            [
                -50.27184295654297,
                -168.52696228027344,
                3403.030517578125
            ],
            [
                -52.08614730834961,
                -173.5967254638672,
                3503.030517578125
            ],
            [
                -53.95024490356445,
                -178.66676330566406,
                3603.030517578125
            ],
            [
                -55.87004089355469,
                -183.7371368408203,
                3703.030517578125
            ],
            [
                -57.849334716796875,
                -188.80767822265625,
                3803.030517578125
            ],
            [
                -59.896480560302734,
                -193.87872314453125,
                3903.030517578125
            ],
            [
                -62.008270263671875,
                -198.95033264160156,
                4003.030517578125
            ],
            [
                -64.19632720947266,
                -204.0222930908203,
                4103.03076171875
            ],
            [
                -66.46147918701172,
                -209.0946502685547,
                4203.03076171875
            ],
            [
                -68.80810546875,
                -214.16708374023438,
                4303.03076171875
            ],
            [
                -71.22994995117188,
                -219.24014282226563,
                4403.03076171875
            ],
            [
                -73.73619842529297,
                -224.31381225585938,
                4503.03076171875
            ],
            [
                -76.32698822021484,
                -229.3874053955078,
                4603.03076171875
            ],
            [
                -78.99878692626953,
                -234.46139526367188,
                4703.03076171875
            ],
            [
                -81.75714874267578,
                -239.5358428955078,
                4803.03076171875
            ],
            [
                -83.94780731201172,
                -244.33038330078125,
                4903.03076171875
            ],
            [
                -86.87894439697266,
                -249.4013671875,
                5003.03076171875
            ],
            [
                -89.89474487304688,
                -254.47271728515625,
                5103.03076171875
            ],
            [
                -92.99093627929688,
                -259.5443420410156,
                5203.03076171875
            ],
            [
                -96.16880798339844,
                -264.61651611328125,
                5303.03076171875
            ],
            [
                -99.42596435546875,
                -269.6885681152344,
                5403.03076171875
            ],
            [
                -102.76229095458984,
                -274.76025390625,
                5503.03076171875
            ],
            [
                -106.17339324951172,
                -279.83282470703125,
                5603.03076171875
            ],
            [
                -109.66149139404297,
                -284.9053039550781,
                5703.03076171875
            ],
            [
                -113.223876953125,
                -289.9781188964844,
                5803.03076171875
            ],
            [
                -116.85626220703125,
                -295.0509948730469,
                5903.03076171875
            ],
            [
                -120.5606689453125,
                -300.12396240234375,
                6003.03076171875
            ],
            [
                -124.33244323730469,
                -305.1971740722656,
                6103.03076171875
            ],
            [
                -128.170166015625,
                -310.2703857421875,
                6203.03076171875
            ],
            [
                -132.07211303710938,
                -315.3434753417969,
                6303.03076171875
            ],
            [
                -136.03521728515625,
                -320.4165344238281,
                6403.03076171875
            ],
            [
                -140.05809020996094,
                -325.489501953125,
                6503.03076171875
            ],
            [
                -144.13746643066406,
                -330.5624084472656,
                6603.03076171875
            ],
            [
                -148.27142333984375,
                -335.63525390625,
                6703.03076171875
            ],
            [
                -152.45591735839844,
                -340.7080078125,
                6803.03076171875
            ],
            [
                -156.69032287597656,
                -345.780517578125,
                6903.03076171875
            ],
            [
                -160.97100830078125,
                -350.85284423828125,
                7003.03076171875
            ],
            [
                -165.29489135742188,
                -355.92498779296875,
                7103.03076171875
            ],
            [
                -169.6593475341797,
                -360.9969787597656,
                7203.03076171875
            ],
            [
                -174.0620880126953,
                -366.06878662109375,
                7303.03076171875
            ],
            [
                -178.5010986328125,
                -371.140380859375,
                7403.03076171875
            ],
            [
                -182.97213745117188,
                -376.21185302734375,
                7503.03076171875
            ],
            [
                -187.4745330810547,
                -381.2831115722656,
                7603.03076171875
            ],
            [
                -192.00482177734375,
                -386.3542175292969,
                7703.03076171875
            ],
            [
                -196.56182861328125,
                -391.42523193359375,
                7803.03076171875
            ],
            [
                -201.1431884765625,
                -396.49609375,
                7903.03076171875
            ],
            [
                -205.74673461914063,
                -401.5668640136719,
                8003.03076171875
            ],
            [
                -210.3711700439453,
                -406.6375427246094,
                8103.03076171875
            ],
            [
                -215.01414489746094,
                -411.7081604003906,
                8203.0302734375
            ],
            [
                -219.6743927001953,
                -416.7787170410156,
                8303.0302734375
            ],
            [
                -224.35057067871094,
                -421.84918212890625,
                8403.0302734375
            ],
            [
                -229.04136657714844,
                -426.91961669921875,
                8503.0302734375
            ],
            [
                -233.7451171875,
                -431.9900207519531,
                8603.0302734375
            ],
            [
                -238.46109008789063,
                -437.06036376953125,
                8703.0302734375
            ],
            [
                -243.1881103515625,
                -442.13067626953125,
                8803.0302734375
            ],
            [
                -247.92518615722656,
                -447.20098876953125,
                8903.0302734375
            ],
            [
                -252.6715545654297,
                -452.271240234375,
                9003.0302734375
            ],
            [
                -257.4263610839844,
                -457.3415222167969,
                9103.0302734375
            ],
            [
                -262.1888122558594,
                -462.4117736816406,
                9203.0302734375
            ],
            [
                -266.95831298828125,
                -467.4820556640625,
                9303.0302734375
            ],
            [
                -271.7341613769531,
                -472.55230712890625,
                9403.0302734375
            ],
            [
                -276.5158386230469,
                -477.6225891113281,
                9503.0302734375
            ],
            [
                -281.3028259277344,
                -482.6929016113281,
                9603.0302734375
            ],
            [
                -286.0946350097656,
                -487.76318359375,
                9703.0302734375
            ],
            [
                -290.8908386230469,
                -492.8335266113281,
                9803.0302734375
            ],
            [
                -295.6910095214844,
                -497.9038391113281,
                9903.0302734375
            ],
            [
                -300.494873046875,
                -502.9742126464844,
                10003.0302734375
            ],
            [
                -310.11224365234375,
                -513.114990234375,
                10203.0302734375
            ],
            [
                -319.74072265625,
                -523.2557983398438,
                10403.0302734375
            ],
            [
                -329.37823486328125,
                -533.396728515625,
                10603.0302734375
            ],
            [
                -339.0235290527344,
                -543.5377197265625,
                10803.0302734375
            ],
            [
                -348.6748962402344,
                -553.6787719726563,
                11003.0302734375
            ],
            [
                -358.3315124511719,
                -563.8198852539063,
                11203.0302734375
            ],
            [
                -367.99261474609375,
                -573.9610595703125,
                11403.0302734375
            ],
            [
                -377.6570129394531,
                -584.102294921875,
                11603.0302734375
            ],
            [
                -387.3243408203125,
                -594.2435913085938,
                11803.0302734375
            ],
            [
                -396.9939270019531,
                -604.3849487304688,
                12003.0302734375
            ],
            [
                -406.6658020019531,
                -614.5263061523438,
                12203.0302734375
            ],
            [
                -416.3391418457031,
                -624.667724609375,
                12403.0302734375
            ],
            [
                -426.0133972167969,
                -634.8091430664063,
                12603.0302734375
            ],
            [
                -435.6885986328125,
                -644.9506225585938,
                12803.0302734375
            ],
            [
                -445.3648376464844,
                -655.0921020507813,
                13003.0302734375
            ],
            [
                -455.04180908203125,
                -665.2335815429688,
                13203.0302734375
            ],
            [
                -464.7191467285156,
                -675.3751220703125,
                13403.0302734375
            ]
        ],
        "zFirstMeasurement": 259.1167
    },
    {
        "E": 72669.50340723952,
        "chi2": 1.0896074771881104,
        "ip": 0.04329284077066095,
        "ipchi2": 1.3115574178162546,
        "mass": 139.57,
        "particleId": "pi+",
        "pvx": 0.5754,
        "pvy": 0.09,
        "pvz": 56.715,
        "px": -407.41,
        "py": -1512.75,
        "pz": 72652.48,
        "q": 1.0,
        "trajectory": [
            [
                0.3742050230503082,
                -0.5271179676055908,
                88.03060150146484
            ],
            [
                0.34617024660110474,
                -0.6312263011932373,
                93.03060150146484
            ],
            [
                0.3181363046169281,
                -0.7353346347808838,
                98.03060150146484
            ],
            [
                0.2901032865047455,
                -0.8394429683685303,
                103.03060150146484
            ],
            [
                0.17798040807247162,
                -1.2558765411376953,
                123.03060150146484
            ],
            [
                0.0658731460571289,
                -1.67231023311615,
                143.0305938720703
            ],
            [
                -0.04621734842658043,
                -2.0887439250946045,
                163.0305938720703
            ],
            [
                -0.15829969942569733,
                -2.5051779747009277,
                183.0305938720703
            ],
            [
                -0.27035996317863464,
                -2.921612024307251,
                203.0305938720703
            ],
            [
                -0.3824026882648468,
                -3.3380463123321533,
                223.0305938720703
            ],
            [
                -0.4944272041320801,
                -3.7544806003570557,
                243.0305938720703
            ],
            [
                -0.6063590049743652,
                -4.170962810516357,
                263.0306091308594
            ],
            [
                -0.7183451652526855,
                -4.58739709854126,
                283.0306091308594
            ],
            [
                -0.8303102254867554,
                -5.00383186340332,
                303.0306091308594
            ],
            [
                -0.942254364490509,
                -5.420266628265381,
                323.0306091308594
            ],
            [
                -1.0541768074035645,
                -5.836701393127441,
                343.0306091308594
            ],
            [
                -1.166083574295044,
                -6.253136157989502,
                363.0306091308594
            ],
            [
                -1.2779560089111328,
                -6.669571399688721,
                383.0306091308594
            ],
            [
                -1.3898059129714966,
                -7.086006164550781,
                403.0306091308594
            ],
            [
                -1.5016318559646606,
                -7.50244140625,
                423.0306091308594
            ],
            [
                -1.6134324073791504,
                -7.918876647949219,
                443.0306091308594
            ],
            [
                -1.7252060174942017,
                -8.335311889648438,
                463.0306091308594
            ],
            [
                -1.8369513750076294,
                -8.751747131347656,
                483.0306091308594
            ],
            [
                -1.948667049407959,
                -9.168182373046875,
                503.0306091308594
            ],
            [
                -2.060351610183716,
                -9.584617614746094,
                523.0305786132813
            ],
            [
                -2.1720032691955566,
                -10.001052856445313,
                543.0305786132813
            ],
            [
                -2.2836344242095947,
                -10.417488098144531,
                563.0305786132813
            ],
            [
                -2.3952248096466064,
                -10.83392333984375,
                583.0305786132813
            ],
            [
                -2.5067808628082275,
                -11.250359535217285,
                603.0305786132813
            ],
            [
                -2.6183013916015625,
                -11.666794776916504,
                623.0305786132813
            ],
            [
                -2.7297847270965576,
                -12.083230018615723,
                643.0305786132813
            ],
            [
                -2.8412299156188965,
                -12.499665260314941,
                663.0305786132813
            ],
            [
                -2.952636480331421,
                -12.916101455688477,
                683.0305786132813
            ],
            [
                -3.064002513885498,
                -13.332536697387695,
                703.0305786132813
            ],
            [
                -3.175326347351074,
                -13.748971939086914,
                723.0305786132813
            ],
            [
                -3.286607265472412,
                -14.165407180786133,
                743.0305786132813
            ],
            [
                -3.3978445529937744,
                -14.581841468811035,
                763.0305786132813
            ],
            [
                -3.5090367794036865,
                -14.998276710510254,
                783.0305786132813
            ],
            [
                -3.620182752609253,
                -15.414711952209473,
                803.0305786132813
            ],
            [
                -3.7312817573547363,
                -15.831146240234375,
                823.0305786132813
            ],
            [
                -3.842332124710083,
                -16.247581481933594,
                843.0305786132813
            ],
            [
                -3.9533331394195557,
                -16.66401481628418,
                863.0305786132813
            ],
            [
                -4.0642852783203125,
                -17.0804500579834,
                883.0305786132813
            ],
            [
                -4.175187110900879,
                -17.496885299682617,
                903.0305786132813
            ],
            [
                -4.286038398742676,
                -17.913318634033203,
                923.0305786132813
            ],
            [
                -4.396836280822754,
                -18.329753875732422,
                943.0305786132813
            ],
            [
                -4.507575511932373,
                -18.746187210083008,
                963.0305786132813
            ],
            [
                -4.61825704574585,
                -19.162620544433594,
                983.0305786132813
            ],
            [
                -4.728882789611816,
                -19.57905387878418,
                1003.0305786132813
            ],
            [
                -5.2811665534973145,
                -21.661212921142578,
                1103.0306396484375
            ],
            [
                -5.8319292068481445,
                -23.743366241455078,
                1203.0306396484375
            ],
            [
                -6.381197929382324,
                -25.82551383972168,
                1303.0306396484375
            ],
            [
                -6.928943157196045,
                -27.907663345336914,
                1403.0306396484375
            ],
            [
                -7.475687026977539,
                -29.98984146118164,
                1503.0306396484375
            ],
            [
                -8.020596504211426,
                -32.071983337402344,
                1603.0306396484375
            ],
            [
                -8.56391429901123,
                -34.15412521362305,
                1703.0306396484375
            ],
            [
                -9.105701446533203,
                -36.23625946044922,
                1803.0306396484375
            ],
            [
                -9.645476341247559,
                -38.31838607788086,
                1903.0306396484375
            ],
            [
                -10.182964324951172,
                -40.4005012512207,
                2003.0306396484375
            ],
            [
                -10.717962265014648,
                -42.482608795166016,
                2103.030517578125
            ],
            [
                -11.249879837036133,
                -44.56471633911133,
                2203.030517578125
            ],
            [
                -11.77784538269043,
                -46.64680862426758,
                2303.030517578125
            ],
            [
                -12.30174732208252,
                -48.7288818359375,
                2403.030517578125
            ],
            [
                -12.82018756866455,
                -50.81098556518555,
                2503.030517578125
            ],
            [
                -13.332345962524414,
                -52.893009185791016,
                2603.030517578125
            ],
            [
                -13.835687637329102,
                -54.974998474121094,
                2703.030517578125
            ],
            [
                -14.330565452575684,
                -57.05695343017578,
                2803.030517578125
            ],
            [
                -14.81395435333252,
                -59.13887023925781,
                2903.030517578125
            ],
            [
                -15.284374237060547,
                -61.220741271972656,
                3003.030517578125
            ],
            [
                -15.740732192993164,
                -63.30259704589844,
                3103.030517578125
            ],
            [
                -16.17813491821289,
                -65.38445281982422,
                3203.030517578125
            ],
            [
                -16.597244262695313,
                -67.4662857055664,
                3303.030517578125
            ],
            [
                -16.995820999145508,
                -69.5480728149414,
                3403.030517578125
            ],
            [
                -17.36850357055664,
                -71.62992095947266,
                3503.030517578125
            ],
            [
                -17.71569061279297,
                -73.71161651611328,
                3603.030517578125
            ],
            [
                -18.032808303833008,
                -75.79329681396484,
                3703.030517578125
            ],
            [
                -18.318172454833984,
                -77.87493133544922,
                3803.030517578125
            ],
            [
                -18.571380615234375,
                -79.95650482177734,
                3903.030517578125
            ],
            [
                -18.789941787719727,
                -82.03799438476563,
                4003.030517578125
            ],
            [
                -18.965171813964844,
                -84.119384765625,
                4103.03076171875
            ],
            [
                -19.104473114013672,
                -86.20075988769531,
                4203.03076171875
            ],
            [
                -19.203493118286133,
                -88.28201293945313,
                4303.03076171875
            ],
            [
                -19.2632999420166,
                -90.36322021484375,
                4403.03076171875
            ],
            [
                -19.27851104736328,
                -92.44441223144531,
                4503.03076171875
            ],
            [
                -19.250091552734375,
                -94.52539825439453,
                4603.03076171875
            ],
            [
                -19.181156158447266,
                -96.60635375976563,
                4703.03076171875
            ],
            [
                -19.06755828857422,
                -98.68710327148438,
                4803.03076171875
            ],
            [
                -18.913578033447266,
                -100.76781463623047,
                4903.03076171875
            ],
            [
                -18.27409553527832,
                -102.83226013183594,
                5003.03076171875
            ],
            [
                -18.03553581237793,
                -104.9129867553711,
                5103.03076171875
            ],
            [
                -17.755352020263672,
                -106.99361419677734,
                5203.03076171875
            ],
            [
                -17.432958602905273,
                -109.07398223876953,
                5303.03076171875
            ],
            [
                -17.069732666015625,
                -111.15444946289063,
                5403.03076171875
            ],
            [
                -16.665559768676758,
                -113.23507690429688,
                5503.03076171875
            ],
            [
                -16.22315216064453,
                -115.3153076171875,
                5603.03076171875
            ],
            [
                -15.741019248962402,
                -117.39556884765625,
                5703.03076171875
            ],
            [
                -15.220649719238281,
                -119.47565460205078,
                5803.03076171875
            ],
            [
                -14.664422035217285,
                -121.5556640625,
                5903.03076171875
            ],
            [
                -14.071154594421387,
                -123.63555908203125,
                6003.03076171875
            ],
            [
                -13.443121910095215,
                -125.71529388427734,
                6103.03076171875
            ],
            [
                -12.781208038330078,
                -127.79496765136719,
                6203.03076171875
            ],
            [
                -12.086405754089355,
                -129.8746337890625,
                6303.03076171875
            ],
            [
                -11.360246658325195,
                -131.95423889160156,
                6403.03076171875
            ],
            [
                -10.603407859802246,
                -134.0338134765625,
                6503.03076171875
            ],
            [
                -9.817779541015625,
                -136.11331176757813,
                6603.03076171875
            ],
            [
                -9.004124641418457,
                -138.19273376464844,
                6703.03076171875
            ],
            [
                -8.164514541625977,
                -140.27207946777344,
                6803.03076171875
            ],
            [
                -7.2993083000183105,
                -142.35140991210938,
                6903.03076171875
            ],
            [
                -6.410299301147461,
                -144.43069458007813,
                7003.03076171875
            ],
            [
                -5.499056816101074,
                -146.5099334716797,
                7103.03076171875
            ],
            [
                -4.566884994506836,
                -148.58912658691406,
                7203.03076171875
            ],
            [
                -3.6149203777313232,
                -150.66824340820313,
                7303.03076171875
            ],
            [
                -2.644223213195801,
                -152.74732971191406,
                7403.03076171875
            ],
            [
                -1.6569188833236694,
                -154.82635498046875,
                7503.03076171875
            ],
            [
                -0.6533139944076538,
                -156.9053192138672,
                7603.03076171875
            ],
            [
                0.3648759722709656,
                -158.98422241210938,
                7703.03076171875
            ],
            [
                1.3970330953598022,
                -161.0630340576172,
                7803.03076171875
            ],
            [
                2.441976547241211,
                -163.1417999267578,
                7903.03076171875
            ],
            [
                3.4986050128936768,
                -165.22048950195313,
                8003.03076171875
            ],
            [
                4.5662641525268555,
                -167.29910278320313,
                8103.03076171875
            ],
            [
                5.643751621246338,
                -169.37765502929688,
                8203.0302734375
            ],
            [
                6.730417728424072,
                -171.4561309814453,
                8303.0302734375
            ],
            [
                7.82557487487793,
                -173.53456115722656,
                8403.0302734375
            ],
            [
                8.928536415100098,
                -175.61293029785156,
                8503.0302734375
            ],
            [
                10.03844928741455,
                -177.6912384033203,
                8603.0302734375
            ],
            [
                11.154928207397461,
                -179.76951599121094,
                8703.0302734375
            ],
            [
                12.277361869812012,
                -181.84774780273438,
                8803.0302734375
            ],
            [
                13.405211448669434,
                -183.92591857910156,
                8903.0302734375
            ],
            [
                14.538084983825684,
                -186.00405883789063,
                9003.0302734375
            ],
            [
                15.675532341003418,
                -188.08216857910156,
                9103.0302734375
            ],
            [
                16.817138671875,
                -190.1602325439453,
                9203.0302734375
            ],
            [
                17.962560653686523,
                -192.23828125,
                9303.0302734375
            ],
            [
                19.111459732055664,
                -194.3162841796875,
                9403.0302734375
            ],
            [
                20.263521194458008,
                -196.39425659179688,
                9503.0302734375
            ],
            [
                21.41848373413086,
                -198.4722137451172,
                9603.0302734375
            ],
            [
                22.576082229614258,
                -200.55014038085938,
                9703.0302734375
            ],
            [
                23.7360897064209,
                -202.6280517578125,
                9803.0302734375
            ],
            [
                24.89828109741211,
                -204.70594787597656,
                9903.0302734375
            ],
            [
                26.062477111816406,
                -206.78382873535156,
                10003.0302734375
            ],
            [
                28.39618492126465,
                -210.9395294189453,
                10203.0302734375
            ],
            [
                30.735992431640625,
                -215.09518432617188,
                10403.0302734375
            ],
            [
                33.08079147338867,
                -219.25079345703125,
                10603.0302734375
            ],
            [
                35.429874420166016,
                -223.4063720703125,
                10803.0302734375
            ],
            [
                37.78232192993164,
                -227.5619354248047,
                11003.0302734375
            ],
            [
                40.137672424316406,
                -231.71746826171875,
                11203.0302734375
            ],
            [
                42.49550247192383,
                -235.87298583984375,
                11403.0302734375
            ],
            [
                44.855186462402344,
                -240.0284881591797,
                11603.0302734375
            ],
            [
                47.21649932861328,
                -244.18399047851563,
                11803.0302734375
            ],
            [
                49.57905578613281,
                -248.33949279785156,
                12003.0302734375
            ],
            [
                51.94289016723633,
                -252.49497985839844,
                12203.0302734375
            ],
            [
                54.30755615234375,
                -256.65045166015625,
                12403.0302734375
            ],
            [
                56.67273712158203,
                -260.8059387207031,
                12603.0302734375
            ],
            [
                59.0384407043457,
                -264.96142578125,
                12803.0302734375
            ],
            [
                61.404727935791016,
                -269.1169128417969,
                13003.0302734375
            ],
            [
                63.771427154541016,
                -273.27239990234375,
                13203.0302734375
            ],
            [
                66.1383285522461,
                -277.4278869628906,
                13403.0302734375
            ]
        ],
        "zFirstMeasurement": 451.0762
    },
    {
        "E": 4141.7323210880295,
        "chi2": 1.2309353351593018,
        "ip": 0.13781067692230517,
        "ipchi2": 4.772253375866708,
        "mass": 139.57018,
        "particleId": "pi-",
        "pvx": 0.5754,
        "pvy": 0.09,
        "pvz": 56.715,
        "px": 186.26719114539995,
        "py": 218.76640603229905,
        "pz": 4129.396151678175,
        "q": -1.0,
        "trajectory": [
            [
                -6.369134902954102,
                -8.257648468017578,
                -100.0
            ],
            [
                -6.143241882324219,
                -7.992766380310059,
                -95.0
            ],
            [
                -5.917358875274658,
                -7.727884292602539,
                -90.0
            ],
            [
                -5.691486358642578,
                -7.463001728057861,
                -85.0
            ],
            [
                -5.46562385559082,
                -7.198119163513184,
                -80.0
            ],
            [
                -5.239772319793701,
                -6.933236598968506,
                -75.0
            ],
            [
                -5.0139312744140625,
                -6.668353080749512,
                -70.0
            ],
            [
                -4.788100719451904,
                -6.403469562530518,
                -65.0
            ],
            [
                -4.562281608581543,
                -6.138586044311523,
                -60.0
            ],
            [
                -4.336472988128662,
                -5.873702049255371,
                -55.0
            ],
            [
                -4.1105756759643555,
                -5.6088175773620605,
                -50.0
            ],
            [
                -3.8848047256469727,
                -5.34393310546875,
                -45.0
            ],
            [
                -3.659043788909912,
                -5.0790486335754395,
                -40.0
            ],
            [
                -3.433293104171753,
                -4.814163684844971,
                -35.0
            ],
            [
                -3.207552909851074,
                -4.549278736114502,
                -30.0
            ],
            [
                -2.981823205947876,
                -4.284393310546875,
                -25.0
            ],
            [
                -2.7561042308807373,
                -4.01950740814209,
                -20.0
            ],
            [
                -2.5303964614868164,
                -3.754621744155884,
                -15.0
            ],
            [
                -2.304699659347534,
                -3.4897356033325195,
                -10.0
            ],
            [
                -2.079014539718628,
                -3.224849224090576,
                -5.0
            ],
            [
                -1.8533412218093872,
                -2.9599626064300537,
                0.0
            ],
            [
                -1.6276795864105225,
                -2.695075750350952,
                5.0
            ],
            [
                -1.4020302295684814,
                -2.4301886558532715,
                10.0
            ],
            [
                -1.1763931512832642,
                -2.1653013229370117,
                15.0
            ],
            [
                -0.9507687091827393,
                -1.9004137516021729,
                20.0
            ],
            [
                -0.7251570224761963,
                -1.6355259418487549,
                25.0
            ],
            [
                -0.49955835938453674,
                -1.3706378936767578,
                30.0
            ],
            [
                -0.27397292852401733,
                -1.1057496070861816,
                35.0
            ],
            [
                -0.04840093106031418,
                -0.8408610820770264,
                40.0
            ],
            [
                0.17715738713741302,
                -0.575972318649292,
                45.0
            ],
            [
                0.40270179510116577,
                -0.3110833168029785,
                50.0
            ],
            [
                0.6282321214675903,
                -0.04619408771395683,
                55.0
            ],
            [
                0.853748083114624,
                0.21869537234306335,
                60.0
            ],
            [
                1.0792495012283325,
                0.48358505964279175,
                65.0
            ],
            [
                1.3047361373901367,
                0.7484750151634216,
                70.0
            ],
            [
                1.530207872390747,
                1.0133651494979858,
                75.0
            ],
            [
                1.7556642293930054,
                1.2782554626464844,
                80.0
            ],
            [
                1.9811053276062012,
                1.5431461334228516,
                85.0
            ],
            [
                2.206530809402466,
                1.8080369234085083,
                90.0
            ],
            [
                2.4319403171539307,
                2.072927951812744,
                95.0
            ],
            [
                2.6573336124420166,
                2.3378193378448486,
                100.0
            ],
            [
                3.5588226318359375,
                3.3974359035491943,
                120.0
            ],
            [
                4.4599690437316895,
                4.457006931304932,
                140.0
            ],
            [
                5.360855579376221,
                5.5165815353393555,
                160.0
            ],
            [
                6.261465549468994,
                6.5761590003967285,
                180.0
            ],
            [
                7.16178035736084,
                7.635740280151367,
                200.0
            ],
            [
                8.061782836914063,
                8.695324897766113,
                220.0
            ],
            [
                8.961453437805176,
                9.754911422729492,
                240.0
            ],
            [
                9.860772132873535,
                10.814501762390137,
                260.0
            ],
            [
                10.759721755981445,
                11.874094009399414,
                280.0
            ],
            [
                11.65848445892334,
                12.933691024780273,
                300.0
            ],
            [
                12.55675983428955,
                13.99328899383545,
                320.0
            ],
            [
                13.454649925231934,
                15.052888870239258,
                340.0
            ],
            [
                14.352142333984375,
                16.112491607666016,
                360.0
            ],
            [
                15.249222755432129,
                17.17209815979004,
                380.0
            ],
            [
                16.145870208740234,
                18.231704711914063,
                400.0
            ],
            [
                17.042072296142578,
                19.29131317138672,
                420.0
            ],
            [
                17.937816619873047,
                20.350923538208008,
                440.0
            ],
            [
                18.833091735839844,
                21.41053581237793,
                460.0
            ],
            [
                19.72788429260254,
                22.470149993896484,
                480.0
            ],
            [
                20.62217903137207,
                23.52976417541504,
                500.0
            ],
            [
                21.515947341918945,
                24.589380264282227,
                520.0
            ],
            [
                22.4091854095459,
                25.648996353149414,
                540.0
            ],
            [
                23.301830291748047,
                26.708614349365234,
                560.0
            ],
            [
                24.19387435913086,
                27.768232345581055,
                580.0
            ],
            [
                25.085308074951172,
                28.827850341796875,
                600.0
            ],
            [
                25.976112365722656,
                29.887468338012695,
                620.0
            ],
            [
                26.866289138793945,
                30.947084426879883,
                640.0
            ],
            [
                27.75581932067871,
                32.0067024230957,
                660.0
            ],
            [
                28.644689559936523,
                33.06631851196289,
                680.0
            ],
            [
                29.53288459777832,
                34.12593078613281,
                700.0
            ],
            [
                30.42034339904785,
                35.185550689697266,
                720.0
            ],
            [
                31.306987762451172,
                36.24516677856445,
                740.0
            ],
            [
                32.19288635253906,
                37.30478286743164,
                760.0
            ],
            [
                33.07802200317383,
                38.36439514160156,
                780.0
            ],
            [
                33.96237564086914,
                39.424007415771484,
                800.0
            ],
            [
                34.845951080322266,
                40.483619689941406,
                820.0
            ],
            [
                35.72871017456055,
                41.54323196411133,
                840.0
            ],
            [
                36.61063766479492,
                42.602840423583984,
                860.0
            ],
            [
                37.49168395996094,
                43.66244888305664,
                880.0
            ],
            [
                38.371665954589844,
                44.72203826904297,
                900.0
            ],
            [
                39.2505989074707,
                45.78162384033203,
                920.0
            ],
            [
                40.128536224365234,
                46.84121322631836,
                940.0
            ],
            [
                41.0055046081543,
                47.900794982910156,
                960.0
            ],
            [
                41.88148498535156,
                48.96037673950195,
                980.0
            ],
            [
                42.7564582824707,
                50.019954681396484,
                1000.0
            ],
            [
                47.118499755859375,
                55.31793212890625,
                1100.0
            ],
            [
                51.44841766357422,
                60.61599349975586,
                1200.0
            ],
            [
                55.7559814453125,
                65.91400146484375,
                1300.0
            ],
            [
                60.03779983520508,
                71.2121353149414,
                1400.0
            ],
            [
                64.29666900634766,
                76.5103988647461,
                1500.0
            ],
            [
                68.5290756225586,
                81.80860900878906,
                1600.0
            ],
            [
                72.73401641845703,
                87.10667419433594,
                1700.0
            ],
            [
                76.90634155273438,
                92.40461730957031,
                1800.0
            ],
            [
                81.05003356933594,
                97.70233154296875,
                1900.0
            ],
            [
                85.1535415649414,
                103.00003051757813,
                2000.0
            ],
            [
                89.21721649169922,
                108.29735565185547,
                2100.0
            ],
            [
                93.21698760986328,
                113.5936279296875,
                2200.0
            ],
            [
                97.16677856445313,
                118.88932037353516,
                2300.0
            ],
            [
                101.03907012939453,
                124.1839370727539,
                2400.0
            ],
            [
                104.80934143066406,
                129.47711181640625,
                2500.0
            ],
            [
                108.46858978271484,
                134.7684783935547,
                2600.0
            ],
            [
                112.00106048583984,
                140.05824279785156,
                2700.0
            ],
            [
                115.37967681884766,
                145.34603881835938,
                2800.0
            ],
            [
                118.5599365234375,
                150.63070678710938,
                2900.0
            ],
            [
                121.515380859375,
                155.9127960205078,
                3000.0
            ],
            [
                124.24024963378906,
                161.19215393066406,
                3100.0
            ],
            [
                126.63392639160156,
                166.4680938720703,
                3200.0
            ],
            [
                128.70423889160156,
                171.74154663085938,
                3300.0
            ],
            [
                130.3953094482422,
                177.01144409179688,
                3400.0
            ],
            [
                131.65292358398438,
                182.2793731689453,
                3500.0
            ],
            [
                132.4721221923828,
                187.54676818847656,
                3600.0
            ],
            [
                132.7718505859375,
                192.81219482421875,
                3700.0
            ],
            [
                132.5010223388672,
                198.07510375976563,
                3800.0
            ],
            [
                131.64315795898438,
                203.33848571777344,
                3900.0
            ],
            [
                130.15525817871094,
                208.60107421875,
                4000.0
            ],
            [
                128.0230255126953,
                213.86611938476563,
                4100.0
            ],
            [
                125.13348388671875,
                219.12957763671875,
                4200.0
            ],
            [
                121.524169921875,
                224.39315795898438,
                4300.0
            ],
            [
                117.19132995605469,
                229.6600799560547,
                4400.0
            ],
            [
                112.1138916015625,
                234.92906188964844,
                4500.0
            ],
            [
                106.26502990722656,
                240.1964569091797,
                4600.0
            ],
            [
                99.62049865722656,
                245.46385192871094,
                4700.0
            ],
            [
                92.2375259399414,
                250.73301696777344,
                4800.0
            ],
            [
                83.91828155517578,
                254.80023193359375,
                4900.0
            ],
            [
                74.63136291503906,
                260.12530517578125,
                5000.0
            ],
            [
                64.57044982910156,
                265.4509582519531,
                5100.0
            ],
            [
                53.751033782958984,
                270.7765197753906,
                5200.0
            ],
            [
                42.16550827026367,
                276.10211181640625,
                5300.0
            ],
            [
                29.82157325744629,
                281.4264221191406,
                5400.0
            ],
            [
                16.7711238861084,
                286.7489318847656,
                5500.0
            ],
            [
                3.011153221130371,
                292.0702209472656,
                5600.0
            ],
            [
                -11.496160507202148,
                297.3852844238281,
                5700.0
            ],
            [
                -26.688871383666992,
                302.6990051269531,
                5800.0
            ],
            [
                -42.54644775390625,
                308.00457763671875,
                5900.0
            ],
            [
                -59.08383560180664,
                313.304443359375,
                6000.0
            ],
            [
                -76.27015686035156,
                318.5981140136719,
                6100.0
            ],
            [
                -94.09829711914063,
                323.8835754394531,
                6200.0
            ],
            [
                -112.5334701538086,
                329.1607666015625,
                6300.0
            ],
            [
                -131.55589294433594,
                334.4290771484375,
                6400.0
            ],
            [
                -151.14852905273438,
                339.6880187988281,
                6500.0
            ],
            [
                -171.28948974609375,
                344.9350891113281,
                6600.0
            ],
            [
                -191.9738311767578,
                350.1678466796875,
                6700.0
            ],
            [
                -213.1436767578125,
                355.3878173828125,
                6800.0
            ],
            [
                -234.80088806152344,
                360.593017578125,
                6900.0
            ],
            [
                -256.9112243652344,
                365.7823181152344,
                7000.0
            ],
            [
                -279.45166015625,
                370.9555969238281,
                7100.0
            ],
            [
                -302.38616943359375,
                376.1131286621094,
                7200.0
            ],
            [
                -325.6984558105469,
                381.25360107421875,
                7300.0
            ],
            [
                -349.37042236328125,
                386.3771667480469,
                7400.0
            ],
            [
                -373.3577880859375,
                391.4842834472656,
                7500.0
            ],
            [
                -397.65789794921875,
                396.5738525390625,
                7600.0
            ],
            [
                -422.2326354980469,
                401.64715576171875,
                7700.0
            ],
            [
                -447.07208251953125,
                406.70416259765625,
                7800.0
            ],
            [
                -472.1529541015625,
                411.7455749511719,
                7900.0
            ],
            [
                -497.4534912109375,
                416.77239990234375,
                8000.0
            ],
            [
                -522.9616088867188,
                421.7850036621094,
                8100.0
            ],
            [
                -548.6531982421875,
                426.7848205566406,
                8200.0
            ],
            [
                -574.5164794921875,
                431.7724304199219,
                8300.0
            ],
            [
                -600.5381469726563,
                436.7486572265625,
                8400.0
            ],
            [
                -626.7060546875,
                441.71435546875,
                8500.0
            ],
            [
                -653.0006713867188,
                446.67095947265625,
                8600.0
            ],
            [
                -679.4165649414063,
                451.6188049316406,
                8700.0
            ],
            [
                -705.942138671875,
                456.55889892578125,
                8800.0
            ],
            [
                -732.5670776367188,
                461.491943359375,
                8900.0
            ],
            [
                -759.283935546875,
                466.4185791015625,
                9000.0
            ],
            [
                -786.0841674804688,
                471.3394775390625,
                9100.0
            ],
            [
                -812.9598999023438,
                476.2552795410156,
                9200.0
            ],
            [
                -839.9046630859375,
                481.16656494140625,
                9300.0
            ],
            [
                -866.9119873046875,
                486.0738830566406,
                9400.0
            ],
            [
                -893.9759521484375,
                490.9776916503906,
                9500.0
            ],
            [
                -921.0916748046875,
                495.8784484863281,
                9600.0
            ],
            [
                -948.2542114257813,
                500.7765197753906,
                9700.0
            ],
            [
                -975.4593505859375,
                505.6722717285156,
                9800.0
            ],
            [
                -1002.7028198242188,
                510.5660400390625,
                9900.0
            ],
            [
                -1029.9814453125,
                515.4580688476563,
                10000.0
            ],
            [
                -1084.6309814453125,
                525.2379760742188,
                10200.0
            ],
            [
                -1139.385498046875,
                535.013671875,
                10400.0
            ],
            [
                -1194.22509765625,
                544.7864990234375,
                10600.0
            ],
            [
                -1249.13671875,
                554.5572509765625,
                10800.0
            ],
            [
                -1304.104248046875,
                564.3270874023438,
                11000.0
            ],
            [
                -1359.1192626953125,
                574.0962524414063,
                11200.0
            ],
            [
                -1414.1744384765625,
                583.8651733398438,
                11400.0
            ],
            [
                -1469.2596435546875,
                593.63427734375,
                11600.0
            ],
            [
                -1524.3697509765625,
                603.40380859375,
                11800.0
            ],
            [
                -1579.4989013671875,
                613.1738891601563,
                12000.0
            ],
            [
                -1634.6480712890625,
                622.9442138671875,
                12200.0
            ],
            [
                -1689.8092041015625,
                632.7151489257813,
                12400.0
            ],
            [
                -1744.97802734375,
                642.4869384765625,
                12600.0
            ],
            [
                -1800.1536865234375,
                652.25927734375,
                12800.0
            ],
            [
                -1855.3382568359375,
                662.0317993164063,
                13000.0
            ],
            [
                -1910.52880859375,
                671.8046875,
                13200.0
            ],
            [
                -1965.7220458984375,
                681.5780029296875,
                13400.0
            ]
        ],
        "zFirstMeasurement": 184.2987
    },
    {
        "E": 3293.1389687568962,
        "chi2": 1.4952386617660522,
        "ip": 0.09312634800347383,
        "ipchi2": 12.249523290270453,
        "mass": 139.57018,
        "particleId": "pi-",
        "pvx": 0.5815,
        "pvy": 0.1301,
        "pvz": 74.6557,
        "px": 572.9137396860158,
        "py": -394.38956800932345,
        "pz": 3215.8220019031537,
        "q": -1.0,
        "trajectory": [
            [
                -30.466947555541992,
                21.494892120361328,
                -100.0
            ],
            [
                -29.575632095336914,
                20.88165855407715,
                -95.0
            ],
            [
                -28.684329986572266,
                20.26842498779297,
                -90.0
            ],
            [
                -27.793041229248047,
                19.655193328857422,
                -85.0
            ],
            [
                -26.901765823364258,
                19.041961669921875,
                -80.0
            ],
            [
                -26.0105037689209,
                18.428730010986328,
                -75.0
            ],
            [
                -25.1192569732666,
                17.815500259399414,
                -70.0
            ],
            [
                -24.2280216217041,
                17.2022705078125,
                -65.0
            ],
            [
                -23.336801528930664,
                16.58904266357422,
                -60.0
            ],
            [
                -22.445594787597656,
                15.975814819335938,
                -55.0
            ],
            [
                -21.55440330505371,
                15.362588882446289,
                -50.0
            ],
            [
                -20.663227081298828,
                14.74936294555664,
                -45.0
            ],
            [
                -19.772066116333008,
                14.136138916015625,
                -40.0
            ],
            [
                -18.880918502807617,
                13.52291488647461,
                -35.0
            ],
            [
                -17.989788055419922,
                12.90969181060791,
                -30.0
            ],
            [
                -17.098548889160156,
                12.296464920043945,
                -25.0
            ],
            [
                -16.20746612548828,
                11.683244705200195,
                -20.0
            ],
            [
                -15.316396713256836,
                11.070025444030762,
                -15.0
            ],
            [
                -14.42534065246582,
                10.456807136535645,
                -10.0
            ],
            [
                -13.53429889678955,
                9.843589782714844,
                -5.0
            ],
            [
                -12.643272399902344,
                9.230372428894043,
                0.0
            ],
            [
                -11.752260208129883,
                8.617156982421875,
                5.0
            ],
            [
                -10.861263275146484,
                8.003941535949707,
                10.0
            ],
            [
                -9.970281600952148,
                7.390727996826172,
                15.0
            ],
            [
                -9.079316139221191,
                6.777514934539795,
                20.0
            ],
            [
                -8.188366889953613,
                6.164302825927734,
                25.0
            ],
            [
                -7.297433376312256,
                5.551092147827148,
                30.0
            ],
            [
                -6.4065165519714355,
                4.937881946563721,
                35.0
            ],
            [
                -5.515616416931152,
                4.324672698974609,
                40.0
            ],
            [
                -4.624733924865723,
                3.7114646434783936,
                45.0
            ],
            [
                -3.7338685989379883,
                3.098257541656494,
                50.0
            ],
            [
                -2.8430211544036865,
                2.4850516319274902,
                55.0
            ],
            [
                -1.9521918296813965,
                1.8718465566635132,
                60.0
            ],
            [
                -1.0613808631896973,
                1.258642554283142,
                65.0
            ],
            [
                -0.17058846354484558,
                0.6454396843910217,
                70.0
            ],
            [
                0.7201849818229675,
                0.03223790228366852,
                75.0
            ],
            [
                1.6109391450881958,
                -0.5809628367424011,
                80.0
            ],
            [
                2.501673936843872,
                -1.194162368774414,
                85.0
            ],
            [
                3.3923885822296143,
                -1.8073608875274658,
                90.0
            ],
            [
                4.283083438873291,
                -2.420558214187622,
                95.0
            ],
            [
                5.173720836639404,
                -3.0337188243865967,
                100.0
            ],
            [
                8.73621940612793,
                -5.486492156982422,
                120.0
            ],
            [
                12.298381805419922,
                -7.939247131347656,
                140.0
            ],
            [
                15.860184669494629,
                -10.391982078552246,
                160.0
            ],
            [
                19.421606063842773,
                -12.844696044921875,
                180.0
            ],
            [
                22.982622146606445,
                -15.297389030456543,
                200.0
            ],
            [
                26.543210983276367,
                -17.750059127807617,
                220.0
            ],
            [
                30.103595733642578,
                -20.202716827392578,
                240.0
            ],
            [
                33.66340637207031,
                -22.655344009399414,
                260.0
            ],
            [
                37.22277069091797,
                -25.107948303222656,
                280.0
            ],
            [
                40.78166961669922,
                -27.560527801513672,
                300.0
            ],
            [
                44.340084075927734,
                -30.01308250427246,
                320.0
            ],
            [
                47.89800262451172,
                -32.46561050415039,
                340.0
            ],
            [
                51.455406188964844,
                -34.91810989379883,
                360.0
            ],
            [
                55.01228332519531,
                -37.37057876586914,
                380.0
            ],
            [
                58.5685920715332,
                -39.823020935058594,
                400.0
            ],
            [
                62.12432098388672,
                -42.27543258666992,
                420.0
            ],
            [
                65.67943572998047,
                -44.72780990600586,
                440.0
            ],
            [
                69.23394012451172,
                -47.180152893066406,
                460.0
            ],
            [
                72.7878189086914,
                -49.63246154785156,
                480.0
            ],
            [
                76.34104919433594,
                -52.08473587036133,
                500.0
            ],
            [
                79.89356231689453,
                -54.5369758605957,
                520.0
            ],
            [
                83.44537353515625,
                -56.98918533325195,
                540.0
            ],
            [
                86.99646759033203,
                -59.44135284423828,
                560.0
            ],
            [
                90.54683685302734,
                -61.89348602294922,
                580.0
            ],
            [
                94.09638214111328,
                -64.34557342529297,
                600.0
            ],
            [
                97.64506530761719,
                -66.79764556884766,
                620.0
            ],
            [
                101.19293212890625,
                -69.24967193603516,
                640.0
            ],
            [
                104.73995208740234,
                -71.70165252685547,
                660.0
            ],
            [
                108.28610229492188,
                -74.15359497070313,
                680.0
            ],
            [
                111.83136749267578,
                -76.60549926757813,
                700.0
            ],
            [
                115.37586212158203,
                -79.05734252929688,
                720.0
            ],
            [
                118.91939544677734,
                -81.50914764404297,
                740.0
            ],
            [
                122.46172332763672,
                -83.96092987060547,
                760.0
            ],
            [
                126.00271606445313,
                -86.41272735595703,
                780.0
            ],
            [
                129.5426483154297,
                -88.86448669433594,
                800.0
            ],
            [
                133.08152770996094,
                -91.31621551513672,
                820.0
            ],
            [
                136.61929321289063,
                -93.7679214477539,
                840.0
            ],
            [
                140.1559295654297,
                -96.21959686279297,
                860.0
            ],
            [
                143.69142150878906,
                -98.67124938964844,
                880.0
            ],
            [
                147.22572326660156,
                -101.12288665771484,
                900.0
            ],
            [
                150.75888061523438,
                -103.57450866699219,
                920.0
            ],
            [
                154.2902069091797,
                -106.0262680053711,
                940.0
            ],
            [
                157.82017517089844,
                -108.47804260253906,
                960.0
            ],
            [
                161.34873962402344,
                -110.92981719970703,
                980.0
            ],
            [
                164.87579345703125,
                -113.3815689086914,
                1000.0
            ],
            [
                182.49139404296875,
                -125.64002990722656,
                1100.0
            ],
            [
                200.06668090820313,
                -137.89906311035156,
                1200.0
            ],
            [
                217.60964965820313,
                -150.15919494628906,
                1300.0
            ],
            [
                235.11753845214844,
                -162.41989135742188,
                1400.0
            ],
            [
                252.59056091308594,
                -174.6812744140625,
                1500.0
            ],
            [
                270.0379943847656,
                -186.9423370361328,
                1600.0
            ],
            [
                287.4515075683594,
                -199.2027130126953,
                1700.0
            ],
            [
                304.8250427246094,
                -211.4631805419922,
                1800.0
            ],
            [
                322.1562194824219,
                -223.72132873535156,
                1900.0
            ],
            [
                339.4436950683594,
                -235.97601318359375,
                2000.0
            ],
            [
                356.6781005859375,
                -248.22682189941406,
                2100.0
            ],
            [
                373.83746337890625,
                -260.4718017578125,
                2200.0
            ],
            [
                390.9584655761719,
                -272.7070007324219,
                2300.0
            ],
            [
                407.9855651855469,
                -284.93145751953125,
                2400.0
            ],
            [
                424.9165954589844,
                -297.1388244628906,
                2500.0
            ],
            [
                441.7037658691406,
                -309.3282165527344,
                2600.0
            ],
            [
                458.35552978515625,
                -321.4944763183594,
                2700.0
            ],
            [
                474.81805419921875,
                -333.63409423828125,
                2800.0
            ],
            [
                491.0603942871094,
                -345.7409362792969,
                2900.0
            ],
            [
                507.0368957519531,
                -357.81390380859375,
                3000.0
            ],
            [
                522.7421264648438,
                -369.84906005859375,
                3100.0
            ],
            [
                538.05419921875,
                -381.83251953125,
                3200.0
            ],
            [
                553.009521484375,
                -393.7664489746094,
                3300.0
            ],
            [
                567.4793701171875,
                -405.6493835449219,
                3400.0
            ],
            [
                581.4306030273438,
                -417.47576904296875,
                3500.0
            ],
            [
                594.8250122070313,
                -429.2504577636719,
                3600.0
            ],
            [
                607.5775756835938,
                -440.97418212890625,
                3700.0
            ],
            [
                619.5581665039063,
                -452.6396484375,
                3800.0
            ],
            [
                630.7954711914063,
                -464.25775146484375,
                3900.0
            ],
            [
                641.1287841796875,
                -475.8427734375,
                4000.0
            ],
            [
                650.664306640625,
                -487.3976745605469,
                4100.0
            ],
            [
                659.1502685546875,
                -498.92047119140625,
                4200.0
            ],
            [
                666.6788330078125,
                -510.411376953125,
                4300.0
            ],
            [
                673.2485961914063,
                -521.8898315429688,
                4400.0
            ],
            [
                678.7699584960938,
                -533.3486328125,
                4500.0
            ],
            [
                683.3182373046875,
                -544.811279296875,
                4600.0
            ],
            [
                686.7581176757813,
                -556.2528686523438,
                4700.0
            ],
            [
                711.1035766601563,
                -558.1405639648438,
                4800.0
            ],
            [
                712.860107421875,
                -569.4237670898438,
                4900.0
            ],
            [
                713.6369018554688,
                -580.6939697265625,
                5000.0
            ],
            [
                713.375732421875,
                -591.97998046875,
                5100.0
            ],
            [
                712.14453125,
                -603.2592163085938,
                5200.0
            ],
            [
                709.9451904296875,
                -614.5475463867188,
                5300.0
            ],
            [
                706.7946166992188,
                -625.828369140625,
                5400.0
            ],
            [
                702.6670532226563,
                -637.1026000976563,
                5500.0
            ],
            [
                697.6604614257813,
                -648.3912353515625,
                5600.0
            ],
            [
                691.7025756835938,
                -659.6683959960938,
                5700.0
            ],
            [
                684.85302734375,
                -670.9501342773438,
                5800.0
            ],
            [
                677.1624145507813,
                -682.2208251953125,
                5900.0
            ],
            [
                668.5697021484375,
                -693.492919921875,
                6000.0
            ],
            [
                659.1530151367188,
                -704.757080078125,
                6100.0
            ],
            [
                648.9273071289063,
                -716.0081176757813,
                6200.0
            ],
            [
                637.8866577148438,
                -727.2453002929688,
                6300.0
            ],
            [
                626.0791015625,
                -738.4684448242188,
                6400.0
            ],
            [
                613.5145874023438,
                -749.6686401367188,
                6500.0
            ],
            [
                600.2359008789063,
                -760.8474731445313,
                6600.0
            ],
            [
                586.2648315429688,
                -772.0008544921875,
                6700.0
            ],
            [
                571.663330078125,
                -783.1251831054688,
                6800.0
            ],
            [
                556.4219360351563,
                -794.21435546875,
                6900.0
            ],
            [
                540.6076049804688,
                -805.2671508789063,
                7000.0
            ],
            [
                524.252197265625,
                -816.2807006835938,
                7100.0
            ],
            [
                507.3982849121094,
                -827.25439453125,
                7200.0
            ],
            [
                490.0811462402344,
                -838.1849975585938,
                7300.0
            ],
            [
                472.3220520019531,
                -849.0723266601563,
                7400.0
            ],
            [
                454.188232421875,
                -859.9174194335938,
                7500.0
            ],
            [
                435.6850280761719,
                -870.7182006835938,
                7600.0
            ],
            [
                416.8660583496094,
                -881.4776000976563,
                7700.0
            ],
            [
                397.7458801269531,
                -892.1952514648438,
                7800.0
            ],
            [
                378.3565979003906,
                -902.8729248046875,
                7900.0
            ],
            [
                358.7266845703125,
                -913.5127563476563,
                8000.0
            ],
            [
                338.8727722167969,
                -924.1157836914063,
                8100.0
            ],
            [
                318.8242492675781,
                -934.6851196289063,
                8200.0
            ],
            [
                298.5960388183594,
                -945.2219848632813,
                8300.0
            ],
            [
                278.203857421875,
                -955.7282104492188,
                8400.0
            ],
            [
                257.662109375,
                -966.20556640625,
                8500.0
            ],
            [
                236.9926300048828,
                -976.6573486328125,
                8600.0
            ],
            [
                216.2015838623047,
                -987.0843505859375,
                8700.0
            ],
            [
                195.3014373779297,
                -997.4886474609375,
                8800.0
            ],
            [
                174.30322265625,
                -1007.872314453125,
                8900.0
            ],
            [
                153.21478271484375,
                -1018.2366943359375,
                9000.0
            ],
            [
                132.04490661621094,
                -1028.5833740234375,
                9100.0
            ],
            [
                110.80156707763672,
                -1038.9140625,
                9200.0
            ],
            [
                89.49130249023438,
                -1049.22998046875,
                9300.0
            ],
            [
                68.12039947509766,
                -1059.5325927734375,
                9400.0
            ],
            [
                46.69472122192383,
                -1069.8228759765625,
                9500.0
            ],
            [
                25.219017028808594,
                -1080.1021728515625,
                9600.0
            ],
            [
                3.698066234588623,
                -1090.371337890625,
                9700.0
            ],
            [
                -17.86412239074707,
                -1100.6314697265625,
                9800.0
            ],
            [
                -39.4635124206543,
                -1110.88330078125,
                9900.0
            ],
            [
                -61.09696960449219,
                -1121.127685546875,
                10000.0
            ],
            [
                -104.45372009277344,
                -1141.5968017578125,
                10200.0
            ],
            [
                -147.91322326660156,
                -1162.0439453125,
                10400.0
            ],
            [
                -191.4560546875,
                -1182.4736328125,
                10600.0
            ],
            [
                -235.07015991210938,
                -1202.8887939453125,
                10800.0
            ],
            [
                -278.74017333984375,
                -1223.29296875,
                11000.0
            ],
            [
                -322.4581298828125,
                -1243.6878662109375,
                11200.0
            ],
            [
                -366.216552734375,
                -1264.075439453125,
                11400.0
            ],
            [
                -410.0049133300781,
                -1284.457763671875,
                11600.0
            ],
            [
                -453.81951904296875,
                -1304.8358154296875,
                11800.0
            ],
            [
                -497.6543884277344,
                -1325.2108154296875,
                12000.0
            ],
            [
                -541.5097045898438,
                -1345.58251953125,
                12200.0
            ],
            [
                -585.3778076171875,
                -1365.9525146484375,
                12400.0
            ],
            [
                -629.2531127929688,
                -1386.322021484375,
                12600.0
            ],
            [
                -673.1373291015625,
                -1406.690673828125,
                12800.0
            ],
            [
                -717.0304565429688,
                -1427.0579833984375,
                13000.0
            ],
            [
                -760.93017578125,
                -1447.4244384765625,
                13200.0
            ],
            [
                -804.8329467773438,
                -1467.790771484375,
                13400.0
            ]
        ],
        "zFirstMeasurement": 124.0877
    }
]
