[
    {
        "E": 24135.129831023427,
        "chi2": 0.0,
        "ip": 0.024347059319969458,
        "ipchi2": 1.7402580099113136,
        "mass": 1842.397,
        "particleId": "D0",
        "pvx": 0.6043,
        "pvy": 0.1354,
        "pvz": 138.0244,
        "px": 1914.26,
        "py": 2232.91,
        "pz": 23884.3,
        "q": 0.0,
        "trajectory": [
            [
                0.6043000221252441,
                0.13539999723434448,
                138.02439880371094
            ],
            [
                0.6635000109672546,
                0.19850000739097595,
                138.92300415039063
            ]
        ],
        "zFirstMeasurement": -9999.0
    },
    {
        "E": 9656.455767762696,
        "chi2": 0.8224950432777405,
        "ip": 0.09010998406071283,
        "ipchi2": 12.265435321216081,
        "mass": 493.677,
        "particleId": "K-",
        "pvx": 0.6043,
        "pvy": 0.1354,
        "pvz": 138.0244,
        "px": 1431.8,
        "py": 426.19,
        "pz": 9527.42,
        "q": -1.0,
        "trajectory": [
            [
                0.6665334701538086,
                0.2293541133403778,
                138.92300415039063
            ],
            [
                3.672089099884033,
                1.1240216493606567,
                158.92300415039063
            ],
            [
                6.677474021911621,
                2.0186891555786133,
                178.92300415039063
            ],
            [
                9.682772636413574,
                2.9133613109588623,
                198.92300415039063
            ],
            [
                12.687936782836914,
                3.808035373687744,
                218.92300415039063
            ],
            [
                15.69295883178711,
                4.702711582183838,
                238.92300415039063
            ],
            [
                18.697830200195313,
                5.597390174865723,
                258.9230041503906
            ],
            [
                21.702543258666992,
                6.492070198059082,
                278.9230041503906
            ],
            [
                24.707088470458984,
                7.386752128601074,
                298.9230041503906
            ],
            [
                27.711524963378906,
                8.281436920166016,
                318.9230041503906
            ],
            [
                30.71575355529785,
                9.176122665405273,
                338.9230041503906
            ],
            [
                33.719810485839844,
                10.070809364318848,
                358.9230041503906
            ],
            [
                36.72367858886719,
                10.965498924255371,
                378.9230041503906
            ],
            [
                39.727359771728516,
                11.860188484191895,
                398.9230041503906
            ],
            [
                42.7308464050293,
                12.754880905151367,
                418.9230041503906
            ],
            [
                45.734130859375,
                13.64957332611084,
                438.9230041503906
            ],
            [
                48.73720932006836,
                14.544267654418945,
                458.9230041503906
            ],
            [
                51.74007034301758,
                15.438962936401367,
                478.9230041503906
            ],
            [
                54.74271774291992,
                16.333660125732422,
                498.9230041503906
            ],
            [
                57.7451171875,
                17.228355407714844,
                518.9229736328125
            ],
            [
                60.74726486206055,
                18.1230525970459,
                538.9229736328125
            ],
            [
                63.74916458129883,
                19.017749786376953,
                558.9229736328125
            ],
            [
                66.75080871582031,
                19.91244888305664,
                578.9229736328125
            ],
            [
                69.75218963623047,
                20.807146072387695,
                598.9229736328125
            ],
            [
                72.7532958984375,
                21.70184326171875,
                618.9229736328125
            ],
            [
                75.75411987304688,
                22.596540451049805,
                638.9229736328125
            ],
            [
                78.7546615600586,
                23.49123764038086,
                658.9229736328125
            ],
            [
                81.7549057006836,
                24.38593292236328,
                678.9229736328125
            ],
            [
                84.75481414794922,
                25.28062629699707,
                698.9229736328125
            ],
            [
                87.75437927246094,
                26.17531967163086,
                718.9229736328125
            ],
            [
                90.75362396240234,
                27.07001304626465,
                738.9229736328125
            ],
            [
                93.75252532958984,
                27.964704513549805,
                758.9229736328125
            ],
            [
                96.75108337402344,
                28.859394073486328,
                778.9229736328125
            ],
            [
                99.7492904663086,
                29.75408363342285,
                798.9229736328125
            ],
            [
                102.74713897705078,
                30.64876937866211,
                818.9229736328125
            ],
            [
                105.74459838867188,
                31.543453216552734,
                838.9229736328125
            ],
            [
                108.74161529541016,
                32.43813705444336,
                858.9229736328125
            ],
            [
                111.73812866210938,
                33.33280563354492,
                878.9229736328125
            ],
            [
                114.73422241210938,
                34.22747802734375,
                898.9229736328125
            ],
            [
                117.72993469238281,
                35.12214279174805,
                918.9229736328125
            ],
            [
                120.72520446777344,
                36.01680374145508,
                938.9229736328125
            ],
            [
                123.72003936767578,
                36.91146469116211,
                958.9229736328125
            ],
            [
                126.71441650390625,
                37.806121826171875,
                978.9229736328125
            ],
            [
                129.70834350585938,
                38.700775146484375,
                998.9229736328125
            ],
            [
                132.70188903808594,
                39.595420837402344,
                1018.9229736328125
            ],
            [
                147.66468811035156,
                44.068885803222656,
                1118.9229736328125
            ],
            [
                162.61074829101563,
                48.54216003417969,
                1218.9229736328125
            ],
            [
                177.5474090576172,
                53.015533447265625,
                1318.9229736328125
            ],
            [
                192.4733123779297,
                57.489139556884766,
                1418.9229736328125
            ],
            [
                207.3891143798828,
                61.962730407714844,
                1518.9229736328125
            ],
            [
                222.2917022705078,
                66.43624114990234,
                1618.9229736328125
            ],
            [
                237.18136596679688,
                70.90965270996094,
                1718.9229736328125
            ],
            [
                252.0582275390625,
                75.38285827636719,
                1818.9229736328125
            ],
            [
                266.9219665527344,
                79.85608673095703,
                1918.9229736328125
            ],
            [
                281.7673034667969,
                84.32905578613281,
                2018.9229736328125
            ],
            [
                296.5960998535156,
                88.80136108398438,
                2118.923095703125
            ],
            [
                311.38726806640625,
                93.27216339111328,
                2218.923095703125
            ],
            [
                326.1590270996094,
                97.74227905273438,
                2318.923095703125
            ],
            [
                340.8968505859375,
                102.21102905273438,
                2418.923095703125
            ],
            [
                355.58514404296875,
                106.6777114868164,
                2518.923095703125
            ],
            [
                370.226806640625,
                111.14205932617188,
                2618.923095703125
            ],
            [
                384.8101501464844,
                115.60411834716797,
                2718.923095703125
            ],
            [
                399.321533203125,
                120.06303405761719,
                2818.923095703125
            ],
            [
                413.7449035644531,
                124.51789855957031,
                2918.923095703125
            ],
            [
                428.0679626464844,
                128.96826171875,
                3018.923095703125
            ],
            [
                442.2795715332031,
                133.4141082763672,
                3118.923095703125
            ],
            [
                456.3351135253906,
                137.85299682617188,
                3218.923095703125
            ],
            [
                470.25823974609375,
                142.28688049316406,
                3318.923095703125
            ],
            [
                484.0074768066406,
                146.7144775390625,
                3418.923095703125
            ],
            [
                497.56939697265625,
                151.13616943359375,
                3518.923095703125
            ],
            [
                510.9300537109375,
                155.55166625976563,
                3618.923095703125
            ],
            [
                524.06005859375,
                159.96035766601563,
                3718.923095703125
            ],
            [
                536.9492797851563,
                164.36256408691406,
                3818.923095703125
            ],
            [
                549.5658569335938,
                168.75714111328125,
                3918.923095703125
            ],
            [
                561.9274291992188,
                173.14630126953125,
                4018.923095703125
            ],
            [
                573.9677124023438,
                177.5299530029297,
                4118.9228515625
            ],
            [
                585.6796264648438,
                181.90643310546875,
                4218.9228515625
            ],
            [
                597.1005859375,
                186.27957153320313,
                4318.9228515625
            ],
            [
                608.2130126953125,
                190.64852905273438,
                4418.9228515625
            ],
            [
                618.9920043945313,
                195.01455688476563,
                4518.9228515625
            ],
            [
                629.4212036132813,
                199.37640380859375,
                4618.9228515625
            ],
            [
                639.5439453125,
                203.7346954345703,
                4718.9228515625
            ],
            [
                649.3159790039063,
                208.0892791748047,
                4818.9228515625
            ],
            [
                661.4739990234375,
                211.93603515625,
                4918.9228515625
            ],
            [
                670.6474609375,
                216.27854919433594,
                5018.9228515625
            ],
            [
                679.4837646484375,
                220.61659240722656,
                5118.9228515625
            ],
            [
                688.0034790039063,
                224.9532470703125,
                5218.9228515625
            ],
            [
                696.2020263671875,
                229.2891387939453,
                5318.9228515625
            ],
            [
                704.088623046875,
                233.6241455078125,
                5418.9228515625
            ],
            [
                711.6661376953125,
                237.95948791503906,
                5518.9228515625
            ],
            [
                718.9463500976563,
                242.29058837890625,
                5618.9228515625
            ],
            [
                725.9320068359375,
                246.6221923828125,
                5718.9228515625
            ],
            [
                732.625244140625,
                250.9534912109375,
                5818.9228515625
            ],
            [
                739.0452880859375,
                255.2832794189453,
                5918.9228515625
            ],
            [
                745.1842651367188,
                259.610595703125,
                6018.9228515625
            ],
            [
                751.0592651367188,
                263.9368591308594,
                6118.9228515625
            ],
            [
                756.6797485351563,
                268.26318359375,
                6218.9228515625
            ],
            [
                762.050537109375,
                272.58935546875,
                6318.9228515625
            ],
            [
                767.1839599609375,
                276.9150085449219,
                6418.9228515625
            ],
            [
                772.0897216796875,
                281.2402038574219,
                6518.9228515625
            ],
            [
                776.774658203125,
                285.56439208984375,
                6618.9228515625
            ],
            [
                781.2510375976563,
                289.8880920410156,
                6718.9228515625
            ],
            [
                785.5319213867188,
                294.2113342285156,
                6818.9228515625
            ],
            [
                789.6217651367188,
                298.5335693359375,
                6918.9228515625
            ],
            [
                793.5343627929688,
                302.8550109863281,
                7018.9228515625
            ],
            [
                797.2806396484375,
                307.17596435546875,
                7118.9228515625
            ],
            [
                800.8720092773438,
                311.4963073730469,
                7218.9228515625
            ],
            [
                804.3160400390625,
                315.8156433105469,
                7318.9228515625
            ],
            [
                807.6251220703125,
                320.1338806152344,
                7418.9228515625
            ],
            [
                810.8104858398438,
                324.45098876953125,
                7518.9228515625
            ],
            [
                813.8760375976563,
                328.7669677734375,
                7618.9228515625
            ],
            [
                816.8356323242188,
                333.0817565917969,
                7718.9228515625
            ],
            [
                819.6940307617188,
                337.3952941894531,
                7818.9228515625
            ],
            [
                822.4603271484375,
                341.70751953125,
                7918.9228515625
            ],
            [
                825.1422119140625,
                346.0184326171875,
                8018.9228515625
            ],
            [
                827.7462768554688,
                350.3280029296875,
                8118.9228515625
            ],
            [
                830.2792358398438,
                354.6361999511719,
                8218.9228515625
            ],
            [
                832.7472534179688,
                358.94305419921875,
                8318.9228515625
            ],
            [
                835.1553344726563,
                363.2485656738281,
                8418.9228515625
            ],
            [
                837.508056640625,
                367.5527648925781,
                8518.9228515625
            ],
            [
                839.8118896484375,
                371.8556823730469,
                8618.9228515625
            ],
            [
                842.0694580078125,
                376.1573486328125,
                8718.9228515625
            ],
            [
                844.2855834960938,
                380.4578552246094,
                8818.9228515625
            ],
            [
                846.4636840820313,
                384.7572021484375,
                8918.9228515625
            ],
            [
                848.6067504882813,
                389.0553894042969,
                9018.9228515625
            ],
            [
                850.7179565429688,
                393.3525085449219,
                9118.9228515625
            ],
            [
                852.8002319335938,
                397.6485900878906,
                9218.9228515625
            ],
            [
                854.8561401367188,
                401.94366455078125,
                9318.9228515625
            ],
            [
                856.8880004882813,
                406.23779296875,
                9418.9228515625
            ],
            [
                858.8980712890625,
                410.5310363769531,
                9518.9228515625
            ],
            [
                860.8881225585938,
                414.82342529296875,
                9618.9228515625
            ],
            [
                862.860107421875,
                419.1150207519531,
                9718.9228515625
            ],
            [
                864.8155517578125,
                423.4058532714844,
                9818.9228515625
            ],
            [
                866.756103515625,
                427.69598388671875,
                9918.9228515625
            ],
            [
                868.6829223632813,
                431.9854431152344,
                10018.9228515625
            ],
            [
                872.5003662109375,
                440.5625305175781,
                10218.9228515625
            ],
            [
                876.2761840820313,
                449.137451171875,
                10418.9228515625
            ],
            [
                880.018310546875,
                457.7104797363281,
                10618.9228515625
            ],
            [
                883.7313232421875,
                466.2818908691406,
                10818.9228515625
            ],
            [
                887.4216918945313,
                474.85186767578125,
                11018.9228515625
            ],
            [
                891.0923461914063,
                483.420654296875,
                11218.9228515625
            ],
            [
                894.7461547851563,
                491.9883728027344,
                11418.9228515625
            ],
            [
                898.3880004882813,
                500.55523681640625,
                11618.9228515625
            ],
            [
                902.0185546875,
                509.121337890625,
                11818.9228515625
            ],
            [
                905.640869140625,
                517.686767578125,
                12018.9228515625
            ],
            [
                909.2545166015625,
                526.251708984375,
                12218.9228515625
            ],
            [
                912.8626098632813,
                534.816162109375,
                12418.9228515625
            ],
            [
                916.4677734375,
                543.3802490234375,
                12618.9228515625
            ],
            [
                920.0692749023438,
                551.944091796875,
                12818.9228515625
            ],
            [
                923.6665649414063,
                560.5076904296875,
                13018.9228515625
            ],
            [
                927.2614135742188,
                569.071044921875,
                13218.9228515625
            ],
            [
                930.8545532226563,
                577.63427734375,
                13418.9228515625
            ]
        ],
        "zFirstMeasurement": 214.2993
    },
    {
        "E": 14476.253720403538,
        "chi2": 0.6026031970977783,
        "ip": 0.061588842767370935,
        "ipchi2": 9.296674556458452,
        "mass": 139.57,
        "particleId": "pi+",
        "pvx": 0.6043,
        "pvy": 0.1354,
        "pvz": 138.0244,
        "px": 483.25,
        "py": 1805.26,
        "pz": 14354.44,
        "q": 1.0,
        "trajectory": [
            [
                0.6517947316169739,
                0.1888894885778427,
                138.92300415039063
            ],
            [
                1.325150966644287,
                2.7041478157043457,
                158.92300415039063
            ],
            [
                1.9985997676849365,
                5.219476222991943,
                178.92300415039063
            ],
            [
                2.6721246242523193,
                7.7347331047058105,
                198.92300415039063
            ],
            [
                3.3457372188568115,
                10.24998950958252,
                218.92300415039063
            ],
            [
                4.019442558288574,
                12.76524543762207,
                238.92300415039063
            ],
            [
                4.693245887756348,
                15.280500411987305,
                258.9230041503906
            ],
            [
                5.367152690887451,
                17.79575538635254,
                278.9230041503906
            ],
            [
                6.041168689727783,
                20.311010360717773,
                298.9230041503906
            ],
            [
                6.715256214141846,
                22.826263427734375,
                318.9230041503906
            ],
            [
                7.389477252960205,
                25.341516494750977,
                338.9230041503906
            ],
            [
                8.063812255859375,
                27.856769561767578,
                358.9230041503906
            ],
            [
                8.738265991210938,
                30.37202262878418,
                378.9230041503906
            ],
            [
                9.412841796875,
                32.88727569580078,
                398.9230041503906
            ],
            [
                10.087545394897461,
                35.40252685546875,
                418.9230041503906
            ],
            [
                10.762378692626953,
                37.917781829833984,
                438.9230041503906
            ],
            [
                11.437345504760742,
                40.43303298950195,
                458.9230041503906
            ],
            [
                12.112449645996094,
                42.94828796386719,
                478.9230041503906
            ],
            [
                12.78769588470459,
                45.463539123535156,
                498.9230041503906
            ],
            [
                13.463095664978027,
                47.97879409790039,
                518.9229736328125
            ],
            [
                14.13865852355957,
                50.49404525756836,
                538.9229736328125
            ],
            [
                14.814384460449219,
                53.009300231933594,
                558.9229736328125
            ],
            [
                15.490273475646973,
                55.52455139160156,
                578.9229736328125
            ],
            [
                16.166330337524414,
                58.0398063659668,
                598.9229736328125
            ],
            [
                16.842565536499023,
                60.55506134033203,
                618.9229736328125
            ],
            [
                17.518980026245117,
                63.070316314697266,
                638.9229736328125
            ],
            [
                18.195575714111328,
                65.5855712890625,
                658.9229736328125
            ],
            [
                18.872356414794922,
                68.100830078125,
                678.9229736328125
            ],
            [
                19.54934310913086,
                70.6160888671875,
                698.9229736328125
            ],
            [
                20.226543426513672,
                73.13134765625,
                718.9229736328125
            ],
            [
                20.903945922851563,
                75.64659881591797,
                738.9229736328125
            ],
            [
                21.581560134887695,
                78.161865234375,
                758.9229736328125
            ],
            [
                22.25938606262207,
                80.6771240234375,
                778.9229736328125
            ],
            [
                22.93743324279785,
                83.1923828125,
                798.9229736328125
            ],
            [
                23.615697860717773,
                85.7076416015625,
                818.9229736328125
            ],
            [
                24.294208526611328,
                88.22290802001953,
                838.9229736328125
            ],
            [
                24.973011016845703,
                90.73817443847656,
                858.9229736328125
            ],
            [
                25.652116775512695,
                93.25343322753906,
                878.9229736328125
            ],
            [
                26.33148193359375,
                95.7686996459961,
                898.9229736328125
            ],
            [
                27.011085510253906,
                98.28396606445313,
                918.9229736328125
            ],
            [
                27.690954208374023,
                100.79923248291016,
                938.9229736328125
            ],
            [
                28.371095657348633,
                103.31449890136719,
                958.9229736328125
            ],
            [
                29.051513671875,
                105.82975769042969,
                978.9229736328125
            ],
            [
                29.73221778869629,
                108.34502410888672,
                998.9229736328125
            ],
            [
                30.41313362121582,
                110.86029052734375,
                1018.9229736328125
            ],
            [
                33.82174301147461,
                123.43657684326172,
                1118.9229736328125
            ],
            [
                37.23977279663086,
                136.01287841796875,
                1218.9229736328125
            ],
            [
                40.663997650146484,
                148.58914184570313,
                1318.9229736328125
            ],
            [
                44.09541320800781,
                161.16534423828125,
                1418.9229736328125
            ],
            [
                47.53316116333008,
                173.74154663085938,
                1518.9229736328125
            ],
            [
                50.97889709472656,
                186.31776428222656,
                1618.9229736328125
            ],
            [
                54.43210983276367,
                198.89402770996094,
                1718.9229736328125
            ],
            [
                57.892452239990234,
                211.4703369140625,
                1818.9229736328125
            ],
            [
                61.3609733581543,
                224.0466766357422,
                1918.9229736328125
            ],
            [
                64.84027862548828,
                236.6231231689453,
                2018.9229736328125
            ],
            [
                68.3283462524414,
                249.19985961914063,
                2118.923095703125
            ],
            [
                71.83393096923828,
                261.7770690917969,
                2218.923095703125
            ],
            [
                75.35135650634766,
                274.3546142578125,
                2318.923095703125
            ],
            [
                78.8868637084961,
                286.9327392578125,
                2418.923095703125
            ],
            [
                82.44972229003906,
                299.5116882324219,
                2518.923095703125
            ],
            [
                86.03759002685547,
                312.091552734375,
                2618.923095703125
            ],
            [
                89.65867614746094,
                324.6723937988281,
                2718.923095703125
            ],
            [
                93.3211898803711,
                337.2546081542969,
                2818.923095703125
            ],
            [
                97.0344009399414,
                349.838623046875,
                2918.923095703125
            ],
            [
                100.80493927001953,
                362.4244384765625,
                3018.923095703125
            ],
            [
                104.64196014404297,
                375.0121765136719,
                3118.923095703125
            ],
            [
                108.56578826904297,
                387.6031494140625,
                3218.923095703125
            ],
            [
                112.57456970214844,
                400.19635009765625,
                3318.923095703125
            ],
            [
                116.6869125366211,
                412.7931213378906,
                3418.923095703125
            ],
            [
                120.91586303710938,
                425.3927001953125,
                3518.923095703125
            ],
            [
                125.27884674072266,
                437.9951171875,
                3618.923095703125
            ],
            [
                129.78965759277344,
                450.6019287109375,
                3718.923095703125
            ],
            [
                134.46420288085938,
                463.21270751953125,
                3818.923095703125
            ],
            [
                139.32728576660156,
                475.82757568359375,
                3918.923095703125
            ],
            [
                144.3647003173828,
                488.4459228515625,
                4018.923095703125
            ],
            [
                149.62147521972656,
                501.06866455078125,
                4118.9228515625
            ],
            [
                155.10812377929688,
                513.69677734375,
                4218.9228515625
            ],
            [
                160.80258178710938,
                526.3280639648438,
                4318.9228515625
            ],
            [
                166.71945190429688,
                538.9620361328125,
                4418.9228515625
            ],
            [
                172.87525939941406,
                551.5991821289063,
                4518.9228515625
            ],
            [
                179.27874755859375,
                564.240478515625,
                4618.9228515625
            ],
            [
                185.8934783935547,
                576.8847045898438,
                4718.9228515625
            ],
            [
                192.7689666748047,
                589.5311279296875,
                4818.9228515625
            ],
            [
                198.30746459960938,
                600.86376953125,
                4918.9228515625
            ],
            [
                205.59112548828125,
                613.4805297851563,
                5018.9228515625
            ],
            [
                213.11639404296875,
                626.101318359375,
                5118.9228515625
            ],
            [
                220.85433959960938,
                638.7236938476563,
                5218.9228515625
            ],
            [
                228.8167724609375,
                651.3461303710938,
                5318.9228515625
            ],
            [
                236.99867248535156,
                663.9697265625,
                5418.9228515625
            ],
            [
                245.3980712890625,
                676.5922241210938,
                5518.9228515625
            ],
            [
                254.0093231201172,
                689.21923828125,
                5618.9228515625
            ],
            [
                262.8207702636719,
                701.8451538085938,
                5718.9228515625
            ],
            [
                271.84393310546875,
                714.4705200195313,
                5818.9228515625
            ],
            [
                281.06036376953125,
                727.0957641601563,
                5918.9228515625
            ],
            [
                290.4817199707031,
                739.7218627929688,
                6018.9228515625
            ],
            [
                300.0894775390625,
                752.3473510742188,
                6118.9228515625
            ],
            [
                309.88201904296875,
                764.97119140625,
                6218.9228515625
            ],
            [
                319.85809326171875,
                777.59326171875,
                6318.9228515625
            ],
            [
                330.01007080078125,
                790.2138671875,
                6418.9228515625
            ],
            [
                340.3284606933594,
                802.8318481445313,
                6518.9228515625
            ],
            [
                350.8136291503906,
                815.4476318359375,
                6618.9228515625
            ],
            [
                361.4512023925781,
                828.060302734375,
                6718.9228515625
            ],
            [
                372.2320556640625,
                840.66943359375,
                6818.9228515625
            ],
            [
                383.1536865234375,
                853.2747192382813,
                6918.9228515625
            ],
            [
                394.2031555175781,
                865.8759155273438,
                7018.9228515625
            ],
            [
                405.37103271484375,
                878.4727172851563,
                7118.9228515625
            ],
            [
                416.6490783691406,
                891.0653076171875,
                7218.9228515625
            ],
            [
                428.02752685546875,
                903.6534423828125,
                7318.9228515625
            ],
            [
                439.498291015625,
                916.237548828125,
                7418.9228515625
            ],
            [
                451.05120849609375,
                928.8178100585938,
                7518.9228515625
            ],
            [
                462.6824035644531,
                941.3938598632813,
                7618.9228515625
            ],
            [
                474.3802490234375,
                953.9662475585938,
                7718.9228515625
            ],
            [
                486.14044189453125,
                966.5350952148438,
                7818.9228515625
            ],
            [
                497.9563903808594,
                979.1007080078125,
                7918.9228515625
            ],
            [
                509.82208251953125,
                991.6633911132813,
                8018.9228515625
            ],
            [
                521.7329711914063,
                1004.2233276367188,
                8118.9228515625
            ],
            [
                533.6841430664063,
                1016.7809448242188,
                8218.9228515625
            ],
            [
                545.6713256835938,
                1029.33642578125,
                8318.9228515625
            ],
            [
                557.6912841796875,
                1041.889892578125,
                8418.9228515625
            ],
            [
                569.7410278320313,
                1054.4417724609375,
                8518.9228515625
            ],
            [
                581.8165893554688,
                1066.9923095703125,
                8618.9228515625
            ],
            [
                593.9163208007813,
                1079.5413818359375,
                8718.9228515625
            ],
            [
                606.0374755859375,
                1092.089599609375,
                8818.9228515625
            ],
            [
                618.17822265625,
                1104.6368408203125,
                8918.9228515625
            ],
            [
                630.336669921875,
                1117.183349609375,
                9018.9228515625
            ],
            [
                642.5111694335938,
                1129.729248046875,
                9118.9228515625
            ],
            [
                654.7000122070313,
                1142.274658203125,
                9218.9228515625
            ],
            [
                666.9019165039063,
                1154.8197021484375,
                9318.9228515625
            ],
            [
                679.1156616210938,
                1167.364501953125,
                9418.9228515625
            ],
            [
                691.3399658203125,
                1179.9090576171875,
                9518.9228515625
            ],
            [
                703.5739135742188,
                1192.45361328125,
                9618.9228515625
            ],
            [
                715.8165893554688,
                1204.998046875,
                9718.9228515625
            ],
            [
                728.0671997070313,
                1217.54248046875,
                9818.9228515625
            ],
            [
                740.3248901367188,
                1230.0869140625,
                9918.9228515625
            ],
            [
                752.589111328125,
                1242.6314697265625,
                10018.9228515625
            ],
            [
                777.134521484375,
                1267.7208251953125,
                10218.9228515625
            ],
            [
                801.6994018554688,
                1292.8106689453125,
                10418.9228515625
            ],
            [
                826.2799072265625,
                1317.901123046875,
                10618.9228515625
            ],
            [
                850.873779296875,
                1342.9921875,
                10818.9228515625
            ],
            [
                875.47802734375,
                1368.0841064453125,
                11018.9228515625
            ],
            [
                900.091064453125,
                1393.1766357421875,
                11218.9228515625
            ],
            [
                924.7116088867188,
                1418.2696533203125,
                11418.9228515625
            ],
            [
                949.3375244140625,
                1443.3634033203125,
                11618.9228515625
            ],
            [
                973.9683227539063,
                1468.457763671875,
                11818.9228515625
            ],
            [
                998.6026000976563,
                1493.552734375,
                12018.9228515625
            ],
            [
                1023.2405395507813,
                1518.64794921875,
                12218.9228515625
            ],
            [
                1047.880859375,
                1543.74365234375,
                12418.9228515625
            ],
            [
                1072.5224609375,
                1568.83984375,
                12618.9228515625
            ],
            [
                1097.165283203125,
                1593.936279296875,
                12818.9228515625
            ],
            [
                1121.8099365234375,
                1619.032958984375,
                13018.9228515625
            ],
            [
                1146.4554443359375,
                1644.1298828125,
                13218.9228515625
            ],
            [
                1171.1016845703125,
                1669.2269287109375,
                13418.9228515625
            ]
        ],
        "zFirstMeasurement": 214.2993
    },
    {
        "E": 9479.457531950087,
        "chi2": 1.1372088193893433,
        "ip": 0.08494515018119929,
        "ipchi2": 5.600304245035949,
        "mass": 139.57018,
        "particleId": "pi+",
        "pvx": 0.6043,
        "pvy": 0.1354,
        "pvz": 138.0244,
        "px": 492.5842342757039,
        "py": -410.35415255357884,
        "pz": 9456.722767773466,
        "q": 1.0,
        "trajectory": [
            [
                -11.827829360961914,
                10.538599014282227,
                -100.0
            ],
            [
                -11.567654609680176,
                10.321640968322754,
                -95.0
            ],
            [
                -11.307475090026855,
                10.104682922363281,
                -90.0
            ],
            [
                -11.04728889465332,
                9.887723922729492,
                -85.0
            ],
            [
                -10.787099838256836,
                9.67076587677002,
                -80.0
            ],
            [
                -10.526905059814453,
                9.45380687713623,
                -75.0
            ],
            [
                -10.266706466674805,
                9.236847877502441,
                -70.0
            ],
            [
                -10.006503105163574,
                9.019888877868652,
                -65.0
            ],
            [
                -9.746294975280762,
                8.802929878234863,
                -60.0
            ],
            [
                -9.486082077026367,
                8.585970878601074,
                -55.0
            ],
            [
                -9.22586441040039,
                8.369010925292969,
                -50.0
            ],
            [
                -8.965641975402832,
                8.15205192565918,
                -45.0
            ],
            [
                -8.705413818359375,
                7.935092449188232,
                -40.0
            ],
            [
                -8.445181846618652,
                7.718132495880127,
                -35.0
            ],
            [
                -8.184944152832031,
                7.5011725425720215,
                -30.0
            ],
            [
                -7.924702167510986,
                7.284212589263916,
                -25.0
            ],
            [
                -7.664454460144043,
                7.0672526359558105,
                -20.0
            ],
            [
                -7.404201507568359,
                6.850292205810547,
                -15.0
            ],
            [
                -7.1439433097839355,
                6.633331775665283,
                -10.0
            ],
            [
                -6.8836798667907715,
                6.4163713455200195,
                -5.0
            ],
            [
                -6.623411178588867,
                6.199410915374756,
                0.0
            ],
            [
                -6.3631367683410645,
                5.982450008392334,
                5.0
            ],
            [
                -6.102856636047363,
                5.765489101409912,
                10.0
            ],
            [
                -5.842571258544922,
                5.54852819442749,
                15.0
            ],
            [
                -5.582279682159424,
                5.33156681060791,
                20.0
            ],
            [
                -5.321982383728027,
                5.11460542678833,
                25.0
            ],
            [
                -5.061678886413574,
                4.89764404296875,
                30.0
            ],
            [
                -4.801417827606201,
                4.68068265914917,
                35.0
            ],
            [
                -4.5410966873168945,
                4.463720798492432,
                40.0
            ],
            [
                -4.280770778656006,
                4.246759414672852,
                45.0
            ],
            [
                -4.0204386711120605,
                4.029797077178955,
                50.0
            ],
            [
                -3.760101556777954,
                3.812835216522217,
                55.0
            ],
            [
                -3.499758720397949,
                3.5958728790283203,
                60.0
            ],
            [
                -3.239410161972046,
                3.378910541534424,
                65.0
            ],
            [
                -2.979055166244507,
                3.1619482040405273,
                70.0
            ],
            [
                -2.7186942100524902,
                2.9449856281280518,
                75.0
            ],
            [
                -2.458327531814575,
                2.728022813796997,
                80.0
            ],
            [
                -2.1979548931121826,
                2.5110599994659424,
                85.0
            ],
            [
                -1.937576174736023,
                2.2940969467163086,
                90.0
            ],
            [
                -1.6771912574768066,
                2.077133893966675,
                95.0
            ],
            [
                -1.4168000221252441,
                1.860170602798462,
                100.0
            ],
            [
                -0.37516912817955017,
                0.9923161864280701,
                120.0
            ],
            [
                0.666572630405426,
                0.12445960938930511,
                140.0
            ],
            [
                1.7084331512451172,
                -0.7433990836143494,
                160.0
            ],
            [
                2.750419855117798,
                -1.611259937286377,
                180.0
            ],
            [
                3.7925407886505127,
                -2.4791228771209717,
                200.0
            ],
            [
                4.834796905517578,
                -3.3469908237457275,
                220.0
            ],
            [
                5.877187252044678,
                -4.214858055114746,
                240.0
            ],
            [
                6.919717311859131,
                -5.082727432250977,
                260.0
            ],
            [
                7.962396144866943,
                -5.950599193572998,
                280.0
            ],
            [
                9.005230903625488,
                -6.818472862243652,
                300.0
            ],
            [
                10.04823112487793,
                -7.6863484382629395,
                320.0
            ],
            [
                11.091405868530273,
                -8.554226875305176,
                340.0
            ],
            [
                12.134764671325684,
                -9.422106742858887,
                360.0
            ],
            [
                13.178242683410645,
                -10.289989471435547,
                380.0
            ],
            [
                14.221945762634277,
                -11.15787410736084,
                400.0
            ],
            [
                15.265843391418457,
                -12.025760650634766,
                420.0
            ],
            [
                16.309938430786133,
                -12.893649101257324,
                440.0
            ],
            [
                17.35424041748047,
                -13.761540412902832,
                460.0
            ],
            [
                18.398752212524414,
                -14.629433631896973,
                480.0
            ],
            [
                19.443490982055664,
                -15.497328758239746,
                500.0
            ],
            [
                20.488462448120117,
                -16.36522674560547,
                520.0
            ],
            [
                21.53367042541504,
                -17.233125686645508,
                540.0
            ],
            [
                22.579120635986328,
                -18.10102653503418,
                560.0
            ],
            [
                23.624820709228516,
                -18.968931198120117,
                580.0
            ],
            [
                24.6707763671875,
                -19.836837768554688,
                600.0
            ],
            [
                25.717002868652344,
                -20.704744338989258,
                620.0
            ],
            [
                26.763498306274414,
                -21.57265281677246,
                640.0
            ],
            [
                27.81029510498047,
                -22.440563201904297,
                660.0
            ],
            [
                28.857406616210938,
                -23.308475494384766,
                680.0
            ],
            [
                29.90483283996582,
                -24.176387786865234,
                700.0
            ],
            [
                30.95258903503418,
                -25.04430389404297,
                720.0
            ],
            [
                32.00067138671875,
                -25.912221908569336,
                740.0
            ],
            [
                33.0490837097168,
                -26.780141830444336,
                760.0
            ],
            [
                34.097835540771484,
                -27.648061752319336,
                780.0
            ],
            [
                35.14693832397461,
                -28.51598358154297,
                800.0
            ],
            [
                36.19639587402344,
                -29.383907318115234,
                820.0
            ],
            [
                37.24627685546875,
                -30.251819610595703,
                840.0
            ],
            [
                38.29653549194336,
                -31.119733810424805,
                860.0
            ],
            [
                39.34718704223633,
                -31.987646102905273,
                880.0
            ],
            [
                40.39823913574219,
                -32.85555648803711,
                900.0
            ],
            [
                41.44966506958008,
                -33.72346496582031,
                920.0
            ],
            [
                42.501502990722656,
                -34.591373443603516,
                940.0
            ],
            [
                43.55376052856445,
                -35.45928192138672,
                960.0
            ],
            [
                44.60645294189453,
                -36.327186584472656,
                980.0
            ],
            [
                45.65947341918945,
                -37.19510269165039,
                1000.0
            ],
            [
                50.931243896484375,
                -41.534690856933594,
                1100.0
            ],
            [
                56.214691162109375,
                -45.87425994873047,
                1200.0
            ],
            [
                61.51157760620117,
                -50.21350860595703,
                1300.0
            ],
            [
                66.8182144165039,
                -54.55291748046875,
                1400.0
            ],
            [
                72.13529968261719,
                -58.89224624633789,
                1500.0
            ],
            [
                77.46409606933594,
                -63.23154830932617,
                1600.0
            ],
            [
                82.80593872070313,
                -67.57081604003906,
                1700.0
            ],
            [
                88.1576919555664,
                -71.91024780273438,
                1800.0
            ],
            [
                93.5267333984375,
                -76.24970245361328,
                1900.0
            ],
            [
                98.91119384765625,
                -80.58927154541016,
                2000.0
            ],
            [
                104.31541442871094,
                -84.92900085449219,
                2100.0
            ],
            [
                109.7415771484375,
                -89.26895141601563,
                2200.0
            ],
            [
                115.20213317871094,
                -93.60846710205078,
                2300.0
            ],
            [
                120.69108581542969,
                -97.94876098632813,
                2400.0
            ],
            [
                126.22296905517578,
                -102.28971099853516,
                2500.0
            ],
            [
                131.80381774902344,
                -106.63118743896484,
                2600.0
            ],
            [
                137.44419860839844,
                -110.97319793701172,
                2700.0
            ],
            [
                143.15460205078125,
                -115.31609344482422,
                2800.0
            ],
            [
                148.9462127685547,
                -119.6602554321289,
                2900.0
            ],
            [
                154.84033203125,
                -124.00537872314453,
                3000.0
            ],
            [
                160.84344482421875,
                -128.35177612304688,
                3100.0
            ],
            [
                166.97186279296875,
                -132.70022583007813,
                3200.0
            ],
            [
                173.2656707763672,
                -137.05084228515625,
                3300.0
            ],
            [
                179.71902465820313,
                -141.40399169921875,
                3400.0
            ],
            [
                186.35794067382813,
                -145.75936889648438,
                3500.0
            ],
            [
                193.19696044921875,
                -150.1171417236328,
                3600.0
            ],
            [
                200.25526428222656,
                -154.4775848388672,
                3700.0
            ],
            [
                207.55870056152344,
                -158.84140014648438,
                3800.0
            ],
            [
                215.12969970703125,
                -163.20823669433594,
                3900.0
            ],
            [
                222.96473693847656,
                -167.57643127441406,
                4000.0
            ],
            [
                231.10064697265625,
                -171.94700622558594,
                4100.0
            ],
            [
                239.55352783203125,
                -176.3202362060547,
                4200.0
            ],
            [
                248.32725524902344,
                -180.6967010498047,
                4300.0
            ],
            [
                257.40673828125,
                -185.07431030273438,
                4400.0
            ],
            [
                266.8231506347656,
                -189.4525146484375,
                4500.0
            ],
            [
                276.57611083984375,
                -193.83395385742188,
                4600.0
            ],
            [
                286.66900634765625,
                -198.21644592285156,
                4700.0
            ],
            [
                297.09564208984375,
                -202.6009063720703,
                4800.0
            ],
            [
                310.47674560546875,
                -209.16139221191406,
                4900.0
            ],
            [
                321.63897705078125,
                -213.62222290039063,
                5000.0
            ],
            [
                333.1439514160156,
                -218.08346557617188,
                5100.0
            ],
            [
                344.9764709472656,
                -222.54470825195313,
                5200.0
            ],
            [
                357.1412048339844,
                -227.0053253173828,
                5300.0
            ],
            [
                369.62811279296875,
                -231.46644592285156,
                5400.0
            ],
            [
                382.4376525878906,
                -235.92884826660156,
                5500.0
            ],
            [
                395.5547790527344,
                -240.38955688476563,
                5600.0
            ],
            [
                408.9853515625,
                -244.84913635253906,
                5700.0
            ],
            [
                422.71722412109375,
                -249.3080596923828,
                5800.0
            ],
            [
                436.7353515625,
                -253.76559448242188,
                5900.0
            ],
            [
                451.0484619140625,
                -258.2215270996094,
                6000.0
            ],
            [
                465.63787841796875,
                -262.6755065917969,
                6100.0
            ],
            [
                480.49755859375,
                -267.1275634765625,
                6200.0
            ],
            [
                495.6214599609375,
                -271.57806396484375,
                6300.0
            ],
            [
                510.9966125488281,
                -276.0265808105469,
                6400.0
            ],
            [
                526.6150512695313,
                -280.4728088378906,
                6500.0
            ],
            [
                542.469482421875,
                -284.9162292480469,
                6600.0
            ],
            [
                558.545654296875,
                -289.3565368652344,
                6700.0
            ],
            [
                574.8298950195313,
                -293.7938537597656,
                6800.0
            ],
            [
                591.3201293945313,
                -298.227783203125,
                6900.0
            ],
            [
                608.0007934570313,
                -302.65826416015625,
                7000.0
            ],
            [
                624.8602294921875,
                -307.0853271484375,
                7100.0
            ],
            [
                641.8867797851563,
                -311.50897216796875,
                7200.0
            ],
            [
                659.0713500976563,
                -315.9290466308594,
                7300.0
            ],
            [
                676.4064331054688,
                -320.34552001953125,
                7400.0
            ],
            [
                693.873046875,
                -324.75860595703125,
                7500.0
            ],
            [
                711.4701538085938,
                -329.1680908203125,
                7600.0
            ],
            [
                729.1822509765625,
                -333.57427978515625,
                7700.0
            ],
            [
                747.0047607421875,
                -337.9771728515625,
                7800.0
            ],
            [
                764.927978515625,
                -342.37689208984375,
                7900.0
            ],
            [
                782.9428100585938,
                -346.7737731933594,
                8000.0
            ],
            [
                801.0441284179688,
                -351.1678161621094,
                8100.0
            ],
            [
                819.2218627929688,
                -355.5594177246094,
                8200.0
            ],
            [
                837.4708251953125,
                -359.9487609863281,
                8300.0
            ],
            [
                855.78564453125,
                -364.3359680175781,
                8400.0
            ],
            [
                874.1607666015625,
                -368.7212829589844,
                8500.0
            ],
            [
                892.5889282226563,
                -373.1050109863281,
                8600.0
            ],
            [
                911.0672607421875,
                -377.48724365234375,
                8700.0
            ],
            [
                929.5910034179688,
                -381.8681640625,
                8800.0
            ],
            [
                948.15576171875,
                -386.2479248046875,
                8900.0
            ],
            [
                966.758544921875,
                -390.626708984375,
                9000.0
            ],
            [
                985.3956909179688,
                -395.0046081542969,
                9100.0
            ],
            [
                1004.06396484375,
                -399.3818054199219,
                9200.0
            ],
            [
                1022.7606811523438,
                -403.75836181640625,
                9300.0
            ],
            [
                1041.483154296875,
                -408.1344299316406,
                9400.0
            ],
            [
                1060.22900390625,
                -412.51007080078125,
                9500.0
            ],
            [
                1078.9962158203125,
                -416.8854064941406,
                9600.0
            ],
            [
                1097.7825927734375,
                -421.260498046875,
                9700.0
            ],
            [
                1116.5865478515625,
                -425.6354064941406,
                9800.0
            ],
            [
                1135.40625,
                -430.0101623535156,
                9900.0
            ],
            [
                1154.240478515625,
                -434.38482666015625,
                10000.0
            ],
            [
                1191.947021484375,
                -443.13409423828125,
                10200.0
            ],
            [
                1229.697021484375,
                -451.8833923339844,
                10400.0
            ],
            [
                1267.4820556640625,
                -460.6329345703125,
                10600.0
            ],
            [
                1305.2969970703125,
                -469.3828125,
                10800.0
            ],
            [
                1343.13525390625,
                -478.1331481933594,
                11000.0
            ],
            [
                1380.993408203125,
                -486.8839416503906,
                11200.0
            ],
            [
                1418.8682861328125,
                -495.6351623535156,
                11400.0
            ],
            [
                1456.755615234375,
                -504.3869323730469,
                11600.0
            ],
            [
                1494.653564453125,
                -513.13916015625,
                11800.0
            ],
            [
                1532.559814453125,
                -521.891845703125,
                12000.0
            ],
            [
                1570.474365234375,
                -530.6448364257813,
                12200.0
            ],
            [
                1608.394287109375,
                -539.3982543945313,
                12400.0
            ],
            [
                1646.317138671875,
                -548.1520385742188,
                12600.0
            ],
            [
                1684.243408203125,
                -556.9061279296875,
                12800.0
            ],
            [
                1722.17333984375,
                -565.6603393554688,
                13000.0
            ],
            [
                1760.10595703125,
                -574.414794921875,
                13200.0
            ],
            [
                1798.0396728515625,
                -583.1693725585938,
                13400.0
            ]
        ],
        "zFirstMeasurement": 274.1328
    }
]
