[
    {
        "E": 97491.5550465513,
        "chi2": 0.0,
        "ip": 0.013821699589244807,
        "ipchi2": 1.2926638582762684,
        "mass": 1869.82,
        "particleId": "D0",
        "pvx": 0.6173,
        "pvy": 0.0656,
        "pvz": 35.9934,
        "px": -3867.06,
        "py": 4199.4,
        "pz": 97306.31,
        "q": 0.0,
        "trajectory": [
            [
                0.6172999739646912,
                0.06560000032186508,
                35.99340057373047
            ],
            [
                0.49219998717308044,
                0.18950000405311584,
                39.182701110839844
            ]
        ],
        "zFirstMeasurement": -9999.0
    },
    {
        "E": 26828.47739655677,
        "chi2": 1.141625165939331,
        "ip": 0.0924767069919503,
        "ipchi2": 29.1160703628176,
        "mass": 493.677,
        "particleId": "K-",
        "pvx": 0.6173,
        "pvy": 0.0656,
        "pvz": 35.9934,
        "px": -1724.95,
        "py": 1432.08,
        "pz": 26730.08,
        "q": -1.0,
        "trajectory": [
            [
                0.49720004200935364,
                0.20096729695796967,
                39.182701110839844
            ],
            [
                0.17453868687152863,
                0.4688444435596466,
                44.182701110839844
            ],
            [
                -0.1481248438358307,
                0.7367216348648071,
                49.182701110839844
            ],
            [
                -0.4707905650138855,
                1.0045987367630005,
                54.182701110839844
            ],
            [
                -0.7934585213661194,
                1.2724759578704834,
                59.182701110839844
            ],
            [
                -1.11612868309021,
                1.5403531789779663,
                64.18270111083984
            ],
            [
                -1.4388012886047363,
                1.8082304000854492,
                69.18270111083984
            ],
            [
                -1.7614761590957642,
                2.0761077404022217,
                74.18270111083984
            ],
            [
                -2.084153413772583,
                2.343984842300415,
                79.18270111083984
            ],
            [
                -2.4068329334259033,
                2.6118621826171875,
                84.18270111083984
            ],
            [
                -2.7295150756835938,
                2.87973952293396,
                89.18270111083984
            ],
            [
                -3.05228590965271,
                3.1476616859436035,
                94.18270111083984
            ],
            [
                -3.3749725818634033,
                3.415539026260376,
                99.18270111083984
            ],
            [
                -3.6976616382598877,
                3.6834163665771484,
                104.18270111083984
            ],
            [
                -4.988441467285156,
                4.754925727844238,
                124.18270111083984
            ],
            [
                -6.279261112213135,
                5.826435565948486,
                144.1826934814453
            ],
            [
                -7.570123672485352,
                6.897945404052734,
                164.1826934814453
            ],
            [
                -8.861031532287598,
                7.969455718994141,
                184.1826934814453
            ],
            [
                -10.15198802947998,
                9.040966033935547,
                204.1826934814453
            ],
            [
                -11.442995071411133,
                10.11247730255127,
                224.1826934814453
            ],
            [
                -12.734034538269043,
                11.183988571166992,
                244.1826934814453
            ],
            [
                -14.025136947631836,
                12.255499839782715,
                264.1827087402344
            ],
            [
                -15.316293716430664,
                13.327011108398438,
                284.1827087402344
            ],
            [
                -16.607505798339844,
                14.398523330688477,
                304.1827087402344
            ],
            [
                -17.89877700805664,
                15.470035552978516,
                324.1827087402344
            ],
            [
                -19.190107345581055,
                16.541547775268555,
                344.1827087402344
            ],
            [
                -20.48150062561035,
                17.613059997558594,
                364.1827087402344
            ],
            [
                -21.77295684814453,
                18.684574127197266,
                384.1827087402344
            ],
            [
                -23.064481735229492,
                19.756086349487305,
                404.1827087402344
            ],
            [
                -24.356077194213867,
                20.827600479125977,
                424.1827087402344
            ],
            [
                -25.647743225097656,
                21.89911460876465,
                444.1827087402344
            ],
            [
                -26.939483642578125,
                22.97062873840332,
                464.1827087402344
            ],
            [
                -28.231298446655273,
                24.042144775390625,
                484.1827087402344
            ],
            [
                -29.523191452026367,
                25.113658905029297,
                504.1827087402344
            ],
            [
                -30.815166473388672,
                26.1851749420166,
                524.1826782226563
            ],
            [
                -32.10722351074219,
                27.256690979003906,
                544.1826782226563
            ],
            [
                -33.39936828613281,
                28.32820701599121,
                564.1826782226563
            ],
            [
                -34.69160461425781,
                29.399723052978516,
                584.1826782226563
            ],
            [
                -35.98394012451172,
                30.471240997314453,
                604.1826782226563
            ],
            [
                -37.27637481689453,
                31.542757034301758,
                624.1826782226563
            ],
            [
                -38.568904876708984,
                32.61427688598633,
                644.1826782226563
            ],
            [
                -39.861534118652344,
                33.685794830322266,
                664.1826782226563
            ],
            [
                -41.15427017211914,
                34.7573127746582,
                684.1826782226563
            ],
            [
                -42.44711685180664,
                35.82883071899414,
                704.1826782226563
            ],
            [
                -43.74006652832031,
                36.90034866333008,
                724.1826782226563
            ],
            [
                -45.03313446044922,
                37.971866607666016,
                744.1826782226563
            ],
            [
                -46.32633590698242,
                39.04338455200195,
                764.1826782226563
            ],
            [
                -47.619651794433594,
                40.114906311035156,
                784.1826782226563
            ],
            [
                -48.91309356689453,
                41.186424255371094,
                804.1826782226563
            ],
            [
                -50.2066535949707,
                42.2579460144043,
                824.1826782226563
            ],
            [
                -51.50033950805664,
                43.3294677734375,
                844.1826782226563
            ],
            [
                -52.79415512084961,
                44.4009895324707,
                864.1826782226563
            ],
            [
                -54.08810043334961,
                45.472511291503906,
                884.1826782226563
            ],
            [
                -55.382179260253906,
                46.54403305053711,
                904.1826782226563
            ],
            [
                -56.67640686035156,
                47.61555099487305,
                924.1826782226563
            ],
            [
                -57.97077941894531,
                48.68706512451172,
                944.1826782226563
            ],
            [
                -59.26530075073242,
                49.758583068847656,
                964.1826782226563
            ],
            [
                -60.55996322631836,
                50.83009719848633,
                984.1826782226563
            ],
            [
                -61.854766845703125,
                51.901615142822266,
                1004.1826782226563
            ],
            [
                -68.33121490478516,
                57.25918197631836,
                1104.1827392578125
            ],
            [
                -74.8126449584961,
                62.616722106933594,
                1204.1827392578125
            ],
            [
                -81.29744720458984,
                67.97420501708984,
                1304.1827392578125
            ],
            [
                -87.78621673583984,
                73.33168029785156,
                1404.1827392578125
            ],
            [
                -94.27886962890625,
                78.68913269042969,
                1504.1827392578125
            ],
            [
                -100.77522277832031,
                84.04657745361328,
                1604.1827392578125
            ],
            [
                -107.27562713623047,
                89.4040298461914,
                1704.1827392578125
            ],
            [
                -113.78089904785156,
                94.76148223876953,
                1804.1827392578125
            ],
            [
                -120.29117584228516,
                100.11898803710938,
                1904.1827392578125
            ],
            [
                -126.80762481689453,
                105.47660064697266,
                2004.1827392578125
            ],
            [
                -133.33131408691406,
                110.83429718017578,
                2104.1826171875
            ],
            [
                -139.8636932373047,
                116.19220733642578,
                2204.1826171875
            ],
            [
                -146.40354919433594,
                121.55026245117188,
                2304.1826171875
            ],
            [
                -152.95632934570313,
                126.90859985351563,
                2404.1826171875
            ],
            [
                -159.52316284179688,
                132.2672576904297,
                2504.1826171875
            ],
            [
                -166.1087188720703,
                137.62631225585938,
                2604.1826171875
            ],
            [
                -172.71363830566406,
                142.98582458496094,
                2704.1826171875
            ],
            [
                -179.34291076660156,
                148.34591674804688,
                2804.1826171875
            ],
            [
                -186.00271606445313,
                153.70680236816406,
                2904.1826171875
            ],
            [
                -192.69760131835938,
                159.06846618652344,
                3004.1826171875
            ],
            [
                -199.42942810058594,
                164.43099975585938,
                3104.1826171875
            ],
            [
                -206.209716796875,
                169.79469299316406,
                3204.1826171875
            ],
            [
                -213.04002380371094,
                175.1595001220703,
                3304.1826171875
            ],
            [
                -219.93206787109375,
                180.52545166015625,
                3404.1826171875
            ],
            [
                -226.8903350830078,
                185.8927459716797,
                3504.1826171875
            ],
            [
                -233.91751098632813,
                191.26165771484375,
                3604.1826171875
            ],
            [
                -241.0232391357422,
                196.63165283203125,
                3704.1826171875
            ],
            [
                -248.2192840576172,
                202.00323486328125,
                3804.1826171875
            ],
            [
                -255.50302124023438,
                207.37652587890625,
                3904.1826171875
            ],
            [
                -262.89141845703125,
                212.75125122070313,
                4004.1826171875
            ],
            [
                -270.3746337890625,
                218.1270294189453,
                4104.1826171875
            ],
            [
                -277.9752197265625,
                223.50352478027344,
                4204.1826171875
            ],
            [
                -285.688232421875,
                228.8810272216797,
                4304.1826171875
            ],
            [
                -293.5132751464844,
                234.25961303710938,
                4404.1826171875
            ],
            [
                -301.4574279785156,
                239.63919067382813,
                4504.1826171875
            ],
            [
                -309.5155944824219,
                245.01853942871094,
                4604.1826171875
            ],
            [
                -317.70025634765625,
                250.3985137939453,
                4704.1826171875
            ],
            [
                -324.8430480957031,
                256.1026306152344,
                4804.1826171875
            ],
            [
                -333.24810791015625,
                261.4953308105469,
                4904.1826171875
            ],
            [
                -341.7693786621094,
                266.8879699707031,
                5004.1826171875
            ],
            [
                -350.4115295410156,
                272.2801513671875,
                5104.1826171875
            ],
            [
                -359.1690979003906,
                277.67254638671875,
                5204.1826171875
            ],
            [
                -368.0433349609375,
                283.0649719238281,
                5304.1826171875
            ],
            [
                -377.0312805175781,
                288.4575500488281,
                5404.1826171875
            ],
            [
                -386.1295471191406,
                293.8499450683594,
                5504.1826171875
            ],
            [
                -395.3355407714844,
                299.24163818359375,
                5604.1826171875
            ],
            [
                -404.65203857421875,
                304.6330871582031,
                5704.1826171875
            ],
            [
                -414.0741882324219,
                310.0243225097656,
                5804.1826171875
            ],
            [
                -423.5953369140625,
                315.4148864746094,
                5904.1826171875
            ],
            [
                -433.2195739746094,
                320.8045959472656,
                6004.1826171875
            ],
            [
                -442.9403076171875,
                326.19378662109375,
                6104.1826171875
            ],
            [
                -452.7555847167969,
                331.5824279785156,
                6204.1826171875
            ],
            [
                -462.6617736816406,
                336.9703063964844,
                6304.1826171875
            ],
            [
                -472.6552734375,
                342.3574523925781,
                6404.1826171875
            ],
            [
                -482.73388671875,
                347.7439880371094,
                6504.1826171875
            ],
            [
                -492.8930969238281,
                353.1294860839844,
                6604.1826171875
            ],
            [
                -503.130615234375,
                358.5140380859375,
                6704.1826171875
            ],
            [
                -513.4400024414063,
                363.8976745605469,
                6804.1826171875
            ],
            [
                -523.8206787109375,
                369.28033447265625,
                6904.1826171875
            ],
            [
                -534.2672729492188,
                374.66192626953125,
                7004.1826171875
            ],
            [
                -544.7755126953125,
                380.0425109863281,
                7104.1826171875
            ],
            [
                -555.3414306640625,
                385.4220886230469,
                7204.1826171875
            ],
            [
                -565.9617309570313,
                390.8006591796875,
                7304.1826171875
            ],
            [
                -576.633544921875,
                396.17822265625,
                7404.1826171875
            ],
            [
                -587.3505859375,
                401.5548400878906,
                7504.1826171875
            ],
            [
                -598.1123657226563,
                406.930419921875,
                7604.1826171875
            ],
            [
                -608.9134521484375,
                412.3050842285156,
                7704.1826171875
            ],
            [
                -619.752197265625,
                417.6788330078125,
                7804.1826171875
            ],
            [
                -630.625244140625,
                423.0517272949219,
                7904.1826171875
            ],
            [
                -641.5293579101563,
                428.4238586425781,
                8004.1826171875
            ],
            [
                -652.4628295898438,
                433.79522705078125,
                8104.1826171875
            ],
            [
                -663.4222412109375,
                439.1659851074219,
                8204.1826171875
            ],
            [
                -674.40576171875,
                444.5361022949219,
                8304.1826171875
            ],
            [
                -685.4115600585938,
                449.9057312011719,
                8404.1826171875
            ],
            [
                -696.437744140625,
                455.2748718261719,
                8504.1826171875
            ],
            [
                -707.48193359375,
                460.64361572265625,
                8604.1826171875
            ],
            [
                -718.543212890625,
                466.0119934082031,
                8704.1826171875
            ],
            [
                -729.6197509765625,
                471.38006591796875,
                8804.1826171875
            ],
            [
                -740.7103271484375,
                476.7478942871094,
                8904.1826171875
            ],
            [
                -751.813720703125,
                482.115478515625,
                9004.1826171875
            ],
            [
                -762.9288330078125,
                487.4828796386719,
                9104.1826171875
            ],
            [
                -774.0545654296875,
                492.8501281738281,
                9204.1826171875
            ],
            [
                -785.18994140625,
                498.2172546386719,
                9304.1826171875
            ],
            [
                -796.3341064453125,
                503.58428955078125,
                9404.1826171875
            ],
            [
                -807.4862670898438,
                508.9512634277344,
                9504.1826171875
            ],
            [
                -818.645751953125,
                514.3181762695313,
                9604.1826171875
            ],
            [
                -829.8118286132813,
                519.68505859375,
                9704.1826171875
            ],
            [
                -840.98388671875,
                525.0518798828125,
                9804.1826171875
            ],
            [
                -852.161376953125,
                530.4187622070313,
                9904.1826171875
            ],
            [
                -863.3438720703125,
                535.78564453125,
                10004.1826171875
            ],
            [
                -885.7219848632813,
                546.5194702148438,
                10204.1826171875
            ],
            [
                -908.1151123046875,
                557.2533569335938,
                10404.1826171875
            ],
            [
                -930.5203857421875,
                567.9874267578125,
                10604.1826171875
            ],
            [
                -952.9361572265625,
                578.7217407226563,
                10804.1826171875
            ],
            [
                -975.3600463867188,
                589.4561767578125,
                11004.1826171875
            ],
            [
                -997.7908935546875,
                600.1908569335938,
                11204.1826171875
            ],
            [
                -1020.227783203125,
                610.9257202148438,
                11404.1826171875
            ],
            [
                -1042.6689453125,
                621.6607666015625,
                11604.1826171875
            ],
            [
                -1065.114013671875,
                632.39599609375,
                11804.1826171875
            ],
            [
                -1087.56201171875,
                643.1314086914063,
                12004.1826171875
            ],
            [
                -1110.0130615234375,
                653.866943359375,
                12204.1826171875
            ],
            [
                -1132.4659423828125,
                664.6026000976563,
                12404.1826171875
            ],
            [
                -1154.919921875,
                675.3384399414063,
                12604.1826171875
            ],
            [
                -1177.375244140625,
                686.0743408203125,
                12804.1826171875
            ],
            [
                -1199.831787109375,
                696.810302734375,
                13004.1826171875
            ],
            [
                -1222.2894287109375,
                707.5463256835938,
                13204.1826171875
            ],
            [
                -1244.7474365234375,
                718.282470703125,
                13404.1826171875
            ]
        ],
        "zFirstMeasurement": 139.4112
    },
    {
        "E": 70654.70843655147,
        "chi2": 0.95477294921875,
        "ip": 0.032915201691193,
        "ipchi2": 4.485829563116476,
        "mass": 139.57,
        "particleId": "pi+",
        "pvx": 0.6173,
        "pvy": 0.0656,
        "pvz": 35.9934,
        "px": -2141.91,
        "py": 2766.49,
        "pz": 70567.89,
        "q": 1.0,
        "trajectory": [
            [
                0.488542377948761,
                0.18270641565322876,
                39.182701110839844
            ],
            [
                0.33677974343299866,
                0.3787223696708679,
                44.182701110839844
            ],
            [
                0.1850178837776184,
                0.5747383236885071,
                49.182701110839844
            ],
            [
                0.03325686976313591,
                0.7707542181015015,
                54.182701110839844
            ],
            [
                -0.11850330978631973,
                0.9667701721191406,
                59.182701110839844
            ],
            [
                -0.27026262879371643,
                1.1627861261367798,
                64.18270111083984
            ],
            [
                -0.4220210909843445,
                1.3588019609451294,
                69.18270111083984
            ],
            [
                -0.5737786889076233,
                1.5548179149627686,
                74.18270111083984
            ],
            [
                -0.7255353331565857,
                1.7508337497711182,
                79.18270111083984
            ],
            [
                -0.8772911429405212,
                1.9468497037887573,
                84.18270111083984
            ],
            [
                -1.0290460586547852,
                2.1428656578063965,
                89.18270111083984
            ],
            [
                -1.180799961090088,
                2.338881492614746,
                94.18270111083984
            ],
            [
                -1.3325529098510742,
                2.5348973274230957,
                99.18270111083984
            ],
            [
                -1.4843050241470337,
                2.7309131622314453,
                104.18270111083984
            ],
            [
                -2.0913033485412598,
                3.5149765014648438,
                124.18270111083984
            ],
            [
                -2.698228359222412,
                4.299088954925537,
                144.1826934814453
            ],
            [
                -3.30519437789917,
                5.083151817321777,
                164.1826934814453
            ],
            [
                -3.912144899368286,
                5.867214679718018,
                184.1826934814453
            ],
            [
                -4.519078731536865,
                6.651277542114258,
                204.1826934814453
            ],
            [
                -5.12599515914917,
                7.435340404510498,
                224.1826934814453
            ],
            [
                -5.7328925132751465,
                8.219402313232422,
                244.1826934814453
            ],
            [
                -6.3397698402404785,
                9.00346565246582,
                264.1827087402344
            ],
            [
                -6.94662618637085,
                9.787528038024902,
                284.1827087402344
            ],
            [
                -7.553460597991943,
                10.571589469909668,
                304.1827087402344
            ],
            [
                -8.160271644592285,
                11.35565185546875,
                324.1827087402344
            ],
            [
                -8.767070770263672,
                12.139714241027832,
                344.1827087402344
            ],
            [
                -9.373838424682617,
                12.923775672912598,
                364.1827087402344
            ],
            [
                -9.980582237243652,
                13.70783805847168,
                384.1827087402344
            ],
            [
                -10.587301254272461,
                14.491899490356445,
                404.1827087402344
            ],
            [
                -11.193994522094727,
                15.275960922241211,
                424.1827087402344
            ],
            [
                -11.800660133361816,
                16.060022354125977,
                444.1827087402344
            ],
            [
                -12.40729808807373,
                16.844083786010742,
                464.1827087402344
            ],
            [
                -13.013907432556152,
                17.628145217895508,
                484.1827087402344
            ],
            [
                -13.620487213134766,
                18.412206649780273,
                504.1827087402344
            ],
            [
                -14.227035522460938,
                19.19626808166504,
                524.1826782226563
            ],
            [
                -14.833549499511719,
                19.980329513549805,
                544.1826782226563
            ],
            [
                -15.440032005310059,
                20.76439094543457,
                564.1826782226563
            ],
            [
                -16.046480178833008,
                21.548452377319336,
                584.1826782226563
            ],
            [
                -16.65289306640625,
                22.33251190185547,
                604.1826782226563
            ],
            [
                -17.25926971435547,
                23.116573333740234,
                624.1826782226563
            ],
            [
                -17.86560821533203,
                23.900634765625,
                644.1826782226563
            ],
            [
                -18.47191047668457,
                24.684696197509766,
                664.1826782226563
            ],
            [
                -19.078174591064453,
                25.4687557220459,
                684.1826782226563
            ],
            [
                -19.68439292907715,
                26.252817153930664,
                704.1826782226563
            ],
            [
                -20.290569305419922,
                27.03687858581543,
                724.1826782226563
            ],
            [
                -20.896705627441406,
                27.820938110351563,
                744.1826782226563
            ],
            [
                -21.502798080444336,
                28.604999542236328,
                764.1826782226563
            ],
            [
                -22.108844757080078,
                29.38905906677246,
                784.1826782226563
            ],
            [
                -22.71484375,
                30.173120498657227,
                804.1826782226563
            ],
            [
                -23.320789337158203,
                30.95718002319336,
                824.1826782226563
            ],
            [
                -23.926685333251953,
                31.741239547729492,
                844.1826782226563
            ],
            [
                -24.53252410888672,
                32.52530288696289,
                864.1826782226563
            ],
            [
                -25.138309478759766,
                33.309364318847656,
                884.1826782226563
            ],
            [
                -25.744043350219727,
                34.09342575073242,
                904.1826782226563
            ],
            [
                -26.3497257232666,
                34.87748718261719,
                924.1826782226563
            ],
            [
                -26.955354690551758,
                35.66154861450195,
                944.1826782226563
            ],
            [
                -27.560928344726563,
                36.44561004638672,
                964.1826782226563
            ],
            [
                -28.16644287109375,
                37.229671478271484,
                984.1826782226563
            ],
            [
                -28.77190399169922,
                38.01373291015625,
                1004.1826782226563
            ],
            [
                -31.79842758178711,
                41.934043884277344,
                1104.1827392578125
            ],
            [
                -34.82337951660156,
                45.8543586730957,
                1204.1827392578125
            ],
            [
                -37.84651565551758,
                49.77469253540039,
                1304.1827392578125
            ],
            [
                -40.86837387084961,
                53.69501876831055,
                1404.1827392578125
            ],
            [
                -43.88884735107422,
                57.615352630615234,
                1504.1827392578125
            ],
            [
                -46.9077033996582,
                61.53569793701172,
                1604.1827392578125
            ],
            [
                -49.924930572509766,
                65.45603942871094,
                1704.1827392578125
            ],
            [
                -52.94050598144531,
                69.37637329101563,
                1804.1827392578125
            ],
            [
                -55.9542350769043,
                73.29669952392578,
                1904.1827392578125
            ],
            [
                -58.96552276611328,
                77.2170181274414,
                2004.1827392578125
            ],
            [
                -61.9744873046875,
                81.13732147216797,
                2104.1826171875
            ],
            [
                -64.98039245605469,
                85.05760192871094,
                2204.1826171875
            ],
            [
                -67.98174285888672,
                88.9778823852539,
                2304.1826171875
            ],
            [
                -70.97931671142578,
                92.89811706542969,
                2404.1826171875
            ],
            [
                -73.97050476074219,
                96.81832122802734,
                2504.1826171875
            ],
            [
                -76.95565795898438,
                100.73847198486328,
                2604.1826171875
            ],
            [
                -79.93289184570313,
                104.6585693359375,
                2704.1826171875
            ],
            [
                -82.90074920654297,
                108.57860565185547,
                2804.1826171875
            ],
            [
                -85.85718536376953,
                112.4985580444336,
                2904.1826171875
            ],
            [
                -88.80007934570313,
                116.41841125488281,
                3004.1826171875
            ],
            [
                -91.72844696044922,
                120.33817291259766,
                3104.1826171875
            ],
            [
                -94.64022064208984,
                124.25782012939453,
                3204.1826171875
            ],
            [
                -97.52879333496094,
                128.17733764648438,
                3304.1826171875
            ],
            [
                -100.39688110351563,
                132.09671020507813,
                3404.1826171875
            ],
            [
                -103.23953247070313,
                136.01593017578125,
                3504.1826171875
            ],
            [
                -106.05584716796875,
                139.93495178222656,
                3604.1826171875
            ],
            [
                -108.84149169921875,
                143.8538818359375,
                3704.1826171875
            ],
            [
                -111.59600830078125,
                147.77267456054688,
                3804.1826171875
            ],
            [
                -114.31371307373047,
                151.6912078857422,
                3904.1826171875
            ],
            [
                -116.99781036376953,
                155.60968017578125,
                4004.1826171875
            ],
            [
                -119.63936614990234,
                159.52810668945313,
                4104.1826171875
            ],
            [
                -122.24198150634766,
                163.44654846191406,
                4204.1826171875
            ],
            [
                -124.79862213134766,
                167.36488342285156,
                4304.1826171875
            ],
            [
                -127.31639099121094,
                171.28311157226563,
                4404.1826171875
            ],
            [
                -129.7894287109375,
                175.201416015625,
                4504.1826171875
            ],
            [
                -132.21609497070313,
                179.1198272705078,
                4604.1826171875
            ],
            [
                -134.6017608642578,
                183.03823852539063,
                4704.1826171875
            ],
            [
                -136.9398193359375,
                186.9564971923828,
                4804.1826171875
            ],
            [
                -138.63693237304688,
                191.04978942871094,
                4904.1826171875
            ],
            [
                -140.87440490722656,
                194.97300720214844,
                5004.1826171875
            ],
            [
                -143.06675720214844,
                198.8965301513672,
                5104.1826171875
            ],
            [
                -145.21595764160156,
                202.820068359375,
                5204.1826171875
            ],
            [
                -147.32154846191406,
                206.7437286376953,
                5304.1826171875
            ],
            [
                -149.3849639892578,
                210.66726684570313,
                5404.1826171875
            ],
            [
                -151.40676879882813,
                214.5908203125,
                5504.1826171875
            ],
            [
                -153.388427734375,
                218.5147705078125,
                5604.1826171875
            ],
            [
                -155.3291778564453,
                222.4386444091797,
                5704.1826171875
            ],
            [
                -157.2304229736328,
                226.36264038085938,
                5804.1826171875
            ],
            [
                -159.0947723388672,
                230.2867889404297,
                5904.1826171875
            ],
            [
                -160.9207763671875,
                234.211181640625,
                6004.1826171875
            ],
            [
                -162.7108154296875,
                238.1356964111328,
                6104.1826171875
            ],
            [
                -164.46583557128906,
                242.06024169921875,
                6204.1826171875
            ],
            [
                -166.1869659423828,
                245.98489379882813,
                6304.1826171875
            ],
            [
                -167.87567138671875,
                249.90965270996094,
                6404.1826171875
            ],
            [
                -169.53269958496094,
                253.8344268798828,
                6504.1826171875
            ],
            [
                -171.1598358154297,
                257.7593688964844,
                6604.1826171875
            ],
            [
                -172.75807189941406,
                261.6844177246094,
                6704.1826171875
            ],
            [
                -174.32952880859375,
                265.6095275878906,
                6804.1826171875
            ],
            [
                -175.87451171875,
                269.53472900390625,
                6904.1826171875
            ],
            [
                -177.3949737548828,
                273.4599914550781,
                7004.1826171875
            ],
            [
                -178.8925018310547,
                277.3853454589844,
                7104.1826171875
            ],
            [
                -180.3684844970703,
                281.3107604980469,
                7204.1826171875
            ],
            [
                -181.8241424560547,
                285.23626708984375,
                7304.1826171875
            ],
            [
                -183.2605438232422,
                289.1618347167969,
                7404.1826171875
            ],
            [
                -184.679931640625,
                293.0875244140625,
                7504.1826171875
            ],
            [
                -186.0825958251953,
                297.01324462890625,
                7604.1826171875
            ],
            [
                -187.47039794921875,
                300.9390563964844,
                7704.1826171875
            ],
            [
                -188.84397888183594,
                304.8649597167969,
                7804.1826171875
            ],
            [
                -190.20455932617188,
                308.79095458984375,
                7904.1826171875
            ],
            [
                -191.5532989501953,
                312.7170104980469,
                8004.1826171875
            ],
            [
                -192.89085388183594,
                316.64312744140625,
                8104.1826171875
            ],
            [
                -194.21847534179688,
                320.5693054199219,
                8204.1826171875
            ],
            [
                -195.53683471679688,
                324.4955749511719,
                8304.1826171875
            ],
            [
                -196.84661865234375,
                328.421875,
                8404.1826171875
            ],
            [
                -198.1485595703125,
                332.3482360839844,
                8504.1826171875
            ],
            [
                -199.44351196289063,
                336.274658203125,
                8604.1826171875
            ],
            [
                -200.73187255859375,
                340.20111083984375,
                8704.1826171875
            ],
            [
                -202.01425170898438,
                344.1275634765625,
                8804.1826171875
            ],
            [
                -203.29119873046875,
                348.0540771484375,
                8904.1826171875
            ],
            [
                -204.5631103515625,
                351.9806213378906,
                9004.1826171875
            ],
            [
                -205.8304443359375,
                355.9071960449219,
                9104.1826171875
            ],
            [
                -207.09361267089844,
                359.8337707519531,
                9204.1826171875
            ],
            [
                -208.3529815673828,
                363.7604064941406,
                9304.1826171875
            ],
            [
                -209.60885620117188,
                367.68701171875,
                9404.1826171875
            ],
            [
                -210.86158752441406,
                371.6136474609375,
                9504.1826171875
            ],
            [
                -212.11141967773438,
                375.5403137207031,
                9604.1826171875
            ],
            [
                -213.35862731933594,
                379.46697998046875,
                9704.1826171875
            ],
            [
                -214.6034393310547,
                383.3936462402344,
                9804.1826171875
            ],
            [
                -215.8460693359375,
                387.3203430175781,
                9904.1826171875
            ],
            [
                -217.08670043945313,
                391.24700927734375,
                10004.1826171875
            ],
            [
                -219.56268310546875,
                399.10040283203125,
                10204.1826171875
            ],
            [
                -222.0325927734375,
                406.95379638671875,
                10404.1826171875
            ],
            [
                -224.49754333496094,
                414.80718994140625,
                10604.1826171875
            ],
            [
                -226.958251953125,
                422.6605529785156,
                10804.1826171875
            ],
            [
                -229.4156036376953,
                430.5139465332031,
                11004.1826171875
            ],
            [
                -231.87008666992188,
                438.3673095703125,
                11204.1826171875
            ],
            [
                -234.3220977783203,
                446.2206726074219,
                11404.1826171875
            ],
            [
                -236.77230834960938,
                454.0740051269531,
                11604.1826171875
            ],
            [
                -239.2208709716797,
                461.9273376464844,
                11804.1826171875
            ],
            [
                -241.668212890625,
                469.7806701660156,
                12004.1826171875
            ],
            [
                -244.11428833007813,
                477.63397216796875,
                12204.1826171875
            ],
            [
                -246.55955505371094,
                485.4872741699219,
                12404.1826171875
            ],
            [
                -249.0043182373047,
                493.340576171875,
                12604.1826171875
            ],
            [
                -251.4485626220703,
                501.19384765625,
                12804.1826171875
            ],
            [
                -253.8922119140625,
                509.047119140625,
                13004.1826171875
            ],
            [
                -256.3354797363281,
                516.900390625,
                13204.1826171875
            ],
            [
                -258.7785339355469,
                524.753662109375,
                13404.1826171875
            ]
        ],
        "zFirstMeasurement": 229.2578
    },
    {
        "E": 4061.8486108722996,
        "chi2": 1.3529658317565918,
        "ip": 0.08670283966435585,
        "ipchi2": 4.291285662331289,
        "mass": 139.57018,
        "particleId": "pi-",
        "pvx": 0.6173,
        "pvy": 0.0656,
        "pvz": 35.9934,
        "px": -393.1916656520641,
        "py": 450.3364183207604,
        "pz": 4015.1876328380695,
        "q": -1.0,
        "trajectory": [
            [
                14.013012886047363,
                -15.213109016418457,
                -100.0
            ],
            [
                13.523723602294922,
                -14.652320861816406,
                -95.0
            ],
            [
                13.034422874450684,
                -14.091532707214355,
                -90.0
            ],
            [
                12.545110702514648,
                -13.530744552612305,
                -85.0
            ],
            [
                12.055787086486816,
                -12.969956398010254,
                -80.0
            ],
            [
                11.566452980041504,
                -12.409168243408203,
                -75.0
            ],
            [
                11.077107429504395,
                -11.848379135131836,
                -70.0
            ],
            [
                10.587750434875488,
                -11.287590980529785,
                -65.0
            ],
            [
                10.09847640991211,
                -10.726802825927734,
                -60.0
            ],
            [
                9.609084129333496,
                -10.166013717651367,
                -55.0
            ],
            [
                9.119681358337402,
                -9.605224609375,
                -50.0
            ],
            [
                8.630267143249512,
                -9.044435501098633,
                -45.0
            ],
            [
                8.14084243774414,
                -8.483646392822266,
                -40.0
            ],
            [
                7.6514058113098145,
                -7.92285680770874,
                -35.0
            ],
            [
                7.161957740783691,
                -7.362067222595215,
                -30.0
            ],
            [
                6.6724982261657715,
                -6.8012776374816895,
                -25.0
            ],
            [
                6.183027267456055,
                -6.240488052368164,
                -20.0
            ],
            [
                5.693544387817383,
                -5.6796979904174805,
                -15.0
            ],
            [
                5.204050064086914,
                -5.118907928466797,
                -10.0
            ],
            [
                4.714542865753174,
                -4.558117866516113,
                -5.0
            ],
            [
                4.2250237464904785,
                -3.9973278045654297,
                0.0
            ],
            [
                3.7354917526245117,
                -3.436537265777588,
                5.0
            ],
            [
                3.2459468841552734,
                -2.875746965408325,
                10.0
            ],
            [
                2.7563889026641846,
                -2.3149564266204834,
                15.0
            ],
            [
                2.266817808151245,
                -1.7541656494140625,
                20.0
            ],
            [
                1.7772330045700073,
                -1.1933748722076416,
                25.0
            ],
            [
                1.2876343727111816,
                -0.6325839161872864,
                30.0
            ],
            [
                0.7980218529701233,
                -0.07179282605648041,
                35.0
            ],
            [
                0.30839505791664124,
                0.4889983832836151,
                40.0
            ],
            [
                -0.18124619126319885,
                1.0497897863388062,
                45.0
            ],
            [
                -0.6709021329879761,
                1.6105812788009644,
                50.0
            ],
            [
                -1.16057288646698,
                2.171372890472412,
                55.0
            ],
            [
                -1.6502588987350464,
                2.7321646213531494,
                60.0
            ],
            [
                -2.1399600505828857,
                3.292956590652466,
                65.0
            ],
            [
                -2.6296770572662354,
                3.8537487983703613,
                70.0
            ],
            [
                -3.119492292404175,
                4.414526462554932,
                75.0
            ],
            [
                -3.6092402935028076,
                4.9753193855285645,
                80.0
            ],
            [
                -4.099003314971924,
                5.536111831665039,
                85.0
            ],
            [
                -4.588781833648682,
                6.096904754638672,
                90.0
            ],
            [
                -5.07857608795166,
                6.657697677612305,
                95.0
            ],
            [
                -5.568386554718018,
                7.2184906005859375,
                100.0
            ],
            [
                -7.527790069580078,
                9.461665153503418,
                120.0
            ],
            [
                -9.487468719482422,
                11.704842567443848,
                140.0
            ],
            [
                -11.447439193725586,
                13.948022842407227,
                160.0
            ],
            [
                -13.407720565795898,
                16.191207885742188,
                180.0
            ],
            [
                -15.368330001831055,
                18.43439483642578,
                200.0
            ],
            [
                -17.329118728637695,
                20.67758560180664,
                220.0
            ],
            [
                -19.29033088684082,
                22.920780181884766,
                240.0
            ],
            [
                -21.25188636779785,
                25.16398048400879,
                260.0
            ],
            [
                -23.213804244995117,
                27.407184600830078,
                280.0
            ],
            [
                -25.17609214782715,
                29.650392532348633,
                300.0
            ],
            [
                -27.138763427734375,
                31.893606185913086,
                320.0
            ],
            [
                -29.10183334350586,
                34.13682556152344,
                340.0
            ],
            [
                -31.065309524536133,
                36.38005065917969,
                360.0
            ],
            [
                -33.029205322265625,
                38.6232795715332,
                380.0
            ],
            [
                -34.99353790283203,
                40.86651611328125,
                400.0
            ],
            [
                -36.958335876464844,
                43.10976028442383,
                420.0
            ],
            [
                -38.92362594604492,
                45.35301208496094,
                440.0
            ],
            [
                -40.889408111572266,
                47.59626770019531,
                460.0
            ],
            [
                -42.855690002441406,
                49.839534759521484,
                480.0
            ],
            [
                -44.822486877441406,
                52.08280944824219,
                500.0
            ],
            [
                -46.789825439453125,
                54.32609176635742,
                520.0
            ],
            [
                -48.75770568847656,
                56.56938552856445,
                540.0
            ],
            [
                -50.72614669799805,
                58.812686920166016,
                560.0
            ],
            [
                -52.69515609741211,
                61.05599594116211,
                580.0
            ],
            [
                -54.664794921875,
                63.299320220947266,
                600.0
            ],
            [
                -56.63517379760742,
                65.54264068603516,
                620.0
            ],
            [
                -58.60619354248047,
                67.78598022460938,
                640.0
            ],
            [
                -60.57787322998047,
                70.0293197631836,
                660.0
            ],
            [
                -62.55022430419922,
                72.27267456054688,
                680.0
            ],
            [
                -64.52326202392578,
                74.51602935791016,
                700.0
            ],
            [
                -66.49699401855469,
                76.7593994140625,
                720.0
            ],
            [
                -68.47145080566406,
                79.00276947021484,
                740.0
            ],
            [
                -70.44670104980469,
                81.24614715576172,
                760.0
            ],
            [
                -72.42292785644531,
                83.48954772949219,
                780.0
            ],
            [
                -74.39995574951172,
                85.73294830322266,
                800.0
            ],
            [
                -76.37776947021484,
                87.97636413574219,
                820.0
            ],
            [
                -78.3564224243164,
                90.21978759765625,
                840.0
            ],
            [
                -80.33592224121094,
                92.46321868896484,
                860.0
            ],
            [
                -82.3162841796875,
                94.70665740966797,
                880.0
            ],
            [
                -84.29753112792969,
                96.95010375976563,
                900.0
            ],
            [
                -86.279541015625,
                99.19357299804688,
                920.0
            ],
            [
                -88.26264953613281,
                101.43700408935547,
                940.0
            ],
            [
                -90.24681091308594,
                103.68040466308594,
                960.0
            ],
            [
                -92.23194122314453,
                105.9238052368164,
                980.0
            ],
            [
                -94.21805572509766,
                108.16720581054688,
                1000.0
            ],
            [
                -104.16241455078125,
                119.38419342041016,
                1100.0
            ],
            [
                -114.14435577392578,
                130.60020446777344,
                1200.0
            ],
            [
                -124.14655303955078,
                141.81588745117188,
                1300.0
            ],
            [
                -134.1749267578125,
                153.0311279296875,
                1400.0
            ],
            [
                -144.23129272460938,
                164.24594116210938,
                1500.0
            ],
            [
                -154.30874633789063,
                175.46060180664063,
                1600.0
            ],
            [
                -164.4138641357422,
                186.67568969726563,
                1700.0
            ],
            [
                -174.54672241210938,
                197.8911590576172,
                1800.0
            ],
            [
                -184.71148681640625,
                209.10743713378906,
                1900.0
            ],
            [
                -194.90682983398438,
                220.32577514648438,
                2000.0
            ],
            [
                -205.14808654785156,
                231.5460968017578,
                2100.0
            ],
            [
                -215.45176696777344,
                242.7698516845703,
                2200.0
            ],
            [
                -225.786865234375,
                253.99790954589844,
                2300.0
            ],
            [
                -236.19818115234375,
                265.2312927246094,
                2400.0
            ],
            [
                -246.68479919433594,
                276.47296142578125,
                2500.0
            ],
            [
                -257.2830810546875,
                287.7240295410156,
                2600.0
            ],
            [
                -267.9953308105469,
                298.9857482910156,
                2700.0
            ],
            [
                -278.8587951660156,
                310.260498046875,
                2800.0
            ],
            [
                -289.8922119140625,
                321.5525817871094,
                2900.0
            ],
            [
                -301.1361083984375,
                332.86407470703125,
                3000.0
            ],
            [
                -312.61669921875,
                344.19573974609375,
                3100.0
            ],
            [
                -324.4303283691406,
                355.5530700683594,
                3200.0
            ],
            [
                -336.5165710449219,
                366.93939208984375,
                3300.0
            ],
            [
                -348.9928283691406,
                378.356201171875,
                3400.0
            ],
            [
                -361.9041748046875,
                389.8070373535156,
                3500.0
            ],
            [
                -375.2694396972656,
                401.2981872558594,
                3600.0
            ],
            [
                -389.1734924316406,
                412.8262634277344,
                3700.0
            ],
            [
                -403.6636657714844,
                424.39581298828125,
                3800.0
            ],
            [
                -418.7930603027344,
                436.0121765136719,
                3900.0
            ],
            [
                -434.64532470703125,
                447.6689758300781,
                4000.0
            ],
            [
                -451.1807556152344,
                459.36688232421875,
                4100.0
            ],
            [
                -468.6030578613281,
                471.10565185546875,
                4200.0
            ],
            [
                -486.8042907714844,
                482.87615966796875,
                4300.0
            ],
            [
                -505.8230285644531,
                494.68365478515625,
                4400.0
            ],
            [
                -525.7091064453125,
                506.5282287597656,
                4500.0
            ],
            [
                -546.4624633789063,
                518.3860473632813,
                4600.0
            ],
            [
                -568.0866088867188,
                530.2661743164063,
                4700.0
            ],
            [
                -589.971923828125,
                545.1791381835938,
                4800.0
            ],
            [
                -613.4906005859375,
                557.1925659179688,
                4900.0
            ],
            [
                -637.85595703125,
                569.2090454101563,
                5000.0
            ],
            [
                -663.1627197265625,
                581.2425537109375,
                5100.0
            ],
            [
                -689.3262329101563,
                593.2666015625,
                5200.0
            ],
            [
                -716.3516235351563,
                605.3153076171875,
                5300.0
            ],
            [
                -744.2389526367188,
                617.3501586914063,
                5400.0
            ],
            [
                -772.9561157226563,
                629.3975219726563,
                5500.0
            ],
            [
                -802.5243530273438,
                641.44189453125,
                5600.0
            ],
            [
                -832.9313354492188,
                653.4695434570313,
                5700.0
            ],
            [
                -864.1857299804688,
                665.5015869140625,
                5800.0
            ],
            [
                -896.203125,
                677.5161743164063,
                5900.0
            ],
            [
                -929.0819091796875,
                689.509033203125,
                6000.0
            ],
            [
                -962.7144165039063,
                701.4859619140625,
                6100.0
            ],
            [
                -997.1119384765625,
                713.4329223632813,
                6200.0
            ],
            [
                -1032.265380859375,
                725.3526000976563,
                6300.0
            ],
            [
                -1068.1453857421875,
                737.2448120117188,
                6400.0
            ],
            [
                -1104.7298583984375,
                749.0977783203125,
                6500.0
            ],
            [
                -1142.0078125,
                760.9010620117188,
                6600.0
            ],
            [
                -1179.9471435546875,
                772.6596069335938,
                6700.0
            ],
            [
                -1218.4930419921875,
                784.3678588867188,
                6800.0
            ],
            [
                -1257.6605224609375,
                796.006591796875,
                6900.0
            ],
            [
                -1297.3741455078125,
                807.5865478515625,
                7000.0
            ],
            [
                -1337.6031494140625,
                819.1024780273438,
                7100.0
            ],
            [
                -1378.309814453125,
                830.5563354492188,
                7200.0
            ],
            [
                -1419.4547119140625,
                841.9484252929688,
                7300.0
            ],
            [
                -1461.0242919921875,
                853.2711181640625,
                7400.0
            ],
            [
                -1502.942138671875,
                864.5396728515625,
                7500.0
            ],
            [
                -1545.2093505859375,
                875.7462768554688,
                7600.0
            ],
            [
                -1587.7718505859375,
                886.902099609375,
                7700.0
            ],
            [
                -1630.61279296875,
                898.0076293945313,
                7800.0
            ],
            [
                -1673.697265625,
                909.0698852539063,
                7900.0
            ],
            [
                -1716.997802734375,
                920.0942993164063,
                8000.0
            ],
            [
                -1760.4981689453125,
                931.08349609375,
                8100.0
            ],
            [
                -1804.1683349609375,
                942.0447387695313,
                8200.0
            ],
            [
                -1847.9920654296875,
                952.9818115234375,
                8300.0
            ],
            [
                -1891.9542236328125,
                963.8981323242188,
                8400.0
            ],
            [
                -1936.0396728515625,
                974.7979736328125,
                8500.0
            ],
            [
                -1980.2301025390625,
                985.6846923828125,
                8600.0
            ],
            [
                -2024.5177001953125,
                996.5610961914063,
                8700.0
            ],
            [
                -2068.890869140625,
                1007.4293212890625,
                8800.0
            ],
            [
                -2113.33984375,
                1018.29248046875,
                8900.0
            ],
            [
                -2157.85693359375,
                1029.1519775390625,
                9000.0
            ],
            [
                -2202.434326171875,
                1040.009521484375,
                9100.0
            ],
            [
                -2247.0654296875,
                1050.8662109375,
                9200.0
            ],
            [
                -2291.744384765625,
                1061.7230224609375,
                9300.0
            ],
            [
                -2336.465576171875,
                1072.5806884765625,
                9400.0
            ],
            [
                -2381.224853515625,
                1083.439697265625,
                9500.0
            ],
            [
                -2426.01806640625,
                1094.30029296875,
                9600.0
            ],
            [
                -2470.84130859375,
                1105.1627197265625,
                9700.0
            ],
            [
                -2515.69189453125,
                1116.0272216796875,
                9800.0
            ],
            [
                -2560.56640625,
                1126.893798828125,
                9900.0
            ],
            [
                -2605.462646484375,
                1137.7625732421875,
                10000.0
            ],
            [
                -2695.311767578125,
                1159.50634765625,
                10200.0
            ],
            [
                -2785.22314453125,
                1181.258544921875,
                10400.0
            ],
            [
                -2875.18359375,
                1203.0186767578125,
                10600.0
            ],
            [
                -2965.183349609375,
                1224.787353515625,
                10800.0
            ],
            [
                -3055.212158203125,
                1246.5634765625,
                11000.0
            ],
            [
                -3145.2646484375,
                1268.3470458984375,
                11200.0
            ],
            [
                -3235.3349609375,
                1290.1380615234375,
                11400.0
            ],
            [
                -3325.419189453125,
                1311.9344482421875,
                11600.0
            ],
            [
                -3415.5126953125,
                1333.73681640625,
                11800.0
            ],
            [
                -3505.61328125,
                1355.54443359375,
                12000.0
            ],
            [
                -3595.719482421875,
                1377.35791015625,
                12200.0
            ],
            [
                -3685.82958984375,
                1399.1746826171875,
                12400.0
            ],
            [
                -3775.9423828125,
                1420.9932861328125,
                12600.0
            ],
            [
                -3866.05517578125,
                1442.8160400390625,
                12800.0
            ],
            [
                -3956.170166015625,
                1464.6422119140625,
                13000.0
            ],
            [
                -4046.28466796875,
                1486.470947265625,
                13200.0
            ],
            [
                -4136.40087890625,
                1508.2996826171875,
                13400.0
            ]
        ],
        "zFirstMeasurement": 109.4064
    }
]
