[
    {
        "E": 79443.32405107946,
        "chi2": 0.0,
        "ip": 0.04313277772597086,
        "ipchi2": 4.913757309746643,
        "mass": 1826.955,
        "particleId": "D0",
        "pvx": 0.5753,
        "pvy": 0.0709,
        "pvz": 28.466,
        "px": -2548.01,
        "py": -741.28,
        "pz": 79377.97,
        "q": 0.0,
        "trajectory": [
            [
                0.5752999782562256,
                0.07090000063180923,
                28.465999603271484
            ],
            [
                0.5105000138282776,
                0.009999999776482582,
                30.381799697875977
            ]
        ],
        "zFirstMeasurement": -9999.0
    },
    {
        "E": 32442.18696555547,
        "chi2": 0.46475863456726074,
        "ip": 0.008736368975920977,
        "ipchi2": 0.09731422805184366,
        "mass": 493.677,
        "particleId": "K-",
        "pvx": 0.5753,
        "pvy": 0.0709,
        "pvz": 28.466,
        "px": -943.47,
        "py": -1105.68,
        "pz": 32405.85,
        "q": -1.0,
        "trajectory": [
            [
                0.5120785236358643,
                0.010104131884872913,
                30.381799697875977
            ],
            [
                0.36650949716567993,
                -0.1604941338300705,
                35.38180160522461
            ],
            [
                0.22093871235847473,
                -0.33109238743782043,
                40.38180160522461
            ],
            [
                0.07536619901657104,
                -0.5016906261444092,
                45.38180160522461
            ],
            [
                -0.07020808756351471,
                -0.6722888350486755,
                50.38180160522461
            ],
            [
                -0.21578417718410492,
                -0.8428870439529419,
                55.38180160522461
            ],
            [
                -0.361362099647522,
                -1.0134851932525635,
                60.38180160522461
            ],
            [
                -0.5069418549537659,
                -1.1840834617614746,
                65.38179779052734
            ],
            [
                -0.6525235176086426,
                -1.3546816110610962,
                70.38179779052734
            ],
            [
                -0.7981070876121521,
                -1.5252797603607178,
                75.38179779052734
            ],
            [
                -0.9436925649642944,
                -1.6958779096603394,
                80.38179779052734
            ],
            [
                -1.0892800092697144,
                -1.866476058959961,
                85.38179779052734
            ],
            [
                -1.2348694801330566,
                -2.037074089050293,
                90.38179779052734
            ],
            [
                -1.3804609775543213,
                -2.207672357559204,
                95.38179779052734
            ],
            [
                -1.5260545015335083,
                -2.378270387649536,
                100.38179779052734
            ],
            [
                -2.108449697494507,
                -3.0606625080108643,
                120.38179779052734
            ],
            [
                -2.6907737255096436,
                -3.742987632751465,
                140.38180541992188
            ],
            [
                -3.27323842048645,
                -4.425379753112793,
                160.38180541992188
            ],
            [
                -3.85573673248291,
                -5.107771396636963,
                180.38180541992188
            ],
            [
                -4.438270568847656,
                -5.790163040161133,
                200.38180541992188
            ],
            [
                -5.0208420753479,
                -6.472554683685303,
                220.38180541992188
            ],
            [
                -5.603453636169434,
                -7.1549458503723145,
                240.38180541992188
            ],
            [
                -6.186108112335205,
                -7.837337493896484,
                260.3818054199219
            ],
            [
                -6.768807411193848,
                -8.519728660583496,
                280.3818054199219
            ],
            [
                -7.351553916931152,
                -9.202119827270508,
                300.3818054199219
            ],
            [
                -7.934350967407227,
                -9.88451099395752,
                320.3818054199219
            ],
            [
                -8.517176628112793,
                -10.566901206970215,
                340.3818054199219
            ],
            [
                -9.100066184997559,
                -11.249292373657227,
                360.3818054199219
            ],
            [
                -9.683008193969727,
                -11.931683540344238,
                380.3818054199219
            ],
            [
                -10.26600456237793,
                -12.61407470703125,
                400.3818054199219
            ],
            [
                -10.8490571975708,
                -13.296465873718262,
                420.3818054199219
            ],
            [
                -11.432167053222656,
                -13.978856086730957,
                440.3818054199219
            ],
            [
                -12.015336990356445,
                -14.661247253417969,
                460.3818054199219
            ],
            [
                -12.5985689163208,
                -15.34363842010498,
                480.3818054199219
            ],
            [
                -13.181865692138672,
                -16.026029586791992,
                500.3818054199219
            ],
            [
                -13.765230178833008,
                -16.70842170715332,
                520.3817749023438
            ],
            [
                -14.34866714477539,
                -17.39081382751465,
                540.3817749023438
            ],
            [
                -14.932175636291504,
                -18.073204040527344,
                560.3817749023438
            ],
            [
                -15.515756607055664,
                -18.755596160888672,
                580.3817749023438
            ],
            [
                -16.09941291809082,
                -19.43798828125,
                600.3817749023438
            ],
            [
                -16.683149337768555,
                -20.120380401611328,
                620.3817749023438
            ],
            [
                -17.266963958740234,
                -20.80277442932129,
                640.3817749023438
            ],
            [
                -17.850860595703125,
                -21.485166549682617,
                660.3817749023438
            ],
            [
                -18.434839248657227,
                -22.167560577392578,
                680.3817749023438
            ],
            [
                -19.018918991088867,
                -22.84995460510254,
                700.3817749023438
            ],
            [
                -19.603086471557617,
                -23.5323486328125,
                720.3817749023438
            ],
            [
                -20.187345504760742,
                -24.214740753173828,
                740.3817749023438
            ],
            [
                -20.771697998046875,
                -24.89713478088379,
                760.3817749023438
            ],
            [
                -21.35614776611328,
                -25.579530715942383,
                780.3817749023438
            ],
            [
                -21.940696716308594,
                -26.261924743652344,
                800.3817749023438
            ],
            [
                -22.52536964416504,
                -26.944318771362305,
                820.3817749023438
            ],
            [
                -23.110145568847656,
                -27.6267147064209,
                840.3817749023438
            ],
            [
                -23.695043563842773,
                -28.309110641479492,
                860.3817749023438
            ],
            [
                -24.280059814453125,
                -28.99151039123535,
                880.3817749023438
            ],
            [
                -24.865190505981445,
                -29.673908233642578,
                900.3817749023438
            ],
            [
                -25.450428009033203,
                -30.356307983398438,
                920.3817749023438
            ],
            [
                -26.035783767700195,
                -31.038707733154297,
                940.3817749023438
            ],
            [
                -26.621261596679688,
                -31.72110939025879,
                960.3817749023438
            ],
            [
                -27.206863403320313,
                -32.40351104736328,
                980.3817749023438
            ],
            [
                -27.79258918762207,
                -33.085914611816406,
                1000.3817749023438
            ],
            [
                -30.72289276123047,
                -36.4979133605957,
                1100.3818359375
            ],
            [
                -33.6566162109375,
                -39.909915924072266,
                1200.3818359375
            ],
            [
                -36.5943489074707,
                -43.32194519042969,
                1300.3818359375
            ],
            [
                -39.534828186035156,
                -46.73395538330078,
                1400.3818359375
            ],
            [
                -42.478363037109375,
                -50.14597702026367,
                1500.3818359375
            ],
            [
                -45.4254150390625,
                -53.558013916015625,
                1600.3818359375
            ],
            [
                -48.37600326538086,
                -56.97006607055664,
                1700.3818359375
            ],
            [
                -51.33027267456055,
                -60.38214111328125,
                1800.3818359375
            ],
            [
                -54.2884635925293,
                -63.794212341308594,
                1900.3818359375
            ],
            [
                -57.25205612182617,
                -67.2063217163086,
                2000.3818359375
            ],
            [
                -60.22067642211914,
                -70.61846923828125,
                2100.3818359375
            ],
            [
                -63.1959342956543,
                -74.0306625366211,
                2200.3818359375
            ],
            [
                -66.1812973022461,
                -77.44300079345703,
                2300.3818359375
            ],
            [
                -69.17487335205078,
                -80.85540771484375,
                2400.3818359375
            ],
            [
                -72.18225860595703,
                -84.26793670654297,
                2500.3818359375
            ],
            [
                -75.20281982421875,
                -87.68061065673828,
                2600.3818359375
            ],
            [
                -78.24056243896484,
                -91.09345245361328,
                2700.3818359375
            ],
            [
                -81.29851531982422,
                -94.50648498535156,
                2800.3818359375
            ],
            [
                -84.38162231445313,
                -97.91976928710938,
                2900.3818359375
            ],
            [
                -87.49406433105469,
                -101.33336639404297,
                3000.3818359375
            ],
            [
                -90.63811492919922,
                -104.74723052978516,
                3100.3818359375
            ],
            [
                -93.81800079345703,
                -108.16128540039063,
                3200.3818359375
            ],
            [
                -97.04923248291016,
                -111.57565307617188,
                3300.3818359375
            ],
            [
                -100.32406616210938,
                -114.99032592773438,
                3400.3818359375
            ],
            [
                -103.65445709228516,
                -118.40538024902344,
                3500.3818359375
            ],
            [
                -107.041748046875,
                -121.82086944580078,
                3600.3818359375
            ],
            [
                -110.49590301513672,
                -125.23682403564453,
                3700.3818359375
            ],
            [
                -114.01730346679688,
                -128.65304565429688,
                3800.3818359375
            ],
            [
                -117.61825561523438,
                -132.06982421875,
                3900.3818359375
            ],
            [
                -121.29278564453125,
                -135.48724365234375,
                4000.3818359375
            ],
            [
                -125.05906677246094,
                -138.9051971435547,
                4100.3818359375
            ],
            [
                -128.9098663330078,
                -142.32363891601563,
                4200.3818359375
            ],
            [
                -132.86099243164063,
                -145.7421875,
                4300.3818359375
            ],
            [
                -136.8972625732422,
                -149.16156005859375,
                4400.3818359375
            ],
            [
                -141.03016662597656,
                -152.5814971923828,
                4500.3818359375
            ],
            [
                -145.2633819580078,
                -156.001708984375,
                4600.3818359375
            ],
            [
                -149.58644104003906,
                -159.4221954345703,
                4700.3818359375
            ],
            [
                -154.01316833496094,
                -162.8431854248047,
                4800.3818359375
            ],
            [
                -158.52352905273438,
                -166.3300323486328,
                4900.3818359375
            ],
            [
                -163.14012145996094,
                -169.77125549316406,
                5000.3818359375
            ],
            [
                -167.85592651367188,
                -173.21292114257813,
                5100.3818359375
            ],
            [
                -172.6650390625,
                -176.6548614501953,
                5200.3818359375
            ],
            [
                -177.56884765625,
                -180.09750366210938,
                5300.3818359375
            ],
            [
                -182.5648956298828,
                -183.53994750976563,
                5400.3818359375
            ],
            [
                -187.65283203125,
                -186.98202514648438,
                5500.3818359375
            ],
            [
                -192.82769775390625,
                -190.4251251220703,
                5600.3818359375
            ],
            [
                -198.09251403808594,
                -193.86810302734375,
                5700.3818359375
            ],
            [
                -203.44371032714844,
                -197.31149291992188,
                5800.3818359375
            ],
            [
                -208.87628173828125,
                -200.7549591064453,
                5900.3818359375
            ],
            [
                -214.3929443359375,
                -204.19859313964844,
                6000.3818359375
            ],
            [
                -219.98739624023438,
                -207.6425018310547,
                6100.3818359375
            ],
            [
                -225.65858459472656,
                -211.08641052246094,
                6200.3818359375
            ],
            [
                -231.404296875,
                -214.53021240234375,
                6300.3818359375
            ],
            [
                -237.22119140625,
                -217.9739990234375,
                6400.3818359375
            ],
            [
                -243.10739135742188,
                -221.41766357421875,
                6500.3818359375
            ],
            [
                -249.05886840820313,
                -224.86129760742188,
                6600.3818359375
            ],
            [
                -255.07403564453125,
                -228.30487060546875,
                6700.3818359375
            ],
            [
                -261.1481018066406,
                -231.7483673095703,
                6800.3818359375
            ],
            [
                -267.2801513671875,
                -235.19161987304688,
                6900.3818359375
            ],
            [
                -273.4659118652344,
                -238.6346435546875,
                7000.3818359375
            ],
            [
                -279.70208740234375,
                -242.0775146484375,
                7100.3818359375
            ],
            [
                -285.9855651855469,
                -245.5202178955078,
                7200.3818359375
            ],
            [
                -292.31378173828125,
                -248.96275329589844,
                7300.3818359375
            ],
            [
                -298.68450927734375,
                -252.40505981445313,
                7400.3818359375
            ],
            [
                -305.09271240234375,
                -255.84727478027344,
                7500.3818359375
            ],
            [
                -311.5375671386719,
                -259.2892761230469,
                7600.3818359375
            ],
            [
                -318.0153503417969,
                -262.7311706542969,
                7700.3818359375
            ],
            [
                -324.5245666503906,
                -266.1729736328125,
                7800.3818359375
            ],
            [
                -331.06256103515625,
                -269.6146240234375,
                7900.3818359375
            ],
            [
                -337.6267395019531,
                -273.0562438964844,
                8000.3818359375
            ],
            [
                -344.2157287597656,
                -276.4977722167969,
                8100.3818359375
            ],
            [
                -350.82666015625,
                -279.93927001953125,
                8200.3818359375
            ],
            [
                -357.4581604003906,
                -283.3807067871094,
                8300.3818359375
            ],
            [
                -364.1086730957031,
                -286.8221130371094,
                8400.3818359375
            ],
            [
                -370.776611328125,
                -290.2635192871094,
                8500.3818359375
            ],
            [
                -377.46002197265625,
                -293.70489501953125,
                8600.3818359375
            ],
            [
                -384.1580505371094,
                -297.146240234375,
                8700.3818359375
            ],
            [
                -390.86932373046875,
                -300.58758544921875,
                8800.3818359375
            ],
            [
                -397.5926513671875,
                -304.0289306640625,
                8900.3818359375
            ],
            [
                -404.3271484375,
                -307.47027587890625,
                9000.3818359375
            ],
            [
                -411.07177734375,
                -310.9116516113281,
                9100.3818359375
            ],
            [
                -417.8255920410156,
                -314.3530578613281,
                9200.3818359375
            ],
            [
                -424.587890625,
                -317.7944641113281,
                9300.3818359375
            ],
            [
                -431.35784912109375,
                -321.23590087890625,
                9400.3818359375
            ],
            [
                -438.134765625,
                -324.6773681640625,
                9500.3818359375
            ],
            [
                -444.9180908203125,
                -328.118896484375,
                9600.3818359375
            ],
            [
                -451.7072448730469,
                -331.5604248046875,
                9700.3818359375
            ],
            [
                -458.5016784667969,
                -335.0019836425781,
                9800.3818359375
            ],
            [
                -465.3009033203125,
                -338.443603515625,
                9900.3818359375
            ],
            [
                -472.1045227050781,
                -341.8852233886719,
                10000.3818359375
            ],
            [
                -485.7234191894531,
                -348.76861572265625,
                10200.3818359375
            ],
            [
                -499.3556823730469,
                -355.652099609375,
                10400.3818359375
            ],
            [
                -512.9988403320313,
                -362.5357360839844,
                10600.3818359375
            ],
            [
                -526.6513671875,
                -369.41949462890625,
                10800.3818359375
            ],
            [
                -540.3112182617188,
                -376.3033447265625,
                11000.3818359375
            ],
            [
                -553.9774169921875,
                -383.18731689453125,
                11200.3818359375
            ],
            [
                -567.6489868164063,
                -390.07135009765625,
                11400.3818359375
            ],
            [
                -581.3245239257813,
                -396.9554443359375,
                11600.3818359375
            ],
            [
                -595.0036010742188,
                -403.8396301269531,
                11800.3818359375
            ],
            [
                -608.6853637695313,
                -410.723876953125,
                12000.3818359375
            ],
            [
                -622.369873046875,
                -417.6081848144531,
                12200.3818359375
            ],
            [
                -636.0562133789063,
                -424.4925231933594,
                12400.3818359375
            ],
            [
                -649.7435913085938,
                -431.37689208984375,
                12600.3818359375
            ],
            [
                -663.43212890625,
                -438.2613220214844,
                12800.3818359375
            ],
            [
                -677.1218872070313,
                -445.145751953125,
                13000.3818359375
            ],
            [
                -690.8126220703125,
                -452.03021240234375,
                13200.3818359375
            ],
            [
                -704.5037231445313,
                -458.9146728515625,
                13400.3818359375
            ]
        ],
        "zFirstMeasurement": 229.2578
    },
    {
        "E": 47000.84019188484,
        "chi2": 0.7035145163536072,
        "ip": 0.07604502220142952,
        "ipchi2": 10.888188803826107,
        "mass": 139.57,
        "particleId": "pi+",
        "pvx": 0.5753,
        "pvy": 0.0709,
        "pvz": 28.466,
        "px": -1604.63,
        "py": 364.4,
        "pz": 46971.82,
        "q": 1.0,
        "trajectory": [
            [
                0.5094813108444214,
                0.009716060012578964,
                30.381799697875977
            ],
            [
                0.3386712372303009,
                0.04850498214364052,
                35.38180160522461
            ],
            [
                0.16786237061023712,
                0.08729389309883118,
                40.38180160522461
            ],
            [
                -0.0029452957678586245,
                0.12608279287815094,
                45.38180160522461
            ],
            [
                -0.17375174164772034,
                0.1648716926574707,
                50.38180160522461
            ],
            [
                -0.3445569574832916,
                0.20366057753562927,
                55.38180160522461
            ],
            [
                -0.5153608918190002,
                0.24244944751262665,
                60.38180160522461
            ],
            [
                -0.6861635446548462,
                0.281238317489624,
                65.38179779052734
            ],
            [
                -0.8569649457931519,
                0.3200271725654602,
                70.38179779052734
            ],
            [
                -1.0277650356292725,
                0.358815997838974,
                75.38179779052734
            ],
            [
                -1.1985636949539185,
                0.3976048529148102,
                80.38179779052734
            ],
            [
                -1.3693610429763794,
                0.436393678188324,
                85.38179779052734
            ],
            [
                -1.5401570796966553,
                0.4751824736595154,
                90.38179779052734
            ],
            [
                -1.7109516859054565,
                0.5139712691307068,
                95.38179779052734
            ],
            [
                -1.8817448616027832,
                0.5527600646018982,
                100.38179779052734
            ],
            [
                -2.5649030208587646,
                0.707915186882019,
                120.38179779052734
            ],
            [
                -3.248037099838257,
                0.8630700707435608,
                140.38180541992188
            ],
            [
                -3.9311580657958984,
                1.018224835395813,
                160.38180541992188
            ],
            [
                -4.61428689956665,
                1.1733723878860474,
                180.38180541992188
            ],
            [
                -5.29735803604126,
                1.3285267353057861,
                200.38180541992188
            ],
            [
                -5.980389595031738,
                1.483681082725525,
                220.38180541992188
            ],
            [
                -6.663394927978516,
                1.6388351917266846,
                240.38180541992188
            ],
            [
                -7.346372127532959,
                1.7939891815185547,
                260.3818054199219
            ],
            [
                -8.029319763183594,
                1.9491430521011353,
                280.3818054199219
            ],
            [
                -8.712236404418945,
                2.104296922683716,
                300.3818054199219
            ],
            [
                -9.395120620727539,
                2.259450674057007,
                320.3818054199219
            ],
            [
                -10.077969551086426,
                2.4146041870117188,
                340.3818054199219
            ],
            [
                -10.760781288146973,
                2.5697576999664307,
                360.3818054199219
            ],
            [
                -11.443554878234863,
                2.7249112129211426,
                380.3818054199219
            ],
            [
                -12.12630558013916,
                2.8800644874572754,
                400.3818054199219
            ],
            [
                -12.80900764465332,
                3.0352180004119873,
                420.3818054199219
            ],
            [
                -13.491669654846191,
                3.19037127494812,
                440.3818054199219
            ],
            [
                -14.174290657043457,
                3.345524549484253,
                460.3818054199219
            ],
            [
                -14.856867790222168,
                3.5006778240203857,
                480.3818054199219
            ],
            [
                -15.539399147033691,
                3.6558308601379395,
                500.3818054199219
            ],
            [
                -16.221885681152344,
                3.8109841346740723,
                520.3817749023438
            ],
            [
                -16.904321670532227,
                3.966137409210205,
                540.3817749023438
            ],
            [
                -17.586711883544922,
                4.121290683746338,
                560.3817749023438
            ],
            [
                -18.2690486907959,
                4.2764434814453125,
                580.3817749023438
            ],
            [
                -18.951335906982422,
                4.431596755981445,
                600.3817749023438
            ],
            [
                -19.633569717407227,
                4.586750030517578,
                620.3817749023438
            ],
            [
                -20.315746307373047,
                4.741903305053711,
                640.3817749023438
            ],
            [
                -20.997861862182617,
                4.897056579589844,
                660.3817749023438
            ],
            [
                -21.679912567138672,
                5.052209854125977,
                680.3817749023438
            ],
            [
                -22.361900329589844,
                5.207363128662109,
                700.3817749023438
            ],
            [
                -23.043825149536133,
                5.362516403198242,
                720.3817749023438
            ],
            [
                -23.725685119628906,
                5.517669677734375,
                740.3817749023438
            ],
            [
                -24.40747833251953,
                5.672822952270508,
                760.3817749023438
            ],
            [
                -25.089204788208008,
                5.827976226806641,
                780.3817749023438
            ],
            [
                -25.77086067199707,
                5.983129501342773,
                800.3817749023438
            ],
            [
                -26.45244026184082,
                6.138283729553223,
                820.3817749023438
            ],
            [
                -27.133943557739258,
                6.29343843460083,
                840.3817749023438
            ],
            [
                -27.815370559692383,
                6.448593616485596,
                860.3817749023438
            ],
            [
                -28.496719360351563,
                6.6037492752075195,
                880.3817749023438
            ],
            [
                -29.177989959716797,
                6.758904933929443,
                900.3817749023438
            ],
            [
                -29.85918617248535,
                6.914061069488525,
                920.3817749023438
            ],
            [
                -30.540300369262695,
                7.069217205047607,
                940.3817749023438
            ],
            [
                -31.221330642700195,
                7.224373817443848,
                960.3817749023438
            ],
            [
                -31.902280807495117,
                7.379530429840088,
                980.3817749023438
            ],
            [
                -32.5831413269043,
                7.534686088562012,
                1000.3817749023438
            ],
            [
                -35.98612594604492,
                8.310464859008789,
                1100.3818359375
            ],
            [
                -39.3868293762207,
                9.086246490478516,
                1200.3818359375
            ],
            [
                -42.78500747680664,
                9.862062454223633,
                1300.3818359375
            ],
            [
                -46.18107604980469,
                10.637870788574219,
                1400.3818359375
            ],
            [
                -49.57503128051758,
                11.413687705993652,
                1500.3818359375
            ],
            [
                -52.96664810180664,
                12.189509391784668,
                1600.3818359375
            ],
            [
                -56.35566329956055,
                12.965332984924316,
                1700.3818359375
            ],
            [
                -59.74242401123047,
                13.7411470413208,
                1800.3818359375
            ],
            [
                -63.1257438659668,
                14.51696491241455,
                1900.3818359375
            ],
            [
                -66.5061264038086,
                15.292778015136719,
                2000.3818359375
            ],
            [
                -69.88230895996094,
                16.068588256835938,
                2100.3818359375
            ],
            [
                -73.25403594970703,
                16.844392776489258,
                2200.3818359375
            ],
            [
                -76.61910247802734,
                17.620302200317383,
                2300.3818359375
            ],
            [
                -79.9780044555664,
                18.396135330200195,
                2400.3818359375
            ],
            [
                -83.32821655273438,
                19.171958923339844,
                2500.3818359375
            ],
            [
                -86.66808319091797,
                19.947786331176758,
                2600.3818359375
            ],
            [
                -89.99603271484375,
                20.723621368408203,
                2700.3818359375
            ],
            [
                -93.30995178222656,
                21.499452590942383,
                2800.3818359375
            ],
            [
                -96.60694122314453,
                22.275279998779297,
                2900.3818359375
            ],
            [
                -99.88340759277344,
                23.051109313964844,
                3000.3818359375
            ],
            [
                -103.1374740600586,
                23.82692527770996,
                3100.3818359375
            ],
            [
                -106.36565399169922,
                24.602689743041992,
                3200.3818359375
            ],
            [
                -109.56153106689453,
                25.378501892089844,
                3300.3818359375
            ],
            [
                -112.72380065917969,
                26.154207229614258,
                3400.3818359375
            ],
            [
                -115.84925079345703,
                26.929880142211914,
                3500.3818359375
            ],
            [
                -118.93468475341797,
                27.705486297607422,
                3600.3818359375
            ],
            [
                -121.97550201416016,
                28.48113441467285,
                3700.3818359375
            ],
            [
                -124.9665756225586,
                29.256725311279297,
                3800.3818359375
            ],
            [
                -127.90653228759766,
                30.0322208404541,
                3900.3818359375
            ],
            [
                -130.792236328125,
                30.807851791381836,
                4000.3818359375
            ],
            [
                -133.61912536621094,
                31.583532333374023,
                4100.3818359375
            ],
            [
                -136.38116455078125,
                32.359310150146484,
                4200.3818359375
            ],
            [
                -139.08291625976563,
                33.13511657714844,
                4300.3818359375
            ],
            [
                -141.7229766845703,
                33.91092300415039,
                4400.3818359375
            ],
            [
                -144.29603576660156,
                34.68701934814453,
                4500.3818359375
            ],
            [
                -146.802734375,
                35.46314239501953,
                4600.3818359375
            ],
            [
                -149.241943359375,
                36.2393913269043,
                4700.3818359375
            ],
            [
                -151.6185760498047,
                37.015541076660156,
                4800.3818359375
            ],
            [
                -153.96963500976563,
                37.88236999511719,
                4900.3818359375
            ],
            [
                -156.2099609375,
                38.66246032714844,
                5000.3818359375
            ],
            [
                -158.3830108642578,
                39.44289016723633,
                5100.3818359375
            ],
            [
                -160.49151611328125,
                40.22338104248047,
                5200.3818359375
            ],
            [
                -162.53482055664063,
                41.00423049926758,
                5300.3818359375
            ],
            [
                -164.51507568359375,
                41.78485870361328,
                5400.3818359375
            ],
            [
                -166.43275451660156,
                42.56538772583008,
                5500.3818359375
            ],
            [
                -168.2908935546875,
                43.34652328491211,
                5600.3818359375
            ],
            [
                -170.08746337890625,
                44.1275634765625,
                5700.3818359375
            ],
            [
                -171.8250274658203,
                44.908843994140625,
                5800.3818359375
            ],
            [
                -173.50723266601563,
                45.690303802490234,
                5900.3818359375
            ],
            [
                -175.13229370117188,
                46.47200393676758,
                6000.3818359375
            ],
            [
                -176.7036590576172,
                47.2539176940918,
                6100.3818359375
            ],
            [
                -178.22267150878906,
                48.03589630126953,
                6200.3818359375
            ],
            [
                -179.69110107421875,
                48.81794738769531,
                6300.3818359375
            ],
            [
                -181.11102294921875,
                49.60009765625,
                6400.3818359375
            ],
            [
                -182.48353576660156,
                50.38225173950195,
                6500.3818359375
            ],
            [
                -183.81182861328125,
                51.164581298828125,
                6600.3818359375
            ],
            [
                -185.0967254638672,
                51.94702911376953,
                6700.3818359375
            ],
            [
                -186.34153747558594,
                52.72956466674805,
                6800.3818359375
            ],
            [
                -187.54678344726563,
                53.51213455200195,
                6900.3818359375
            ],
            [
                -188.71533203125,
                54.294776916503906,
                7000.3818359375
            ],
            [
                -189.84950256347656,
                55.07748794555664,
                7100.3818359375
            ],
            [
                -190.95135498046875,
                55.860267639160156,
                7200.3818359375
            ],
            [
                -192.02261352539063,
                56.64312744140625,
                7300.3818359375
            ],
            [
                -193.0648193359375,
                57.42604446411133,
                7400.3818359375
            ],
            [
                -194.08132934570313,
                58.20906448364258,
                7500.3818359375
            ],
            [
                -195.07273864746094,
                58.992149353027344,
                7600.3818359375
            ],
            [
                -196.0415496826172,
                59.775333404541016,
                7700.3818359375
            ],
            [
                -196.98873901367188,
                60.55862045288086,
                7800.3818359375
            ],
            [
                -197.91610717773438,
                61.34200668334961,
                7900.3818359375
            ],
            [
                -198.82537841796875,
                62.125484466552734,
                8000.3818359375
            ],
            [
                -199.71751403808594,
                62.90906524658203,
                8100.3818359375
            ],
            [
                -200.59445190429688,
                63.69274139404297,
                8200.3818359375
            ],
            [
                -201.45712280273438,
                64.47650909423828,
                8300.3818359375
            ],
            [
                -202.3065948486328,
                65.26036071777344,
                8400.3818359375
            ],
            [
                -203.14395141601563,
                66.0442886352539,
                8500.3818359375
            ],
            [
                -203.97052001953125,
                66.82828521728516,
                8600.3818359375
            ],
            [
                -204.78689575195313,
                67.61234283447266,
                8700.3818359375
            ],
            [
                -205.593994140625,
                68.3964614868164,
                8800.3818359375
            ],
            [
                -206.39268493652344,
                69.1806411743164,
                8900.3818359375
            ],
            [
                -207.1835479736328,
                69.96487426757813,
                9000.3818359375
            ],
            [
                -207.96728515625,
                70.74915313720703,
                9100.3818359375
            ],
            [
                -208.74456787109375,
                71.53348541259766,
                9200.3818359375
            ],
            [
                -209.51589965820313,
                72.31786346435547,
                9300.3818359375
            ],
            [
                -210.2818145751953,
                73.1022720336914,
                9400.3818359375
            ],
            [
                -211.04281616210938,
                73.88672637939453,
                9500.3818359375
            ],
            [
                -211.79930114746094,
                74.67120361328125,
                9600.3818359375
            ],
            [
                -212.5516815185547,
                75.45571899414063,
                9700.3818359375
            ],
            [
                -213.30029296875,
                76.2402572631836,
                9800.3818359375
            ],
            [
                -214.04551696777344,
                77.02481842041016,
                9900.3818359375
            ],
            [
                -214.78762817382813,
                77.80940246582031,
                10000.3818359375
            ],
            [
                -216.2635498046875,
                79.37862396240234,
                10200.3818359375
            ],
            [
                -217.72996520996094,
                80.94791412353516,
                10400.3818359375
            ],
            [
                -219.1885986328125,
                82.51724243164063,
                10600.3818359375
            ],
            [
                -220.6405487060547,
                84.08661651611328,
                10800.3818359375
            ],
            [
                -222.08726501464844,
                85.656005859375,
                11000.3818359375
            ],
            [
                -223.52944946289063,
                87.22542572021484,
                11200.3818359375
            ],
            [
                -224.9677734375,
                88.79485321044922,
                11400.3818359375
            ],
            [
                -226.40318298339844,
                90.36429595947266,
                11600.3818359375
            ],
            [
                -227.83609008789063,
                91.9337387084961,
                11800.3818359375
            ],
            [
                -229.26702880859375,
                93.50318908691406,
                12000.3818359375
            ],
            [
                -230.69598388671875,
                95.07263946533203,
                12200.3818359375
            ],
            [
                -232.12364196777344,
                96.64208984375,
                12400.3818359375
            ],
            [
                -233.5504913330078,
                98.21154022216797,
                12600.3818359375
            ],
            [
                -234.9765167236328,
                99.78099060058594,
                12800.3818359375
            ],
            [
                -236.40164184570313,
                101.35043334960938,
                13000.3818359375
            ],
            [
                -237.8261260986328,
                102.91988372802734,
                13200.3818359375
            ],
            [
                -239.25030517578125,
                104.48932647705078,
                13400.3818359375
            ]
        ],
        "zFirstMeasurement": 289.1933
    },
    {
        "E": 2748.6957557440282,
        "chi2": 1.6560057401657104,
        "ip": 5.5421326693272235,
        "ipchi2": 1069.583926213605,
        "mass": 139.57018,
        "particleId": "pi-",
        "pvx": 0.5753,
        "pvy": 0.0709,
        "pvz": 28.466,
        "px": -239.0126778472184,
        "py": 273.299617343836,
        "pz": 2721.0345057510785,
        "q": -1.0,
        "trajectory": [
            [
                15.746222496032715,
                -8.88693618774414,
                -100.0
            ],
            [
                15.307482719421387,
                -8.384743690490723,
                -95.0
            ],
            [
                14.86872673034668,
                -7.882550239562988,
                -90.0
            ],
            [
                14.42995548248291,
                -7.380356788635254,
                -85.0
            ],
            [
                13.991167068481445,
                -6.878162860870361,
                -80.0
            ],
            [
                13.552362442016602,
                -6.375968933105469,
                -75.0
            ],
            [
                13.113665580749512,
                -5.873775959014893,
                -70.0
            ],
            [
                12.674809455871582,
                -5.371581554412842,
                -65.0
            ],
            [
                12.23593807220459,
                -4.869387149810791,
                -60.0
            ],
            [
                11.797051429748535,
                -4.367192268371582,
                -55.0
            ],
            [
                11.358149528503418,
                -3.864997625350952,
                -50.0
            ],
            [
                10.919231414794922,
                -3.362802505493164,
                -45.0
            ],
            [
                10.480297088623047,
                -2.860607147216797,
                -40.0
            ],
            [
                10.041345596313477,
                -2.3584117889404297,
                -35.0
            ],
            [
                9.602377891540527,
                -1.8562160730361938,
                -30.0
            ],
            [
                9.16339111328125,
                -1.3540202379226685,
                -25.0
            ],
            [
                8.724388122558594,
                -0.851824164390564,
                -20.0
            ],
            [
                8.285367012023926,
                -0.34962791204452515,
                -15.0
            ],
            [
                7.846327781677246,
                0.1525684893131256,
                -10.0
            ],
            [
                7.407270908355713,
                0.6547650694847107,
                -5.0
            ],
            [
                6.968194961547852,
                1.1569619178771973,
                0.0
            ],
            [
                6.5291008949279785,
                1.6591588258743286,
                5.0
            ],
            [
                6.089987277984619,
                2.161355972290039,
                10.0
            ],
            [
                5.650854110717773,
                2.663553476333618,
                15.0
            ],
            [
                5.211701393127441,
                3.1657509803771973,
                20.0
            ],
            [
                4.772528171539307,
                3.6679487228393555,
                25.0
            ],
            [
                4.333334922790527,
                4.170146942138672,
                30.0
            ],
            [
                3.894120454788208,
                4.672345161437988,
                35.0
            ],
            [
                3.4548850059509277,
                5.174543380737305,
                40.0
            ],
            [
                3.0156283378601074,
                5.676742076873779,
                45.0
            ],
            [
                2.5763497352600098,
                6.178940773010254,
                50.0
            ],
            [
                2.1370489597320557,
                6.681139945983887,
                55.0
            ],
            [
                1.697725772857666,
                7.1833391189575195,
                60.0
            ],
            [
                1.2583798170089722,
                7.6855387687683105,
                65.0
            ],
            [
                0.8190107345581055,
                8.187738418579102,
                70.0
            ],
            [
                0.3796182870864868,
                8.68993854522705,
                75.0
            ],
            [
                -0.059797968715429306,
                9.192139625549316,
                80.0
            ],
            [
                -0.4992383122444153,
                9.694339752197266,
                85.0
            ],
            [
                -0.9387030601501465,
                10.196540832519531,
                90.0
            ],
            [
                -1.3781925439834595,
                10.698741912841797,
                95.0
            ],
            [
                -1.8177071809768677,
                11.200942993164063,
                100.0
            ],
            [
                -3.5760231018066406,
                13.209752082824707,
                120.0
            ],
            [
                -5.334416389465332,
                15.21853256225586,
                140.0
            ],
            [
                -7.093565940856934,
                17.22735023498535,
                160.0
            ],
            [
                -8.853120803833008,
                19.23617172241211,
                180.0
            ],
            [
                -10.613105773925781,
                21.244998931884766,
                200.0
            ],
            [
                -12.373546600341797,
                23.253829956054688,
                220.0
            ],
            [
                -14.134472846984863,
                25.262666702270508,
                240.0
            ],
            [
                -15.895912170410156,
                27.271509170532227,
                260.0
            ],
            [
                -17.657894134521484,
                29.280359268188477,
                280.0
            ],
            [
                -19.420448303222656,
                31.289215087890625,
                300.0
            ],
            [
                -21.18360137939453,
                33.29807662963867,
                320.0
            ],
            [
                -22.947114944458008,
                35.30694580078125,
                340.0
            ],
            [
                -24.711383819580078,
                37.315818786621094,
                360.0
            ],
            [
                -26.476282119750977,
                39.324703216552734,
                380.0
            ],
            [
                -28.2418270111084,
                41.333595275878906,
                400.0
            ],
            [
                -30.008047103881836,
                43.34249496459961,
                420.0
            ],
            [
                -31.77495765686035,
                45.35140609741211,
                440.0
            ],
            [
                -33.54257583618164,
                47.36032485961914,
                460.0
            ],
            [
                -35.31093978881836,
                49.3692512512207,
                480.0
            ],
            [
                -37.0800666809082,
                51.37819290161133,
                500.0
            ],
            [
                -38.850006103515625,
                53.387142181396484,
                520.0
            ],
            [
                -40.620811462402344,
                55.39610290527344,
                540.0
            ],
            [
                -42.39246368408203,
                57.40507888793945,
                560.0
            ],
            [
                -44.164981842041016,
                59.4140625,
                580.0
            ],
            [
                -45.93839645385742,
                61.42306137084961,
                600.0
            ],
            [
                -47.71275329589844,
                63.43206787109375,
                620.0
            ],
            [
                -49.48805236816406,
                65.44108581542969,
                640.0
            ],
            [
                -51.264320373535156,
                67.45011901855469,
                660.0
            ],
            [
                -53.04157638549805,
                69.45915985107422,
                680.0
            ],
            [
                -54.81998825073242,
                71.46822357177734,
                700.0
            ],
            [
                -56.599449157714844,
                73.47728729248047,
                720.0
            ],
            [
                -58.380001068115234,
                75.48637390136719,
                740.0
            ],
            [
                -60.16166305541992,
                77.49546813964844,
                760.0
            ],
            [
                -61.944461822509766,
                79.50457000732422,
                780.0
            ],
            [
                -63.728450775146484,
                81.51368713378906,
                800.0
            ],
            [
                -65.513916015625,
                83.52281951904297,
                820.0
            ],
            [
                -67.30064392089844,
                85.53196716308594,
                840.0
            ],
            [
                -69.08882141113281,
                87.54108428955078,
                860.0
            ],
            [
                -70.87843322753906,
                89.5501937866211,
                880.0
            ],
            [
                -72.66942596435547,
                91.55929565429688,
                900.0
            ],
            [
                -74.461669921875,
                93.56841278076172,
                920.0
            ],
            [
                -76.25533294677734,
                95.5775375366211,
                940.0
            ],
            [
                -78.0504379272461,
                97.58665466308594,
                960.0
            ],
            [
                -79.84701538085938,
                99.59577178955078,
                980.0
            ],
            [
                -81.64510345458984,
                101.6048812866211,
                1000.0
            ],
            [
                -90.65589141845703,
                111.6501693725586,
                1100.0
            ],
            [
                -99.70718383789063,
                121.6952896118164,
                1200.0
            ],
            [
                -108.80757904052734,
                131.7384033203125,
                1300.0
            ],
            [
                -117.94005584716797,
                141.78175354003906,
                1400.0
            ],
            [
                -127.10877990722656,
                151.82469177246094,
                1500.0
            ],
            [
                -136.3182830810547,
                161.86717224121094,
                1600.0
            ],
            [
                -145.56732177734375,
                171.91001892089844,
                1700.0
            ],
            [
                -154.85760498046875,
                181.95384216308594,
                1800.0
            ],
            [
                -164.1909637451172,
                191.99884033203125,
                1900.0
            ],
            [
                -173.58335876464844,
                202.0457305908203,
                2000.0
            ],
            [
                -183.02743530273438,
                212.09616088867188,
                2100.0
            ],
            [
                -192.54135131835938,
                222.15005493164063,
                2200.0
            ],
            [
                -202.16458129882813,
                232.20883178710938,
                2300.0
            ],
            [
                -211.8685760498047,
                242.2753448486328,
                2400.0
            ],
            [
                -221.7206268310547,
                252.3513946533203,
                2500.0
            ],
            [
                -231.70831298828125,
                262.4400329589844,
                2600.0
            ],
            [
                -241.8794708251953,
                272.5419616699219,
                2700.0
            ],
            [
                -252.27108764648438,
                282.66064453125,
                2800.0
            ],
            [
                -262.9421691894531,
                292.8013000488281,
                2900.0
            ],
            [
                -273.93206787109375,
                302.9675598144531,
                3000.0
            ],
            [
                -285.2706604003906,
                313.1601257324219,
                3100.0
            ],
            [
                -297.0140380859375,
                323.38336181640625,
                3200.0
            ],
            [
                -309.3663024902344,
                333.64898681640625,
                3300.0
            ],
            [
                -322.18682861328125,
                343.9540100097656,
                3400.0
            ],
            [
                -335.6593933105469,
                354.3063659667969,
                3500.0
            ],
            [
                -349.8310546875,
                364.7140197753906,
                3600.0
            ],
            [
                -364.8028259277344,
                375.17364501953125,
                3700.0
            ],
            [
                -380.6418151855469,
                385.6963806152344,
                3800.0
            ],
            [
                -397.48419189453125,
                396.2808532714844,
                3900.0
            ],
            [
                -415.2643127441406,
                406.9259033203125,
                4000.0
            ],
            [
                -434.212158203125,
                417.6348571777344,
                4100.0
            ],
            [
                -454.2406311035156,
                428.3935546875,
                4200.0
            ],
            [
                -475.6852111816406,
                439.2208557128906,
                4300.0
            ],
            [
                -498.2383117675781,
                450.1001281738281,
                4400.0
            ],
            [
                -522.1004638671875,
                461.03094482421875,
                4500.0
            ],
            [
                -547.3045043945313,
                471.99542236328125,
                4600.0
            ],
            [
                -573.7835693359375,
                483.0093994140625,
                4700.0
            ],
            [
                -601.6979370117188,
                494.05389404296875,
                4800.0
            ],
            [
                -651.3207397460938,
                500.03045654296875,
                4900.0
            ],
            [
                -681.9815673828125,
                510.9525451660156,
                5000.0
            ],
            [
                -714.09423828125,
                521.9142456054688,
                5100.0
            ],
            [
                -747.5267333984375,
                532.8679809570313,
                5200.0
            ],
            [
                -782.3394775390625,
                543.8495483398438,
                5300.0
            ],
            [
                -818.4884643554688,
                554.8243408203125,
                5400.0
            ],
            [
                -855.959228515625,
                565.8524780273438,
                5500.0
            ],
            [
                -894.7689819335938,
                576.8394165039063,
                5600.0
            ],
            [
                -934.9624633789063,
                587.795654296875,
                5700.0
            ],
            [
                -976.4861450195313,
                598.7703247070313,
                5800.0
            ],
            [
                -1019.2618408203125,
                609.701416015625,
                5900.0
            ],
            [
                -1063.4385986328125,
                620.605712890625,
                6000.0
            ],
            [
                -1108.8665771484375,
                631.4744873046875,
                6100.0
            ],
            [
                -1155.553466796875,
                642.2946166992188,
                6200.0
            ],
            [
                -1203.5059814453125,
                653.061279296875,
                6300.0
            ],
            [
                -1252.676513671875,
                663.7767333984375,
                6400.0
            ],
            [
                -1302.9952392578125,
                674.45947265625,
                6500.0
            ],
            [
                -1354.5179443359375,
                685.0082397460938,
                6600.0
            ],
            [
                -1407.1708984375,
                695.4699096679688,
                6700.0
            ],
            [
                -1460.85888671875,
                705.8362426757813,
                6800.0
            ],
            [
                -1515.6221923828125,
                716.0758056640625,
                6900.0
            ],
            [
                -1571.3377685546875,
                726.2026977539063,
                7000.0
            ],
            [
                -1627.957763671875,
                736.2119750976563,
                7100.0
            ],
            [
                -1685.4241943359375,
                746.0988159179688,
                7200.0
            ],
            [
                -1743.655029296875,
                755.8778076171875,
                7300.0
            ],
            [
                -1802.64501953125,
                765.5258178710938,
                7400.0
            ],
            [
                -1862.2294921875,
                775.0949096679688,
                7500.0
            ],
            [
                -1922.472412109375,
                784.5188598632813,
                7600.0
            ],
            [
                -1983.2445068359375,
                793.85009765625,
                7700.0
            ],
            [
                -2044.5072021484375,
                803.0964965820313,
                7800.0
            ],
            [
                -2106.202392578125,
                812.2672729492188,
                7900.0
            ],
            [
                -2168.27685546875,
                821.3750610351563,
                8000.0
            ],
            [
                -2230.697265625,
                830.4295654296875,
                8100.0
            ],
            [
                -2293.40966796875,
                839.4409790039063,
                8200.0
            ],
            [
                -2356.38525390625,
                848.4190063476563,
                8300.0
            ],
            [
                -2419.595947265625,
                857.36669921875,
                8400.0
            ],
            [
                -2483.00439453125,
                866.3019409179688,
                8500.0
            ],
            [
                -2546.5927734375,
                875.2146606445313,
                8600.0
            ],
            [
                -2610.3369140625,
                884.1198120117188,
                8700.0
            ],
            [
                -2674.2158203125,
                893.02001953125,
                8800.0
            ],
            [
                -2738.213623046875,
                901.9176635742188,
                8900.0
            ],
            [
                -2802.318603515625,
                910.8132934570313,
                9000.0
            ],
            [
                -2866.514892578125,
                919.7113647460938,
                9100.0
            ],
            [
                -2930.79052734375,
                928.6132202148438,
                9200.0
            ],
            [
                -2995.135986328125,
                937.5202026367188,
                9300.0
            ],
            [
                -3059.541748046875,
                946.4330444335938,
                9400.0
            ],
            [
                -3124.000732421875,
                955.3519287109375,
                9500.0
            ],
            [
                -3188.50634765625,
                964.2770385742188,
                9600.0
            ],
            [
                -3253.052734375,
                973.2083129882813,
                9700.0
            ],
            [
                -3317.63525390625,
                982.145751953125,
                9800.0
            ],
            [
                -3382.248779296875,
                991.0890502929688,
                9900.0
            ],
            [
                -3446.889892578125,
                1000.0381469726563,
                10000.0
            ],
            [
                -3576.2421875,
                1017.9519653320313,
                10200.0
            ],
            [
                -3705.669189453125,
                1035.885498046875,
                10400.0
            ],
            [
                -3835.17236328125,
                1053.8427734375,
                10600.0
            ],
            [
                -3964.7021484375,
                1071.81103515625,
                10800.0
            ],
            [
                -4094.26171875,
                1089.7928466796875,
                11000.0
            ],
            [
                -4223.83447265625,
                1107.78125,
                11200.0
            ],
            [
                -4353.40673828125,
                1125.7701416015625,
                11400.0
            ],
            [
                -4483.00732421875,
                1143.762939453125,
                11600.0
            ],
            [
                -4612.595703125,
                1161.761474609375,
                11800.0
            ],
            [
                -4742.18505859375,
                1179.7593994140625,
                12000.0
            ],
            [
                -4871.6748046875,
                1197.705322265625,
                12200.0
            ],
            [
                -5001.310546875,
                1215.72802734375,
                12400.0
            ],
            [
                -5130.93798828125,
                1233.7347412109375,
                12600.0
            ],
            [
                -5260.50732421875,
                1251.7216796875,
                12800.0
            ],
            [
                -5390.09228515625,
                1269.7186279296875,
                13000.0
            ],
            [
                -5519.5771484375,
                1287.66162109375,
                13200.0
            ],
            [
                -5649.22021484375,
                1305.689453125,
                13400.0
            ]
        ],
        "zFirstMeasurement": 229.2578
    }
]
