[
    {
        "E": 64441.23423692539,
        "chi2": 0.0,
        "ip": 0.006796441392964076,
        "ipchi2": 0.06910051290275689,
        "mass": 1826.1,
        "particleId": "D0",
        "pvx": 0.5907,
        "pvy": 0.14,
        "pvz": 57.1399,
        "px": 2601.15,
        "py": 823.29,
        "pz": 64357.55,
        "q": 0.0,
        "trajectory": [
            [
                0.5906999707221985,
                0.14000000059604645,
                57.13990020751953
            ],
            [
                0.6710000038146973,
                0.15870000422000885,
                59.1327018737793
            ]
        ],
        "zFirstMeasurement": -9999.0
    },
    {
        "E": 14227.558230661276,
        "chi2": 1.4272680282592773,
        "ip": 0.09901397802676767,
        "ipchi2": 22.10995592589761,
        "mass": 493.677,
        "particleId": "K-",
        "pvx": 0.5907,
        "pvy": 0.14,
        "pvz": 57.1399,
        "px": 1049.69,
        "py": 571.77,
        "pz": 14168.66,
        "q": -1.0,
        "trajectory": [
            [
                0.6856253743171692,
                0.13628575205802917,
                59.1327018737793
            ],
            [
                1.0560423135757446,
                0.33806002140045166,
                64.13269805908203
            ],
            [
                1.4264549016952515,
                0.5398343801498413,
                69.13269805908203
            ],
            [
                1.796863079071045,
                0.7416088581085205,
                74.13269805908203
            ],
            [
                2.167266845703125,
                0.9433833360671997,
                79.13269805908203
            ],
            [
                2.5376663208007813,
                1.1451579332351685,
                84.13269805908203
            ],
            [
                2.9080610275268555,
                1.3469326496124268,
                89.13269805908203
            ],
            [
                3.2784512042999268,
                1.548707365989685,
                94.13269805908203
            ],
            [
                3.648836612701416,
                1.750482201576233,
                99.13269805908203
            ],
            [
                4.019280910491943,
                1.9522087574005127,
                104.13269805908203
            ],
            [
                5.500758171081543,
                2.7593090534210205,
                124.13269805908203
            ],
            [
                6.982161045074463,
                3.566410779953003,
                144.13270568847656
            ],
            [
                8.463484764099121,
                4.373513698577881,
                164.13270568847656
            ],
            [
                9.944724082946777,
                5.180617809295654,
                184.13270568847656
            ],
            [
                11.425873756408691,
                5.987722873687744,
                204.13270568847656
            ],
            [
                12.906928062438965,
                6.794829368591309,
                224.13270568847656
            ],
            [
                14.387883186340332,
                7.601936340332031,
                244.13270568847656
            ],
            [
                15.868776321411133,
                8.409045219421387,
                264.1326904296875
            ],
            [
                17.349544525146484,
                9.216155052185059,
                284.1326904296875
            ],
            [
                18.83020782470703,
                10.02326488494873,
                304.1326904296875
            ],
            [
                20.310758590698242,
                10.830376625061035,
                324.1326904296875
            ],
            [
                21.791196823120117,
                11.637489318847656,
                344.1326904296875
            ],
            [
                23.271516799926758,
                12.444602012634277,
                364.1326904296875
            ],
            [
                24.75171661376953,
                13.251716613769531,
                384.1326904296875
            ],
            [
                26.23179054260254,
                14.058831214904785,
                404.1326904296875
            ],
            [
                27.711729049682617,
                14.865946769714355,
                424.1326904296875
            ],
            [
                29.1915340423584,
                15.673062324523926,
                444.1326904296875
            ],
            [
                30.671199798583984,
                16.480178833007813,
                464.1326904296875
            ],
            [
                32.15072250366211,
                17.287296295166016,
                484.1326904296875
            ],
            [
                33.63010025024414,
                18.09441566467285,
                504.1326904296875
            ],
            [
                35.109317779541016,
                18.901533126831055,
                524.1326904296875
            ],
            [
                36.58837890625,
                19.70865249633789,
                544.1326904296875
            ],
            [
                38.06727981567383,
                20.515771865844727,
                564.1326904296875
            ],
            [
                39.545997619628906,
                21.322891235351563,
                584.1326904296875
            ],
            [
                41.0245361328125,
                22.1300106048584,
                604.1326904296875
            ],
            [
                42.502891540527344,
                22.937129974365234,
                624.1326904296875
            ],
            [
                43.98106002807617,
                23.74424934387207,
                644.1326904296875
            ],
            [
                45.45902633666992,
                24.551368713378906,
                664.1326904296875
            ],
            [
                46.936798095703125,
                25.358488082885742,
                684.1326904296875
            ],
            [
                48.414371490478516,
                26.165607452392578,
                704.1326904296875
            ],
            [
                49.89175796508789,
                26.972728729248047,
                724.1326904296875
            ],
            [
                51.36888122558594,
                27.779848098754883,
                744.1326904296875
            ],
            [
                52.845767974853516,
                28.58696746826172,
                764.1326904296875
            ],
            [
                54.322425842285156,
                29.394084930419922,
                784.1326904296875
            ],
            [
                55.798851013183594,
                30.201204299926758,
                804.1326904296875
            ],
            [
                57.27504348754883,
                31.00832176208496,
                824.1326904296875
            ],
            [
                58.75099182128906,
                31.815441131591797,
                844.1326904296875
            ],
            [
                60.2266960144043,
                32.62255859375,
                864.1326904296875
            ],
            [
                61.702144622802734,
                33.4296760559082,
                884.1326904296875
            ],
            [
                63.177310943603516,
                34.23678970336914,
                904.1326904296875
            ],
            [
                64.65218353271484,
                35.04389572143555,
                924.1326904296875
            ],
            [
                66.12677764892578,
                35.85100555419922,
                944.1326904296875
            ],
            [
                67.6010971069336,
                36.658111572265625,
                964.1326904296875
            ],
            [
                69.07505798339844,
                37.46521759033203,
                984.1326904296875
            ],
            [
                70.5487060546875,
                38.27231979370117,
                1004.1326904296875
            ],
            [
                77.91312408447266,
                42.307865142822266,
                1104.1326904296875
            ],
            [
                85.26826477050781,
                46.343475341796875,
                1204.1326904296875
            ],
            [
                92.6168212890625,
                50.37905502319336,
                1304.1326904296875
            ],
            [
                99.9574966430664,
                54.41464614868164,
                1404.1326904296875
            ],
            [
                107.29151916503906,
                58.45032501220703,
                1504.1326904296875
            ],
            [
                114.61815643310547,
                62.48600769042969,
                1604.1326904296875
            ],
            [
                121.93697357177734,
                66.52162170410156,
                1704.1326904296875
            ],
            [
                129.24618530273438,
                70.55717468261719,
                1804.1326904296875
            ],
            [
                136.54580688476563,
                74.5926284790039,
                1904.1326904296875
            ],
            [
                143.83384704589844,
                78.62796783447266,
                2004.1326904296875
            ],
            [
                151.10935974121094,
                82.66326904296875,
                2104.1328125
            ],
            [
                158.36676025390625,
                86.69812774658203,
                2204.1328125
            ],
            [
                165.60992431640625,
                90.73277282714844,
                2304.1328125
            ],
            [
                172.8286590576172,
                94.76697540283203,
                2404.1328125
            ],
            [
                180.01893615722656,
                98.80055236816406,
                2504.1328125
            ],
            [
                187.1741180419922,
                102.83335876464844,
                2604.1328125
            ],
            [
                194.29063415527344,
                106.86540985107422,
                2704.1328125
            ],
            [
                201.3624725341797,
                110.89654541015625,
                2804.1328125
            ],
            [
                208.3746337890625,
                114.92625427246094,
                2904.1328125
            ],
            [
                215.32058715820313,
                118.95479583740234,
                3004.1328125
            ],
            [
                222.1973876953125,
                122.98193359375,
                3104.1328125
            ],
            [
                228.9795379638672,
                127.00743103027344,
                3204.1328125
            ],
            [
                235.66592407226563,
                131.03118896484375,
                3304.1328125
            ],
            [
                242.23634338378906,
                135.05287170410156,
                3404.1328125
            ],
            [
                248.68017578125,
                139.07276916503906,
                3504.1328125
            ],
            [
                254.99569702148438,
                143.09107971191406,
                3604.1328125
            ],
            [
                261.16107177734375,
                147.10751342773438,
                3704.1328125
            ],
            [
                267.15643310546875,
                151.1214599609375,
                3804.1328125
            ],
            [
                272.9867248535156,
                155.13375854492188,
                3904.1328125
            ],
            [
                278.62554931640625,
                159.1441192626953,
                4004.1328125
            ],
            [
                284.0818786621094,
                163.15255737304688,
                4104.1328125
            ],
            [
                289.3188781738281,
                167.1598663330078,
                4204.1328125
            ],
            [
                294.3456726074219,
                171.1648712158203,
                4304.1328125
            ],
            [
                299.1636962890625,
                175.16880798339844,
                4404.1328125
            ],
            [
                303.76446533203125,
                179.1717071533203,
                4504.1328125
            ],
            [
                308.1485290527344,
                183.1732635498047,
                4604.1328125
            ],
            [
                312.2958679199219,
                187.1730499267578,
                4704.1328125
            ],
            [
                312.2852478027344,
                193.59422302246094,
                4804.1328125
            ],
            [
                315.91937255859375,
                197.67127990722656,
                4904.1328125
            ],
            [
                319.3371276855469,
                201.747314453125,
                5004.1328125
            ],
            [
                322.5303649902344,
                205.8210906982422,
                5104.1328125
            ],
            [
                325.5092468261719,
                209.89443969726563,
                5204.1328125
            ],
            [
                328.2711486816406,
                213.9670867919922,
                5304.1328125
            ],
            [
                330.8236083984375,
                218.0400390625,
                5404.1328125
            ],
            [
                333.1672668457031,
                222.11273193359375,
                5504.1328125
            ],
            [
                335.313232421875,
                226.1834259033203,
                5604.1328125
            ],
            [
                337.2555236816406,
                230.25428771972656,
                5704.1328125
            ],
            [
                339.0009765625,
                234.3246307373047,
                5804.1328125
            ],
            [
                340.56256103515625,
                238.39419555664063,
                5904.1328125
            ],
            [
                341.9336853027344,
                242.46226501464844,
                6004.1328125
            ],
            [
                343.12615966796875,
                246.52964782714844,
                6104.1328125
            ],
            [
                344.1448974609375,
                250.59689331054688,
                6204.1328125
            ],
            [
                344.99462890625,
                254.66368103027344,
                6304.1328125
            ],
            [
                345.683349609375,
                258.73004150390625,
                6404.1328125
            ],
            [
                346.2149353027344,
                262.79608154296875,
                6504.1328125
            ],
            [
                346.598388671875,
                266.86126708984375,
                6604.1328125
            ],
            [
                346.837890625,
                270.9258728027344,
                6704.1328125
            ],
            [
                346.9443054199219,
                274.9900207519531,
                6804.1328125
            ],
            [
                346.9194030761719,
                279.0534973144531,
                6904.1328125
            ],
            [
                346.77276611328125,
                283.1163330078125,
                7004.1328125
            ],
            [
                346.51226806640625,
                287.1785888671875,
                7104.1328125
            ],
            [
                346.1449890136719,
                291.24029541015625,
                7204.1328125
            ],
            [
                345.6768493652344,
                295.30126953125,
                7304.1328125
            ],
            [
                345.1133117675781,
                299.36151123046875,
                7404.1328125
            ],
            [
                344.4655456542969,
                303.42095947265625,
                7504.1328125
            ],
            [
                343.73486328125,
                307.4796447753906,
                7604.1328125
            ],
            [
                342.93048095703125,
                311.53753662109375,
                7704.1328125
            ],
            [
                342.0556335449219,
                315.5946044921875,
                7804.1328125
            ],
            [
                341.116455078125,
                319.6508483886719,
                7904.1328125
            ],
            [
                340.1186218261719,
                323.706298828125,
                8004.1328125
            ],
            [
                339.0655822753906,
                327.76092529296875,
                8104.1328125
            ],
            [
                337.9633483886719,
                331.8147888183594,
                8204.1328125
            ],
            [
                336.8153076171875,
                335.8678894042969,
                8304.1328125
            ],
            [
                335.62493896484375,
                339.9202575683594,
                8404.1328125
            ],
            [
                334.3956604003906,
                343.971923828125,
                8504.1328125
            ],
            [
                333.13189697265625,
                348.0229187011719,
                8604.1328125
            ],
            [
                331.8355407714844,
                352.07330322265625,
                8704.1328125
            ],
            [
                330.5096435546875,
                356.1231384277344,
                8804.1328125
            ],
            [
                329.1568908691406,
                360.17236328125,
                8904.1328125
            ],
            [
                327.7792663574219,
                364.2210693359375,
                9004.1328125
            ],
            [
                326.3789978027344,
                368.2692565917969,
                9104.1328125
            ],
            [
                324.9581604003906,
                372.31695556640625,
                9204.1328125
            ],
            [
                323.5184631347656,
                376.3642272949219,
                9304.1328125
            ],
            [
                322.0616149902344,
                380.41107177734375,
                9404.1328125
            ],
            [
                320.58917236328125,
                384.4574890136719,
                9504.1328125
            ],
            [
                319.1024169921875,
                388.5035705566406,
                9604.1328125
            ],
            [
                317.6026916503906,
                392.54931640625,
                9704.1328125
            ],
            [
                316.091064453125,
                396.5947265625,
                9804.1328125
            ],
            [
                314.5687255859375,
                400.63983154296875,
                9904.1328125
            ],
            [
                313.0364990234375,
                404.6846618652344,
                10004.1328125
            ],
            [
                309.9458923339844,
                412.77362060546875,
                10204.1328125
            ],
            [
                306.8253173828125,
                420.8616943359375,
                10404.1328125
            ],
            [
                303.68023681640625,
                428.94903564453125,
                10604.1328125
            ],
            [
                300.51409912109375,
                437.0357666015625,
                10804.1328125
            ],
            [
                297.33148193359375,
                445.1219787597656,
                11004.1328125
            ],
            [
                294.13458251953125,
                453.207763671875,
                11204.1328125
            ],
            [
                290.9255065917969,
                461.2931823730469,
                11404.1328125
            ],
            [
                287.7074279785156,
                469.3782958984375,
                11604.1328125
            ],
            [
                284.4813232421875,
                477.4631652832031,
                11804.1328125
            ],
            [
                281.2491149902344,
                485.5478515625,
                12004.1328125
            ],
            [
                278.0106506347656,
                493.63232421875,
                12204.1328125
            ],
            [
                274.76806640625,
                501.7167053222656,
                12404.1328125
            ],
            [
                271.5231018066406,
                509.80096435546875,
                12604.1328125
            ],
            [
                268.2755126953125,
                517.8851318359375,
                12804.1328125
            ],
            [
                265.0250244140625,
                525.96923828125,
                13004.1328125
            ],
            [
                261.7725524902344,
                534.0532836914063,
                13204.1328125
            ],
            [
                258.51898193359375,
                542.1373291015625,
                13404.1328125
            ]
        ],
        "zFirstMeasurement": 155.9401
    },
    {
        "E": 50204.76654572948,
        "chi2": 1.0714647769927979,
        "ip": 0.045901169158084884,
        "ipchi2": 1.4983438176524075,
        "mass": 139.57,
        "particleId": "pi+",
        "pvx": 0.5907,
        "pvy": 0.14,
        "pvz": 57.1399,
        "px": 1552.63,
        "py": 249.13,
        "pz": 50179.94,
        "q": 1.0,
        "trajectory": [
            [
                0.6494216918945313,
                0.1957007348537445,
                59.1327018737793
            ],
            [
                0.8041334748268127,
                0.22052408754825592,
                64.13269805908203
            ],
            [
                0.9588465094566345,
                0.24534742534160614,
                69.13269805908203
            ],
            [
                1.1135607957839966,
                0.27017074823379517,
                74.13269805908203
            ],
            [
                1.2682762145996094,
                0.2949940264225006,
                79.13269805908203
            ],
            [
                1.4229930639266968,
                0.31981730461120605,
                84.13269805908203
            ],
            [
                1.5777111053466797,
                0.3446405827999115,
                89.13269805908203
            ],
            [
                1.7324304580688477,
                0.36946383118629456,
                94.13269805908203
            ],
            [
                1.8871512413024902,
                0.3942870497703552,
                99.13269805908203
            ],
            [
                2.0418732166290283,
                0.4191102385520935,
                104.13269805908203
            ],
            [
                2.6607751846313477,
                0.5184028744697571,
                124.13269805908203
            ],
            [
                3.279690742492676,
                0.617695152759552,
                144.13270568847656
            ],
            [
                3.898634195327759,
                0.7169871926307678,
                164.13270568847656
            ],
            [
                4.517601013183594,
                0.816278874874115,
                184.13270568847656
            ],
            [
                5.136591911315918,
                0.9155703186988831,
                204.13270568847656
            ],
            [
                5.755607604980469,
                1.0148614645004272,
                224.13270568847656
            ],
            [
                6.374698638916016,
                1.114166021347046,
                244.13270568847656
            ],
            [
                6.99376916885376,
                1.213456630706787,
                264.1326904296875
            ],
            [
                7.612867832183838,
                1.3127470016479492,
                284.1326904296875
            ],
            [
                8.231996536254883,
                1.4120370149612427,
                304.1326904296875
            ],
            [
                8.851156234741211,
                1.511326789855957,
                324.1326904296875
            ],
            [
                9.470337867736816,
                1.6106163263320923,
                344.1326904296875
            ],
            [
                10.089567184448242,
                1.7099056243896484,
                364.1326904296875
            ],
            [
                10.708828926086426,
                1.8091946840286255,
                384.1326904296875
            ],
            [
                11.328125,
                1.9084835052490234,
                404.1326904296875
            ],
            [
                11.947456359863281,
                2.007772207260132,
                424.1326904296875
            ],
            [
                12.566824913024902,
                2.107060670852661,
                444.1326904296875
            ],
            [
                13.186233520507813,
                2.2063486576080322,
                464.1326904296875
            ],
            [
                13.805684089660645,
                2.3056368827819824,
                484.1326904296875
            ],
            [
                14.425177574157715,
                2.4049246311187744,
                504.1326904296875
            ],
            [
                15.044717788696289,
                2.5042121410369873,
                524.1326904296875
            ],
            [
                15.664286613464355,
                2.6034996509552,
                544.1326904296875
            ],
            [
                16.283912658691406,
                2.702786922454834,
                564.1326904296875
            ],
            [
                16.903587341308594,
                2.8020739555358887,
                584.1326904296875
            ],
            [
                17.523313522338867,
                2.9013609886169434,
                604.1326904296875
            ],
            [
                18.143089294433594,
                3.000647783279419,
                624.1326904296875
            ],
            [
                18.76291847229004,
                3.0999345779418945,
                644.1326904296875
            ],
            [
                19.382802963256836,
                3.199221134185791,
                664.1326904296875
            ],
            [
                20.002748489379883,
                3.2985076904296875,
                684.1326904296875
            ],
            [
                20.62274932861328,
                3.397794246673584,
                704.1326904296875
            ],
            [
                21.242813110351563,
                3.4970808029174805,
                724.1326904296875
            ],
            [
                21.86294174194336,
                3.596367597579956,
                744.1326904296875
            ],
            [
                22.48313331604004,
                3.6956543922424316,
                764.1326904296875
            ],
            [
                23.103391647338867,
                3.7949411869049072,
                784.1326904296875
            ],
            [
                23.723718643188477,
                3.894228219985962,
                804.1326904296875
            ],
            [
                24.344114303588867,
                3.9935152530670166,
                824.1326904296875
            ],
            [
                24.964580535888672,
                4.09280252456665,
                844.1326904296875
            ],
            [
                25.585121154785156,
                4.192090034484863,
                864.1326904296875
            ],
            [
                26.205732345581055,
                4.291377544403076,
                884.1326904296875
            ],
            [
                26.826414108276367,
                4.390664100646973,
                904.1326904296875
            ],
            [
                27.44717025756836,
                4.489951133728027,
                924.1326904296875
            ],
            [
                28.068004608154297,
                4.589237689971924,
                944.1326904296875
            ],
            [
                28.68891716003418,
                4.6885247230529785,
                964.1326904296875
            ],
            [
                29.30990982055664,
                4.787811756134033,
                984.1326904296875
            ],
            [
                29.930994033813477,
                4.887100696563721,
                1004.1326904296875
            ],
            [
                33.037662506103516,
                5.38355016708374,
                1104.1326904296875
            ],
            [
                36.14657211303711,
                5.880009651184082,
                1204.1326904296875
            ],
            [
                39.2577018737793,
                6.376481056213379,
                1304.1326904296875
            ],
            [
                42.37103271484375,
                6.872946262359619,
                1404.1326904296875
            ],
            [
                45.485538482666016,
                7.3693528175354,
                1504.1326904296875
            ],
            [
                48.602882385253906,
                7.865814208984375,
                1604.1326904296875
            ],
            [
                51.722572326660156,
                8.362284660339355,
                1704.1326904296875
            ],
            [
                54.84458541870117,
                8.858760833740234,
                1804.1326904296875
            ],
            [
                57.96944046020508,
                9.355245590209961,
                1904.1326904296875
            ],
            [
                61.09782791137695,
                9.851741790771484,
                2004.1326904296875
            ],
            [
                64.22966766357422,
                10.348250389099121,
                2104.1328125
            ],
            [
                67.36625671386719,
                10.844776153564453,
                2204.1328125
            ],
            [
                70.50845336914063,
                11.341301918029785,
                2304.1328125
            ],
            [
                73.65656280517578,
                11.837850570678711,
                2404.1328125
            ],
            [
                76.81224060058594,
                12.334321022033691,
                2504.1328125
            ],
            [
                79.97761535644531,
                12.830930709838867,
                2604.1328125
            ],
            [
                83.15563201904297,
                13.327584266662598,
                2704.1328125
            ],
            [
                86.34628295898438,
                13.824295043945313,
                2804.1328125
            ],
            [
                89.553466796875,
                14.321069717407227,
                2904.1328125
            ],
            [
                92.77955627441406,
                14.817902565002441,
                3004.1328125
            ],
            [
                96.02665710449219,
                15.314784049987793,
                3104.1328125
            ],
            [
                99.30049133300781,
                15.811673164367676,
                3204.1328125
            ],
            [
                102.60203552246094,
                16.30862045288086,
                3304.1328125
            ],
            [
                105.9323959350586,
                16.805667877197266,
                3404.1328125
            ],
            [
                109.300537109375,
                17.302560806274414,
                3504.1328125
            ],
            [
                112.70601654052734,
                17.79975128173828,
                3604.1328125
            ],
            [
                116.15510559082031,
                18.29701805114746,
                3704.1328125
            ],
            [
                119.6502914428711,
                18.794330596923828,
                3804.1328125
            ],
            [
                123.1926040649414,
                19.291698455810547,
                3904.1328125
            ],
            [
                126.78465270996094,
                19.78924560546875,
                4004.1328125
            ],
            [
                130.43862915039063,
                20.286951065063477,
                4104.1328125
            ],
            [
                134.14642333984375,
                20.784698486328125,
                4204.1328125
            ],
            [
                137.9133758544922,
                21.28261947631836,
                4304.1328125
            ],
            [
                141.73394775390625,
                21.780656814575195,
                4404.1328125
            ],
            [
                145.62045288085938,
                22.27882957458496,
                4504.1328125
            ],
            [
                149.5695037841797,
                22.77721405029297,
                4604.1328125
            ],
            [
                153.57888793945313,
                23.275678634643555,
                4704.1328125
            ],
            [
                157.65330505371094,
                23.774322509765625,
                4804.1328125
            ],
            [
                161.7843780517578,
                24.27306365966797,
                4904.1328125
            ],
            [
                165.9298858642578,
                24.589754104614258,
                5004.1328125
            ],
            [
                170.19644165039063,
                25.08296012878418,
                5104.1328125
            ],
            [
                174.5233612060547,
                25.576274871826172,
                5204.1328125
            ],
            [
                178.91136169433594,
                26.06989288330078,
                5304.1328125
            ],
            [
                183.35848999023438,
                26.56333351135254,
                5404.1328125
            ],
            [
                187.8642120361328,
                27.056636810302734,
                5504.1328125
            ],
            [
                192.426025390625,
                27.550539016723633,
                5604.1328125
            ],
            [
                197.04531860351563,
                28.04433822631836,
                5704.1328125
            ],
            [
                201.72003173828125,
                28.538333892822266,
                5804.1328125
            ],
            [
                206.44662475585938,
                29.0324649810791,
                5904.1328125
            ],
            [
                211.2268829345703,
                29.526859283447266,
                6004.1328125
            ],
            [
                216.05746459960938,
                30.02145767211914,
                6104.1328125
            ],
            [
                220.93704223632813,
                30.51608657836914,
                6204.1328125
            ],
            [
                225.8640899658203,
                31.010738372802734,
                6304.1328125
            ],
            [
                230.83656311035156,
                31.505449295043945,
                6404.1328125
            ],
            [
                235.8533477783203,
                32.00016403198242,
                6504.1328125
            ],
            [
                240.9118194580078,
                32.49502182006836,
                6604.1328125
            ],
            [
                246.01083374023438,
                32.98996353149414,
                6704.1328125
            ],
            [
                251.1474151611328,
                33.48494338989258,
                6804.1328125
            ],
            [
                256.3210144042969,
                33.9799690246582,
                6904.1328125
            ],
            [
                261.5290222167969,
                34.47504425048828,
                7004.1328125
            ],
            [
                266.76922607421875,
                34.970149993896484,
                7104.1328125
            ],
            [
                272.0396728515625,
                35.46528244018555,
                7204.1328125
            ],
            [
                277.3387756347656,
                35.960472106933594,
                7304.1328125
            ],
            [
                282.66497802734375,
                36.45570373535156,
                7404.1328125
            ],
            [
                288.0152282714844,
                36.95100784301758,
                7504.1328125
            ],
            [
                293.3890686035156,
                37.44635772705078,
                7604.1328125
            ],
            [
                298.7840270996094,
                37.941768646240234,
                7704.1328125
            ],
            [
                304.1991882324219,
                38.437255859375,
                7804.1328125
            ],
            [
                309.6329040527344,
                38.93281555175781,
                7904.1328125
            ],
            [
                315.0835266113281,
                39.42844772338867,
                8004.1328125
            ],
            [
                320.5501403808594,
                39.924156188964844,
                8104.1328125
            ],
            [
                326.031005859375,
                40.41994094848633,
                8204.1328125
            ],
            [
                331.52520751953125,
                40.91579818725586,
                8304.1328125
            ],
            [
                337.03167724609375,
                41.41172409057617,
                8404.1328125
            ],
            [
                342.54949951171875,
                41.90771484375,
                8504.1328125
            ],
            [
                348.077392578125,
                42.40376281738281,
                8604.1328125
            ],
            [
                353.61480712890625,
                42.899871826171875,
                8704.1328125
            ],
            [
                359.1608581542969,
                43.39602279663086,
                8804.1328125
            ],
            [
                364.71478271484375,
                43.892234802246094,
                8904.1328125
            ],
            [
                370.2760009765625,
                44.388492584228516,
                9004.1328125
            ],
            [
                375.8438415527344,
                44.884803771972656,
                9104.1328125
            ],
            [
                381.417724609375,
                45.38115692138672,
                9204.1328125
            ],
            [
                386.99713134765625,
                45.8775520324707,
                9304.1328125
            ],
            [
                392.58160400390625,
                46.373985290527344,
                9404.1328125
            ],
            [
                398.170654296875,
                46.87045669555664,
                9504.1328125
            ],
            [
                403.7638854980469,
                47.36696243286133,
                9604.1328125
            ],
            [
                409.3609619140625,
                47.86349868774414,
                9704.1328125
            ],
            [
                414.9615173339844,
                48.36006164550781,
                9804.1328125
            ],
            [
                420.5652160644531,
                48.85665512084961,
                9904.1328125
            ],
            [
                426.1718444824219,
                49.353267669677734,
                10004.1328125
            ],
            [
                437.3927917480469,
                50.346561431884766,
                10204.1328125
            ],
            [
                448.6225280761719,
                51.339927673339844,
                10404.1328125
            ],
            [
                459.8594970703125,
                52.33335494995117,
                10604.1328125
            ],
            [
                471.1026611328125,
                53.32683181762695,
                10804.1328125
            ],
            [
                482.3506774902344,
                54.32034683227539,
                11004.1328125
            ],
            [
                493.6028747558594,
                55.31389617919922,
                11204.1328125
            ],
            [
                504.8586730957031,
                56.30746841430664,
                11404.1328125
            ],
            [
                516.1171264648438,
                57.301063537597656,
                11604.1328125
            ],
            [
                527.3778686523438,
                58.29467010498047,
                11804.1328125
            ],
            [
                538.6405029296875,
                59.288291931152344,
                12004.1328125
            ],
            [
                549.9049072265625,
                60.281925201416016,
                12204.1328125
            ],
            [
                561.1705322265625,
                61.27556228637695,
                12404.1328125
            ],
            [
                572.4368286132813,
                62.269203186035156,
                12604.1328125
            ],
            [
                583.7039184570313,
                63.262847900390625,
                12804.1328125
            ],
            [
                594.9718627929688,
                64.25650024414063,
                13004.1328125
            ],
            [
                606.2404174804688,
                65.25015258789063,
                13204.1328125
            ],
            [
                617.5092163085938,
                66.24380493164063,
                13404.1328125
            ]
        ],
        "zFirstMeasurement": 434.2704
    },
    {
        "E": 6565.403689153107,
        "chi2": 1.42236328125,
        "ip": 0.24235907724757336,
        "ipchi2": 7.872749590359486,
        "mass": 139.57018,
        "particleId": "pi-",
        "pvx": 0.5907,
        "pvy": 0.14,
        "pvz": 57.1399,
        "px": 247.8612018106995,
        "py": -121.7758033421267,
        "pz": 6558.1080537573735,
        "q": -1.0,
        "trajectory": [
            [
                -5.313553810119629,
                3.2973084449768066,
                -100.0
            ],
            [
                -5.124363899230957,
                3.2044601440429688,
                -95.0
            ],
            [
                -4.935180187225342,
                3.111611843109131,
                -90.0
            ],
            [
                -4.746002674102783,
                3.018763542175293,
                -85.0
            ],
            [
                -4.5568318367004395,
                2.9259157180786133,
                -80.0
            ],
            [
                -4.367667198181152,
                2.8330678939819336,
                -75.0
            ],
            [
                -4.17850923538208,
                2.740220308303833,
                -70.0
            ],
            [
                -3.9893581867218018,
                2.6473727226257324,
                -65.0
            ],
            [
                -3.8002140522003174,
                2.554525375366211,
                -60.0
            ],
            [
                -3.611076593399048,
                2.4616782665252686,
                -55.0
            ],
            [
                -3.421886682510376,
                2.368831157684326,
                -50.0
            ],
            [
                -3.232771635055542,
                2.275984287261963,
                -45.0
            ],
            [
                -3.043663501739502,
                2.1831376552581787,
                -40.0
            ],
            [
                -2.8545615673065186,
                2.0902912616729736,
                -35.0
            ],
            [
                -2.665466070175171,
                1.997444987297058,
                -30.0
            ],
            [
                -2.476377248764038,
                1.9045988321304321,
                -25.0
            ],
            [
                -2.28729510307312,
                1.8117527961730957,
                -20.0
            ],
            [
                -2.098219633102417,
                1.7189069986343384,
                -15.0
            ],
            [
                -1.9091514348983765,
                1.6260613203048706,
                -10.0
            ],
            [
                -1.7200902700424194,
                1.533215880393982,
                -5.0
            ],
            [
                -1.531036376953125,
                1.4403705596923828,
                0.0
            ],
            [
                -1.3419899940490723,
                1.3475253582000732,
                5.0
            ],
            [
                -1.1529511213302612,
                1.2546802759170532,
                10.0
            ],
            [
                -0.9639198780059814,
                1.1618354320526123,
                15.0
            ],
            [
                -0.774896502494812,
                1.0689908266067505,
                20.0
            ],
            [
                -0.5858811140060425,
                0.9761462807655334,
                25.0
            ],
            [
                -0.3968738913536072,
                0.8833019137382507,
                30.0
            ],
            [
                -0.2078748643398285,
                0.7904577255249023,
                35.0
            ],
            [
                -0.01888425461947918,
                0.6976137161254883,
                40.0
            ],
            [
                0.17009782791137695,
                0.6047698259353638,
                45.0
            ],
            [
                0.3590712249279022,
                0.5119261145591736,
                50.0
            ],
            [
                0.5480358600616455,
                0.4190825819969177,
                55.0
            ],
            [
                0.7369914650917053,
                0.3262391984462738,
                60.0
            ],
            [
                0.925938069820404,
                0.23339597880840302,
                65.0
            ],
            [
                1.114875316619873,
                0.14055293798446655,
                70.0
            ],
            [
                1.3038033246994019,
                0.04771004989743233,
                75.0
            ],
            [
                1.4927217960357666,
                -0.04513266682624817,
                80.0
            ],
            [
                1.6816306114196777,
                -0.13797521591186523,
                85.0
            ],
            [
                1.8705296516418457,
                -0.23081760108470917,
                90.0
            ],
            [
                2.0594186782836914,
                -0.3236598074436188,
                95.0
            ],
            [
                2.248297691345215,
                -0.41650187969207764,
                100.0
            ],
            [
                3.0037105083465576,
                -0.7878684401512146,
                120.0
            ],
            [
                3.758951187133789,
                -1.159232258796692,
                140.0
            ],
            [
                4.514091968536377,
                -1.530593752861023,
                160.0
            ],
            [
                5.269069194793701,
                -1.9018821716308594,
                180.0
            ],
            [
                6.023763656616211,
                -2.27323842048645,
                200.0
            ],
            [
                6.778280735015869,
                -2.644592046737671,
                220.0
            ],
            [
                7.5326080322265625,
                -3.0159430503845215,
                240.0
            ],
            [
                8.286733627319336,
                -3.387291669845581,
                260.0
            ],
            [
                9.040644645690918,
                -3.7586379051208496,
                280.0
            ],
            [
                9.794329643249512,
                -4.129981517791748,
                300.0
            ],
            [
                10.547776222229004,
                -4.5013227462768555,
                320.0
            ],
            [
                11.300970077514648,
                -4.872661590576172,
                340.0
            ],
            [
                12.053898811340332,
                -5.2439985275268555,
                360.0
            ],
            [
                12.806655883789063,
                -5.615332126617432,
                380.0
            ],
            [
                13.559086799621582,
                -5.986664295196533,
                400.0
            ],
            [
                14.311238288879395,
                -6.357994079589844,
                420.0
            ],
            [
                15.063102722167969,
                -6.7293219566345215,
                440.0
            ],
            [
                15.814669609069824,
                -7.100647449493408,
                460.0
            ],
            [
                16.56593132019043,
                -7.471970558166504,
                480.0
            ],
            [
                17.31686782836914,
                -7.843291759490967,
                500.0
            ],
            [
                18.067466735839844,
                -8.214611053466797,
                520.0
            ],
            [
                18.817724227905273,
                -8.585927963256836,
                540.0
            ],
            [
                19.567630767822266,
                -8.957243919372559,
                560.0
            ],
            [
                20.317176818847656,
                -9.328557014465332,
                580.0
            ],
            [
                21.066354751586914,
                -9.699868202209473,
                600.0
            ],
            [
                21.815141677856445,
                -10.071179389953613,
                620.0
            ],
            [
                22.56353759765625,
                -10.442489624023438,
                640.0
            ],
            [
                23.31150245666504,
                -10.813797950744629,
                660.0
            ],
            [
                24.05901336669922,
                -11.18510627746582,
                680.0
            ],
            [
                24.806068420410156,
                -11.556412696838379,
                700.0
            ],
            [
                25.552648544311523,
                -11.927717208862305,
                720.0
            ],
            [
                26.29875946044922,
                -12.299019813537598,
                740.0
            ],
            [
                27.04439353942871,
                -12.670320510864258,
                760.0
            ],
            [
                27.789533615112305,
                -13.041621208190918,
                780.0
            ],
            [
                28.5341739654541,
                -13.412920951843262,
                800.0
            ],
            [
                29.278295516967773,
                -13.784221649169922,
                820.0
            ],
            [
                30.021820068359375,
                -14.155533790588379,
                840.0
            ],
            [
                30.764795303344727,
                -14.526847839355469,
                860.0
            ],
            [
                31.50720977783203,
                -14.898163795471191,
                880.0
            ],
            [
                32.249046325683594,
                -15.269481658935547,
                900.0
            ],
            [
                32.99034881591797,
                -15.640801429748535,
                920.0
            ],
            [
                33.731056213378906,
                -16.012123107910156,
                940.0
            ],
            [
                34.47115707397461,
                -16.38344955444336,
                960.0
            ],
            [
                35.21063995361328,
                -16.754777908325195,
                980.0
            ],
            [
                35.94963836669922,
                -17.12609100341797,
                1000.0
            ],
            [
                39.63503646850586,
                -18.98265266418457,
                1100.0
            ],
            [
                43.30363082885742,
                -20.8392276763916,
                1200.0
            ],
            [
                46.953163146972656,
                -22.696136474609375,
                1300.0
            ],
            [
                50.58843994140625,
                -24.552875518798828,
                1400.0
            ],
            [
                54.20868682861328,
                -26.409709930419922,
                1500.0
            ],
            [
                57.811683654785156,
                -28.26658058166504,
                1600.0
            ],
            [
                61.39603042602539,
                -30.123504638671875,
                1700.0
            ],
            [
                64.96583557128906,
                -31.980281829833984,
                1800.0
            ],
            [
                68.51056671142578,
                -33.83708190917969,
                1900.0
            ],
            [
                72.03276062011719,
                -35.693851470947266,
                2000.0
            ],
            [
                75.52610778808594,
                -37.55056381225586,
                2100.0
            ],
            [
                78.98736572265625,
                -39.40720748901367,
                2200.0
            ],
            [
                82.39867401123047,
                -41.26469039916992,
                2300.0
            ],
            [
                85.76825714111328,
                -43.12154769897461,
                2400.0
            ],
            [
                89.07495880126953,
                -44.978172302246094,
                2500.0
            ],
            [
                92.31021881103516,
                -46.83476257324219,
                2600.0
            ],
            [
                95.45862579345703,
                -48.69134521484375,
                2700.0
            ],
            [
                98.50489807128906,
                -50.547786712646484,
                2800.0
            ],
            [
                101.43247985839844,
                -52.40404510498047,
                2900.0
            ],
            [
                104.21090698242188,
                -54.260345458984375,
                3000.0
            ],
            [
                106.83118438720703,
                -56.11649703979492,
                3100.0
            ],
            [
                109.26811218261719,
                -57.97201156616211,
                3200.0
            ],
            [
                111.46562194824219,
                -59.827613830566406,
                3300.0
            ],
            [
                113.43058013916016,
                -61.6822509765625,
                3400.0
            ],
            [
                115.1273422241211,
                -63.53667068481445,
                3500.0
            ],
            [
                116.53662872314453,
                -65.39097595214844,
                3600.0
            ],
            [
                117.62940216064453,
                -67.24559783935547,
                3700.0
            ],
            [
                118.37175750732422,
                -69.0997085571289,
                3800.0
            ],
            [
                118.7324447631836,
                -70.95369720458984,
                3900.0
            ],
            [
                118.71678924560547,
                -72.80938720703125,
                4000.0
            ],
            [
                118.27165222167969,
                -74.66593170166016,
                4100.0
            ],
            [
                117.37252807617188,
                -76.5232925415039,
                4200.0
            ],
            [
                116.02095794677734,
                -78.38079071044922,
                4300.0
            ],
            [
                114.2355728149414,
                -80.2397689819336,
                4400.0
            ],
            [
                111.97183227539063,
                -82.10145568847656,
                4500.0
            ],
            [
                109.23127746582031,
                -83.96304321289063,
                4600.0
            ],
            [
                106.00823974609375,
                -85.82634735107422,
                4700.0
            ],
            [
                102.31716918945313,
                -87.6896743774414,
                4800.0
            ],
            [
                101.89315795898438,
                -88.93569946289063,
                4900.0
            ],
            [
                97.3982925415039,
                -90.8227310180664,
                5000.0
            ],
            [
                92.41767883300781,
                -92.71247863769531,
                5100.0
            ],
            [
                86.97109985351563,
                -94.6030044555664,
                5200.0
            ],
            [
                81.0538330078125,
                -96.49674987792969,
                5300.0
            ],
            [
                74.68450164794922,
                -98.3889389038086,
                5400.0
            ],
            [
                67.87012481689453,
                -100.27995300292969,
                5500.0
            ],
            [
                60.613922119140625,
                -102.1758041381836,
                5600.0
            ],
            [
                52.9156494140625,
                -104.07067108154297,
                5700.0
            ],
            [
                44.78984451293945,
                -105.96735382080078,
                5800.0
            ],
            [
                36.26057052612305,
                -107.8646011352539,
                5900.0
            ],
            [
                27.313533782958984,
                -109.7630386352539,
                6000.0
            ],
            [
                17.975627899169922,
                -111.6625747680664,
                6100.0
            ],
            [
                8.258123397827148,
                -113.5618667602539,
                6200.0
            ],
            [
                -1.8270740509033203,
                -115.4607162475586,
                6300.0
            ],
            [
                -12.267326354980469,
                -117.35924530029297,
                6400.0
            ],
            [
                -23.05079460144043,
                -119.25694274902344,
                6500.0
            ],
            [
                -34.1634407043457,
                -121.1544418334961,
                6600.0
            ],
            [
                -45.59186553955078,
                -123.05137634277344,
                6700.0
            ],
            [
                -57.31528854370117,
                -124.94749450683594,
                6800.0
            ],
            [
                -69.33051300048828,
                -126.84209442138672,
                6900.0
            ],
            [
                -81.61528778076172,
                -128.7353515625,
                7000.0
            ],
            [
                -94.15204620361328,
                -130.62728881835938,
                7100.0
            ],
            [
                -106.92646789550781,
                -132.51788330078125,
                7200.0
            ],
            [
                -119.9269027709961,
                -134.40713500976563,
                7300.0
            ],
            [
                -133.1412353515625,
                -136.29476928710938,
                7400.0
            ],
            [
                -146.54513549804688,
                -138.18125915527344,
                7500.0
            ],
            [
                -160.135009765625,
                -140.066162109375,
                7600.0
            ],
            [
                -173.89181518554688,
                -141.9498291015625,
                7700.0
            ],
            [
                -187.8085174560547,
                -143.83229064941406,
                7800.0
            ],
            [
                -201.87176513671875,
                -145.71356201171875,
                7900.0
            ],
            [
                -216.06887817382813,
                -147.59378051757813,
                8000.0
            ],
            [
                -230.39266967773438,
                -149.47299194335938,
                8100.0
            ],
            [
                -244.82896423339844,
                -151.351318359375,
                8200.0
            ],
            [
                -259.37078857421875,
                -153.22879028320313,
                8300.0
            ],
            [
                -274.0102844238281,
                -155.10543823242188,
                8400.0
            ],
            [
                -288.7398376464844,
                -156.9813232421875,
                8500.0
            ],
            [
                -303.5487976074219,
                -158.85650634765625,
                8600.0
            ],
            [
                -318.4331970214844,
                -160.7310333251953,
                8700.0
            ],
            [
                -333.3861083984375,
                -162.60491943359375,
                8800.0
            ],
            [
                -348.4012145996094,
                -164.47828674316406,
                8900.0
            ],
            [
                -363.47406005859375,
                -166.35118103027344,
                9000.0
            ],
            [
                -378.59942626953125,
                -168.2236328125,
                9100.0
            ],
            [
                -393.7725524902344,
                -170.09571838378906,
                9200.0
            ],
            [
                -408.98944091796875,
                -171.9674835205078,
                9300.0
            ],
            [
                -424.2462463378906,
                -173.83895874023438,
                9400.0
            ],
            [
                -439.53924560546875,
                -175.71018981933594,
                9500.0
            ],
            [
                -454.86541748046875,
                -177.58120727539063,
                9600.0
            ],
            [
                -470.2217712402344,
                -179.45205688476563,
                9700.0
            ],
            [
                -485.60565185546875,
                -181.32275390625,
                9800.0
            ],
            [
                -501.01446533203125,
                -183.1933135986328,
                9900.0
            ],
            [
                -516.4461059570313,
                -185.06378173828125,
                10000.0
            ],
            [
                -547.3699951171875,
                -188.80447387695313,
                10200.0
            ],
            [
                -578.3632202148438,
                -192.54493713378906,
                10400.0
            ],
            [
                -609.4130249023438,
                -196.28529357910156,
                10600.0
            ],
            [
                -640.5112915039063,
                -200.0255889892578,
                10800.0
            ],
            [
                -671.6473999023438,
                -203.76588439941406,
                11000.0
            ],
            [
                -702.816162109375,
                -207.50621032714844,
                11200.0
            ],
            [
                -734.0126342773438,
                -211.24656677246094,
                11400.0
            ],
            [
                -765.22998046875,
                -214.98699951171875,
                11600.0
            ],
            [
                -796.4651489257813,
                -218.72752380371094,
                11800.0
            ],
            [
                -827.714111328125,
                -222.46812438964844,
                12000.0
            ],
            [
                -858.9771728515625,
                -226.20877075195313,
                12200.0
            ],
            [
                -890.2493286132813,
                -229.94949340820313,
                12400.0
            ],
            [
                -921.5272216796875,
                -233.69032287597656,
                12600.0
            ],
            [
                -952.8106689453125,
                -237.43121337890625,
                12800.0
            ],
            [
                -984.1004028320313,
                -241.172119140625,
                13000.0
            ],
            [
                -1015.3946533203125,
                -244.9130859375,
                13200.0
            ],
            [
                -1046.6912841796875,
                -248.65406799316406,
                13400.0
            ]
        ],
        "zFirstMeasurement": 274.1328
    }
]
