[
    {
        "E": 14294.36128790362,
        "chi2": 0.0,
        "ip": 0.04045121020145228,
        "ipchi2": 3.457622247094091,
        "mass": 1884.853,
        "particleId": "D0",
        "pvx": 0.5552,
        "pvy": 0.0492,
        "pvz": 83.5449,
        "px": -1461.13,
        "py": -2696.59,
        "pz": 13833.64,
        "q": 0.0,
        "trajectory": [
            [
                0.5551999807357788,
                0.04919999837875366,
                83.5448989868164
            ],
            [
                0.5389999747276306,
                -0.05620000138878822,
                84.08319854736328
            ]
        ],
        "zFirstMeasurement": -9999.0
    },
    {
        "E": 7342.473249093757,
        "chi2": 2.1325929164886475,
        "ip": 0.024982775304247303,
        "ipchi2": 0.5580202299239153,
        "mass": 493.677,
        "particleId": "K-",
        "pvx": 0.5552,
        "pvy": 0.0492,
        "pvz": 83.5449,
        "px": 115.04,
        "py": -1450.17,
        "pz": 7179.97,
        "q": -1.0,
        "trajectory": [
            [
                0.5393850207328796,
                -0.05414418876171112,
                84.08319854736328
            ],
            [
                0.6194925308227539,
                -1.064016342163086,
                89.08319854736328
            ],
            [
                0.6995915174484253,
                -2.0738883018493652,
                94.08319854736328
            ],
            [
                0.7796818614006042,
                -3.0837600231170654,
                99.08319854736328
            ],
            [
                0.8597634434700012,
                -4.093631744384766,
                104.08319854736328
            ],
            [
                1.1799802780151367,
                -8.13306713104248,
                124.08319854736328
            ],
            [
                1.5000718832015991,
                -12.172550201416016,
                144.0832061767578
            ],
            [
                1.8200124502182007,
                -16.2120304107666,
                164.0832061767578
            ],
            [
                2.1397922039031982,
                -20.251508712768555,
                184.0832061767578
            ],
            [
                2.4594016075134277,
                -24.290983200073242,
                204.0832061767578
            ],
            [
                2.7788312435150146,
                -28.330455780029297,
                224.0832061767578
            ],
            [
                3.098071336746216,
                -32.36992645263672,
                244.0832061767578
            ],
            [
                3.4171977043151855,
                -36.409393310546875,
                264.08319091796875
            ],
            [
                3.736084222793579,
                -40.44886016845703,
                284.08319091796875
            ],
            [
                4.054771423339844,
                -44.48832321166992,
                304.08319091796875
            ],
            [
                4.373249053955078,
                -48.52778244018555,
                324.08319091796875
            ],
            [
                4.691512107849121,
                -52.56724166870117,
                344.08319091796875
            ],
            [
                5.0095534324646,
                -56.60669708251953,
                364.08319091796875
            ],
            [
                5.327366352081299,
                -60.64615249633789,
                384.08319091796875
            ],
            [
                5.6449408531188965,
                -64.68560028076172,
                404.08319091796875
            ],
            [
                5.9622626304626465,
                -68.72505187988281,
                424.08319091796875
            ],
            [
                6.279331207275391,
                -72.76449584960938,
                444.08319091796875
            ],
            [
                6.596139907836914,
                -76.80393981933594,
                464.08319091796875
            ],
            [
                6.912680625915527,
                -80.8433837890625,
                484.08319091796875
            ],
            [
                7.228945255279541,
                -84.88282775878906,
                504.08319091796875
            ],
            [
                7.544919013977051,
                -88.9222640991211,
                524.0831909179688
            ],
            [
                7.860601902008057,
                -92.96170043945313,
                544.0831909179688
            ],
            [
                8.175986289978027,
                -97.00113677978516,
                564.0831909179688
            ],
            [
                8.49101448059082,
                -101.04056549072266,
                584.0831909179688
            ],
            [
                8.805720329284668,
                -105.07999420166016,
                604.0831909179688
            ],
            [
                9.120080947875977,
                -109.11942291259766,
                624.0831909179688
            ],
            [
                9.434093475341797,
                -113.15885162353516,
                644.0831909179688
            ],
            [
                9.74772834777832,
                -117.19828033447266,
                664.0831909179688
            ],
            [
                10.060998916625977,
                -121.23770904541016,
                684.0831909179688
            ],
            [
                10.373897552490234,
                -125.27713012695313,
                704.0831909179688
            ],
            [
                10.686412811279297,
                -129.31654357910156,
                724.0831909179688
            ],
            [
                10.998469352722168,
                -133.35597229003906,
                744.0831909179688
            ],
            [
                11.31008243560791,
                -137.39540100097656,
                764.0831909179688
            ],
            [
                11.621272087097168,
                -141.43482971191406,
                784.0831909179688
            ],
            [
                11.93203353881836,
                -145.4742431640625,
                804.0831909179688
            ],
            [
                12.242368698120117,
                -149.513671875,
                824.0831909179688
            ],
            [
                12.552255630493164,
                -153.55311584472656,
                844.0831909179688
            ],
            [
                12.861687660217285,
                -157.59254455566406,
                864.0831909179688
            ],
            [
                13.170682907104492,
                -161.63197326660156,
                884.0831909179688
            ],
            [
                13.47916030883789,
                -165.6714324951172,
                904.0831909179688
            ],
            [
                13.78708553314209,
                -169.7108917236328,
                924.0831909179688
            ],
            [
                14.094503402709961,
                -173.7503662109375,
                944.0831909179688
            ],
            [
                14.40140438079834,
                -177.78985595703125,
                964.0831909179688
            ],
            [
                14.707667350769043,
                -181.829345703125,
                984.0831909179688
            ],
            [
                15.01331615447998,
                -185.86883544921875,
                1004.0831909179688
            ],
            [
                16.533912658691406,
                -206.06619262695313,
                1104.083251953125
            ],
            [
                18.034751892089844,
                -226.2636260986328,
                1204.083251953125
            ],
            [
                19.524078369140625,
                -246.46128845214844,
                1304.083251953125
            ],
            [
                20.99908447265625,
                -266.6591491699219,
                1404.083251953125
            ],
            [
                22.46082878112793,
                -286.8568115234375,
                1504.083251953125
            ],
            [
                23.91012954711914,
                -307.0545349121094,
                1604.083251953125
            ],
            [
                25.348482131958008,
                -327.2523498535156,
                1704.083251953125
            ],
            [
                26.772438049316406,
                -347.4503479003906,
                1804.083251953125
            ],
            [
                28.18383026123047,
                -367.64837646484375,
                1904.083251953125
            ],
            [
                29.58135223388672,
                -387.84625244140625,
                2004.083251953125
            ],
            [
                30.96311378479004,
                -408.0438537597656,
                2104.083251953125
            ],
            [
                32.3242301940918,
                -428.24176025390625,
                2204.083251953125
            ],
            [
                33.67392349243164,
                -448.43914794921875,
                2304.083251953125
            ],
            [
                35.00111389160156,
                -468.63665771484375,
                2404.083251953125
            ],
            [
                36.29933166503906,
                -488.83349609375,
                2504.083251953125
            ],
            [
                37.556793212890625,
                -509.0299377441406,
                2604.083251953125
            ],
            [
                38.775638580322266,
                -529.2263793945313,
                2704.083251953125
            ],
            [
                39.94268798828125,
                -549.4216918945313,
                2804.083251953125
            ],
            [
                41.03143310546875,
                -569.6163330078125,
                2904.083251953125
            ],
            [
                42.03472137451172,
                -589.8102416992188,
                3004.083251953125
            ],
            [
                42.95442581176758,
                -610.0021362304688,
                3104.083251953125
            ],
            [
                43.74235534667969,
                -630.1907958984375,
                3204.083251953125
            ],
            [
                44.39522171020508,
                -650.3763427734375,
                3304.083251953125
            ],
            [
                44.87742614746094,
                -670.5626220703125,
                3404.083251953125
            ],
            [
                45.160064697265625,
                -690.7501220703125,
                3504.083251953125
            ],
            [
                45.225341796875,
                -710.9363403320313,
                3604.083251953125
            ],
            [
                45.02141571044922,
                -731.120849609375,
                3704.083251953125
            ],
            [
                44.45537185668945,
                -751.30419921875,
                3804.083251953125
            ],
            [
                43.51546859741211,
                -771.4937744140625,
                3904.083251953125
            ],
            [
                42.157135009765625,
                -791.6891479492188,
                4004.083251953125
            ],
            [
                40.398685455322266,
                -811.892333984375,
                4104.0830078125
            ],
            [
                38.07485580444336,
                -832.0944213867188,
                4204.0830078125
            ],
            [
                35.26530075073242,
                -852.3097534179688,
                4304.0830078125
            ],
            [
                31.952970504760742,
                -872.53515625,
                4404.0830078125
            ],
            [
                28.080400466918945,
                -892.7564086914063,
                4504.0830078125
            ],
            [
                23.771303176879883,
                -912.984130859375,
                4604.0830078125
            ],
            [
                18.795358657836914,
                -933.2138671875,
                4704.0830078125
            ],
            [
                12.077634811401367,
                -948.4385986328125,
                4804.0830078125
            ],
            [
                6.073803901672363,
                -968.5824584960938,
                4904.0830078125
            ],
            [
                -0.41621389985084534,
                -988.7162475585938,
                5004.0830078125
            ],
            [
                -7.465661525726318,
                -1008.8663330078125,
                5104.0830078125
            ],
            [
                -14.934796333312988,
                -1029.0128173828125,
                5204.0830078125
            ],
            [
                -22.91175079345703,
                -1049.1607666015625,
                5304.0830078125
            ],
            [
                -31.30937957763672,
                -1069.3050537109375,
                5404.0830078125
            ],
            [
                -40.16867446899414,
                -1089.4600830078125,
                5504.0830078125
            ],
            [
                -49.491756439208984,
                -1109.6217041015625,
                5604.0830078125
            ],
            [
                -59.256011962890625,
                -1129.772216796875,
                5704.0830078125
            ],
            [
                -69.4825439453125,
                -1149.9324951171875,
                5804.0830078125
            ],
            [
                -80.12627410888672,
                -1170.0860595703125,
                5904.0830078125
            ],
            [
                -91.2607192993164,
                -1190.2447509765625,
                6004.0830078125
            ],
            [
                -102.80188751220703,
                -1210.39892578125,
                6104.0830078125
            ],
            [
                -114.7515869140625,
                -1230.5418701171875,
                6204.0830078125
            ],
            [
                -127.12770080566406,
                -1250.6815185546875,
                6304.0830078125
            ],
            [
                -139.9324188232422,
                -1270.8154296875,
                6404.0830078125
            ],
            [
                -153.1603546142578,
                -1290.93408203125,
                6504.0830078125
            ],
            [
                -166.78512573242188,
                -1311.0391845703125,
                6604.0830078125
            ],
            [
                -180.78582763671875,
                -1331.124267578125,
                6704.0830078125
            ],
            [
                -195.15359497070313,
                -1351.186279296875,
                6804.0830078125
            ],
            [
                -209.86175537109375,
                -1371.22021484375,
                6904.0830078125
            ],
            [
                -224.86532592773438,
                -1391.226806640625,
                7004.0830078125
            ],
            [
                -240.12356567382813,
                -1411.2030029296875,
                7104.0830078125
            ],
            [
                -255.61302185058594,
                -1431.147705078125,
                7204.0830078125
            ],
            [
                -271.2940979003906,
                -1451.0618896484375,
                7304.0830078125
            ],
            [
                -287.1532897949219,
                -1470.945068359375,
                7404.0830078125
            ],
            [
                -303.1513977050781,
                -1490.8017578125,
                7504.0830078125
            ],
            [
                -319.2760314941406,
                -1510.630126953125,
                7604.0830078125
            ],
            [
                -335.4991455078125,
                -1530.4342041015625,
                7704.0830078125
            ],
            [
                -351.8077087402344,
                -1550.215087890625,
                7804.0830078125
            ],
            [
                -368.1884765625,
                -1569.974853515625,
                7904.0830078125
            ],
            [
                -384.62884521484375,
                -1589.7159423828125,
                8004.0830078125
            ],
            [
                -401.12005615234375,
                -1609.4395751953125,
                8104.0830078125
            ],
            [
                -417.653076171875,
                -1629.1488037109375,
                8204.0830078125
            ],
            [
                -434.22174072265625,
                -1648.8446044921875,
                8304.0830078125
            ],
            [
                -450.82122802734375,
                -1668.528564453125,
                8404.0830078125
            ],
            [
                -467.4476623535156,
                -1688.2020263671875,
                8504.0830078125
            ],
            [
                -484.0956726074219,
                -1707.8668212890625,
                8604.0830078125
            ],
            [
                -500.7637939453125,
                -1727.5234375,
                8704.0830078125
            ],
            [
                -517.4493408203125,
                -1747.17333984375,
                8804.0830078125
            ],
            [
                -534.1506958007813,
                -1766.8172607421875,
                8904.0830078125
            ],
            [
                -550.865966796875,
                -1786.4560546875,
                9004.0830078125
            ],
            [
                -567.5935668945313,
                -1806.0904541015625,
                9104.0830078125
            ],
            [
                -584.332275390625,
                -1825.7210693359375,
                9204.0830078125
            ],
            [
                -601.0807495117188,
                -1845.3485107421875,
                9304.0830078125
            ],
            [
                -617.8380737304688,
                -1864.9732666015625,
                9404.0830078125
            ],
            [
                -634.603271484375,
                -1884.5958251953125,
                9504.0830078125
            ],
            [
                -651.3755493164063,
                -1904.216552734375,
                9604.0830078125
            ],
            [
                -668.1541137695313,
                -1923.835693359375,
                9704.0830078125
            ],
            [
                -684.9384155273438,
                -1943.45361328125,
                9804.0830078125
            ],
            [
                -701.727783203125,
                -1963.070556640625,
                9904.0830078125
            ],
            [
                -718.5217895507813,
                -1982.686767578125,
                10004.0830078125
            ],
            [
                -752.121826171875,
                -2021.91748046875,
                10204.0830078125
            ],
            [
                -785.7352294921875,
                -2061.146728515625,
                10404.0830078125
            ],
            [
                -819.3593139648438,
                -2100.3759765625,
                10604.0830078125
            ],
            [
                -852.9921264648438,
                -2139.60498046875,
                10804.0830078125
            ],
            [
                -886.6318969726563,
                -2178.8349609375,
                11004.0830078125
            ],
            [
                -920.2772216796875,
                -2218.0654296875,
                11204.0830078125
            ],
            [
                -953.9268188476563,
                -2257.297119140625,
                11404.0830078125
            ],
            [
                -987.5796508789063,
                -2296.529541015625,
                11604.0830078125
            ],
            [
                -1021.2352905273438,
                -2335.763427734375,
                11804.0830078125
            ],
            [
                -1054.892822265625,
                -2374.998291015625,
                12004.0830078125
            ],
            [
                -1088.5517578125,
                -2414.234130859375,
                12204.0830078125
            ],
            [
                -1122.2117919921875,
                -2453.470458984375,
                12404.0830078125
            ],
            [
                -1155.872314453125,
                -2492.708251953125,
                12604.0830078125
            ],
            [
                -1189.533447265625,
                -2531.94677734375,
                12804.0830078125
            ],
            [
                -1223.19482421875,
                -2571.185546875,
                13004.0830078125
            ],
            [
                -1256.8564453125,
                -2610.4248046875,
                13204.0830078125
            ],
            [
                -1290.51806640625,
                -2649.66455078125,
                13404.0830078125
            ]
        ],
        "zFirstMeasurement": 154.0981
    },
    {
        "E": 6951.873974253075,
        "chi2": 1.1370056867599487,
        "ip": 0.11002174480945102,
        "ipchi2": 17.79135629943063,
        "mass": 139.57,
        "particleId": "pi+",
        "pvx": 0.5552,
        "pvy": 0.0492,
        "pvz": 83.5449,
        "px": -1576.28,
        "py": -1246.39,
        "pz": 6653.64,
        "q": 1.0,
        "trajectory": [
            [
                0.5400672554969788,
                -0.059104375541210175,
                84.08319854736328
            ],
            [
                -0.6444529294967651,
                -0.9957261681556702,
                89.08319854736328
            ],
            [
                -1.8289635181427002,
                -1.9323474168777466,
                94.08319854736328
            ],
            [
                -3.0134036540985107,
                -2.868967056274414,
                99.08319854736328
            ],
            [
                -4.19789457321167,
                -3.80558705329895,
                104.08319854736328
            ],
            [
                -8.935757637023926,
                -7.552061080932617,
                124.08319854736328
            ],
            [
                -13.673450469970703,
                -11.298523902893066,
                144.0832061767578
            ],
            [
                -18.41096305847168,
                -15.044974327087402,
                164.0832061767578
            ],
            [
                -23.148284912109375,
                -18.791412353515625,
                184.0832061767578
            ],
            [
                -27.88540267944336,
                -22.5378360748291,
                204.0832061767578
            ],
            [
                -32.62241744995117,
                -26.284255981445313,
                224.0832061767578
            ],
            [
                -37.359169006347656,
                -30.030654907226563,
                244.0832061767578
            ],
            [
                -42.095706939697266,
                -33.77703857421875,
                264.08319091796875
            ],
            [
                -46.8320198059082,
                -37.52340316772461,
                284.08319091796875
            ],
            [
                -51.56810760498047,
                -41.26975631713867,
                304.08319091796875
            ],
            [
                -56.303958892822266,
                -45.01608657836914,
                324.08319091796875
            ],
            [
                -61.0395622253418,
                -48.76240158081055,
                344.08319091796875
            ],
            [
                -65.77491760253906,
                -52.50869369506836,
                364.08319091796875
            ],
            [
                -70.510009765625,
                -56.254966735839844,
                384.08319091796875
            ],
            [
                -75.24484252929688,
                -60.001216888427734,
                404.08319091796875
            ],
            [
                -79.97937774658203,
                -63.747440338134766,
                424.08319091796875
            ],
            [
                -84.71360778808594,
                -67.49364471435547,
                444.08319091796875
            ],
            [
                -89.44754028320313,
                -71.23982238769531,
                464.08319091796875
            ],
            [
                -94.18115997314453,
                -74.98596954345703,
                484.08319091796875
            ],
            [
                -98.91446685791016,
                -78.73209381103516,
                504.08319091796875
            ],
            [
                -103.6474380493164,
                -82.47818756103516,
                524.0831909179688
            ],
            [
                -108.38007354736328,
                -86.22425079345703,
                544.0831909179688
            ],
            [
                -113.11235809326172,
                -89.97028350830078,
                564.0831909179688
            ],
            [
                -117.84429931640625,
                -93.7162857055664,
                584.0831909179688
            ],
            [
                -122.57581329345703,
                -97.4622573852539,
                604.0831909179688
            ],
            [
                -127.30689239501953,
                -101.20819854736328,
                624.0831909179688
            ],
            [
                -132.03758239746094,
                -104.95410919189453,
                644.0831909179688
            ],
            [
                -136.76785278320313,
                -108.69998168945313,
                664.0831909179688
            ],
            [
                -141.49769592285156,
                -112.4458236694336,
                684.0831909179688
            ],
            [
                -146.22711181640625,
                -116.1916275024414,
                704.0831909179688
            ],
            [
                -150.9561309814453,
                -119.93742370605469,
                724.0831909179688
            ],
            [
                -155.68467712402344,
                -123.68317413330078,
                744.0831909179688
            ],
            [
                -160.41270446777344,
                -127.42890167236328,
                764.0831909179688
            ],
            [
                -165.14013671875,
                -131.17459106445313,
                784.0831909179688
            ],
            [
                -169.8670654296875,
                -134.9202423095703,
                804.0831909179688
            ],
            [
                -174.593505859375,
                -138.66586303710938,
                824.0831909179688
            ],
            [
                -179.31939697265625,
                -142.4114532470703,
                844.0831909179688
            ],
            [
                -184.04473876953125,
                -146.15701293945313,
                864.0831909179688
            ],
            [
                -188.76953125,
                -149.9025421142578,
                884.0831909179688
            ],
            [
                -193.4937744140625,
                -153.64804077148438,
                904.0831909179688
            ],
            [
                -198.21751403808594,
                -157.39349365234375,
                924.0831909179688
            ],
            [
                -202.9403533935547,
                -161.13897705078125,
                944.0831909179688
            ],
            [
                -207.66253662109375,
                -164.88446044921875,
                964.0831909179688
            ],
            [
                -212.3840789794922,
                -168.62991333007813,
                984.0831909179688
            ],
            [
                -217.10501098632813,
                -172.37533569335938,
                1004.0831909179688
            ],
            [
                -240.7002716064453,
                -191.10215759277344,
                1104.083251953125
            ],
            [
                -264.2724914550781,
                -209.8306884765625,
                1204.083251953125
            ],
            [
                -287.8302001953125,
                -228.5591278076172,
                1304.083251953125
            ],
            [
                -311.37109375,
                -247.28814697265625,
                1404.083251953125
            ],
            [
                -334.8941650390625,
                -266.0175476074219,
                1504.083251953125
            ],
            [
                -358.405517578125,
                -284.7474365234375,
                1604.083251953125
            ],
            [
                -381.90179443359375,
                -303.4765319824219,
                1704.083251953125
            ],
            [
                -405.3818054199219,
                -322.20501708984375,
                1804.083251953125
            ],
            [
                -428.8448486328125,
                -340.931640625,
                1904.083251953125
            ],
            [
                -452.2931823730469,
                -359.6544494628906,
                2004.083251953125
            ],
            [
                -475.7174377441406,
                -378.3722839355469,
                2104.083251953125
            ],
            [
                -499.1144104003906,
                -397.0851745605469,
                2204.083251953125
            ],
            [
                -522.5034790039063,
                -415.7880554199219,
                2304.083251953125
            ],
            [
                -545.8589477539063,
                -434.47869873046875,
                2404.083251953125
            ],
            [
                -569.181396484375,
                -453.1510925292969,
                2504.083251953125
            ],
            [
                -592.4523315429688,
                -471.80267333984375,
                2604.083251953125
            ],
            [
                -615.67724609375,
                -490.42877197265625,
                2704.083251953125
            ],
            [
                -638.8252563476563,
                -509.0267333984375,
                2804.083251953125
            ],
            [
                -661.8941040039063,
                -527.59033203125,
                2904.083251953125
            ],
            [
                -684.8604125976563,
                -546.1129150390625,
                3004.083251953125
            ],
            [
                -707.7149047851563,
                -564.594482421875,
                3104.083251953125
            ],
            [
                -730.406982421875,
                -583.0281982421875,
                3204.083251953125
            ],
            [
                -752.9539184570313,
                -601.40283203125,
                3304.083251953125
            ],
            [
                -775.3020629882813,
                -619.7175903320313,
                3404.083251953125
            ],
            [
                -797.4166259765625,
                -637.9583740234375,
                3504.083251953125
            ],
            [
                -819.2700805664063,
                -656.1283569335938,
                3604.083251953125
            ],
            [
                -840.8056030273438,
                -674.2352905273438,
                3704.083251953125
            ],
            [
                -861.9669799804688,
                -692.2685546875,
                3804.083251953125
            ],
            [
                -882.7285766601563,
                -710.2302856445313,
                3904.083251953125
            ],
            [
                -903.0145263671875,
                -728.1253051757813,
                4004.083251953125
            ],
            [
                -922.8683471679688,
                -745.9716796875,
                4104.0830078125
            ],
            [
                -942.126220703125,
                -763.7880249023438,
                4204.0830078125
            ],
            [
                -960.8674926757813,
                -781.5421752929688,
                4304.0830078125
            ],
            [
                -979.0720825195313,
                -799.2537231445313,
                4404.0830078125
            ],
            [
                -996.7146606445313,
                -816.9491577148438,
                4504.0830078125
            ],
            [
                -1013.827880859375,
                -834.6286010742188,
                4604.0830078125
            ],
            [
                -1030.3297119140625,
                -852.2883911132813,
                4704.0830078125
            ],
            [
                -1052.803466796875,
                -877.2853393554688,
                4804.0830078125
            ],
            [
                -1068.3380126953125,
                -895.1428833007813,
                4904.0830078125
            ],
            [
                -1083.3836669921875,
                -913.001708984375,
                5004.0830078125
            ],
            [
                -1097.8818359375,
                -930.8504638671875,
                5104.0830078125
            ],
            [
                -1111.89453125,
                -948.6979370117188,
                5204.0830078125
            ],
            [
                -1125.3778076171875,
                -966.5440063476563,
                5304.0830078125
            ],
            [
                -1138.3748779296875,
                -984.3961181640625,
                5404.0830078125
            ],
            [
                -1150.9149169921875,
                -1002.2457885742188,
                5504.0830078125
            ],
            [
                -1162.9554443359375,
                -1020.08984375,
                5604.0830078125
            ],
            [
                -1174.5325927734375,
                -1037.9400634765625,
                5704.0830078125
            ],
            [
                -1185.6263427734375,
                -1055.7943115234375,
                5804.0830078125
            ],
            [
                -1196.304443359375,
                -1073.650634765625,
                5904.0830078125
            ],
            [
                -1206.50732421875,
                -1091.507568359375,
                6004.0830078125
            ],
            [
                -1216.279296875,
                -1109.3663330078125,
                6104.0830078125
            ],
            [
                -1225.6199951171875,
                -1127.231201171875,
                6204.0830078125
            ],
            [
                -1234.5343017578125,
                -1145.0960693359375,
                6304.0830078125
            ],
            [
                -1243.0286865234375,
                -1162.9625244140625,
                6404.0830078125
            ],
            [
                -1251.1234130859375,
                -1180.834716796875,
                6504.0830078125
            ],
            [
                -1258.8187255859375,
                -1198.7091064453125,
                6604.0830078125
            ],
            [
                -1266.14794921875,
                -1216.5869140625,
                6704.0830078125
            ],
            [
                -1273.131591796875,
                -1234.467041015625,
                6804.0830078125
            ],
            [
                -1279.7822265625,
                -1252.3529052734375,
                6904.0830078125
            ],
            [
                -1286.136962890625,
                -1270.2408447265625,
                7004.0830078125
            ],
            [
                -1292.228759765625,
                -1288.129638671875,
                7104.0830078125
            ],
            [
                -1298.0836181640625,
                -1306.0189208984375,
                7204.0830078125
            ],
            [
                -1303.73876953125,
                -1323.9068603515625,
                7304.0830078125
            ],
            [
                -1309.20263671875,
                -1341.794189453125,
                7404.0830078125
            ],
            [
                -1314.5169677734375,
                -1359.677001953125,
                7504.0830078125
            ],
            [
                -1319.6884765625,
                -1377.5562744140625,
                7604.0830078125
            ],
            [
                -1324.7479248046875,
                -1395.4290771484375,
                7704.0830078125
            ],
            [
                -1329.7061767578125,
                -1413.2955322265625,
                7804.0830078125
            ],
            [
                -1334.578369140625,
                -1431.1544189453125,
                7904.0830078125
            ],
            [
                -1339.37744140625,
                -1449.0052490234375,
                8004.0830078125
            ],
            [
                -1344.1126708984375,
                -1466.84765625,
                8104.0830078125
            ],
            [
                -1348.79443359375,
                -1484.6812744140625,
                8204.0830078125
            ],
            [
                -1353.429931640625,
                -1502.5059814453125,
                8304.0830078125
            ],
            [
                -1358.0247802734375,
                -1520.3216552734375,
                8404.0830078125
            ],
            [
                -1362.5838623046875,
                -1538.1282958984375,
                8504.0830078125
            ],
            [
                -1367.114013671875,
                -1555.9263916015625,
                8604.0830078125
            ],
            [
                -1371.616943359375,
                -1573.7158203125,
                8704.0830078125
            ],
            [
                -1376.0965576171875,
                -1591.4970703125,
                8804.0830078125
            ],
            [
                -1380.5550537109375,
                -1609.2703857421875,
                8904.0830078125
            ],
            [
                -1384.994873046875,
                -1627.0361328125,
                9004.0830078125
            ],
            [
                -1389.4180908203125,
                -1644.7945556640625,
                9104.0830078125
            ],
            [
                -1393.8265380859375,
                -1662.5460205078125,
                9204.0830078125
            ],
            [
                -1398.2218017578125,
                -1680.2908935546875,
                9304.0830078125
            ],
            [
                -1402.605224609375,
                -1698.0296630859375,
                9404.0830078125
            ],
            [
                -1406.9781494140625,
                -1715.7626953125,
                9504.0830078125
            ],
            [
                -1411.341552734375,
                -1733.4901123046875,
                9604.0830078125
            ],
            [
                -1415.696533203125,
                -1751.2125244140625,
                9704.0830078125
            ],
            [
                -1420.0438232421875,
                -1768.93017578125,
                9804.0830078125
            ],
            [
                -1424.38427734375,
                -1786.6434326171875,
                9904.0830078125
            ],
            [
                -1428.718505859375,
                -1804.3524169921875,
                10004.0830078125
            ],
            [
                -1437.3707275390625,
                -1839.7591552734375,
                10204.0830078125
            ],
            [
                -1446.0048828125,
                -1875.1524658203125,
                10404.0830078125
            ],
            [
                -1454.62451171875,
                -1910.533935546875,
                10604.0830078125
            ],
            [
                -1463.2320556640625,
                -1945.9052734375,
                10804.0830078125
            ],
            [
                -1471.830322265625,
                -1981.2679443359375,
                11004.0830078125
            ],
            [
                -1480.4207763671875,
                -2016.623046875,
                11204.0830078125
            ],
            [
                -1489.005126953125,
                -2051.971435546875,
                11404.0830078125
            ],
            [
                -1497.5848388671875,
                -2087.314208984375,
                11604.0830078125
            ],
            [
                -1506.160888671875,
                -2122.652099609375,
                11804.0830078125
            ],
            [
                -1514.7340087890625,
                -2157.986083984375,
                12004.0830078125
            ],
            [
                -1523.3046875,
                -2193.316162109375,
                12204.0830078125
            ],
            [
                -1531.873779296875,
                -2228.6435546875,
                12404.0830078125
            ],
            [
                -1540.44189453125,
                -2263.96826171875,
                12604.0830078125
            ],
            [
                -1549.00927734375,
                -2299.291259765625,
                12804.0830078125
            ],
            [
                -1557.57568359375,
                -2334.6123046875,
                13004.0830078125
            ],
            [
                -1566.1417236328125,
                -2369.93212890625,
                13204.0830078125
            ],
            [
                -1574.7073974609375,
                -2405.2509765625,
                13404.0830078125
            ]
        ],
        "zFirstMeasurement": 111.2484
    },
    {
        "E": 2738.0295864079394,
        "chi2": 1.0144753456115723,
        "ip": 4.893078195740554,
        "ipchi2": 1647.8917029284169,
        "mass": 139.57018,
        "particleId": "pi-",
        "pvx": 0.5552,
        "pvy": 0.0492,
        "pvz": 83.5449,
        "px": -137.64053682652337,
        "py": -342.0950302457756,
        "pz": 2709.4929883288582,
        "q": -1.0,
        "trajectory": [
            [
                14.32289981842041,
                21.203744888305664,
                -100.0
            ],
            [
                14.069573402404785,
                20.572452545166016,
                -95.0
            ],
            [
                13.816232681274414,
                19.941160202026367,
                -90.0
            ],
            [
                13.56287670135498,
                19.30986976623535,
                -85.0
            ],
            [
                13.309504508972168,
                18.678577423095703,
                -80.0
            ],
            [
                13.05611801147461,
                18.047286987304688,
                -75.0
            ],
            [
                12.802714347839355,
                17.415996551513672,
                -70.0
            ],
            [
                12.549295425415039,
                16.784704208374023,
                -65.0
            ],
            [
                12.295860290527344,
                16.153413772583008,
                -60.0
            ],
            [
                12.04240894317627,
                15.522123336791992,
                -55.0
            ],
            [
                11.788938522338867,
                14.890832901000977,
                -50.0
            ],
            [
                11.535451889038086,
                14.259541511535645,
                -45.0
            ],
            [
                11.281949043273926,
                13.628251075744629,
                -40.0
            ],
            [
                11.028428077697754,
                12.996960639953613,
                -35.0
            ],
            [
                10.774890899658203,
                12.365670204162598,
                -30.0
            ],
            [
                10.52133560180664,
                11.734379768371582,
                -25.0
            ],
            [
                10.267763137817383,
                11.103090286254883,
                -20.0
            ],
            [
                10.014313697814941,
                10.4718017578125,
                -15.0
            ],
            [
                9.7606840133667,
                9.840511322021484,
                -10.0
            ],
            [
                9.507039070129395,
                9.209220886230469,
                -5.0
            ],
            [
                9.253376960754395,
                8.57793140411377,
                0.0
            ],
            [
                8.9996976852417,
                7.946640968322754,
                5.0
            ],
            [
                8.746001243591309,
                7.315350532531738,
                10.0
            ],
            [
                8.492287635803223,
                6.684060573577881,
                15.0
            ],
            [
                8.238556861877441,
                6.052770614624023,
                20.0
            ],
            [
                7.984806537628174,
                5.421480655670166,
                25.0
            ],
            [
                7.7310380935668945,
                4.790190696716309,
                30.0
            ],
            [
                7.477251052856445,
                4.158900737762451,
                35.0
            ],
            [
                7.22344446182251,
                3.527611017227173,
                40.0
            ],
            [
                6.969618797302246,
                2.8963212966918945,
                45.0
            ],
            [
                6.71577262878418,
                2.265031337738037,
                50.0
            ],
            [
                6.461906433105469,
                1.6337417364120483,
                55.0
            ],
            [
                6.208019733428955,
                1.00245201587677,
                60.0
            ],
            [
                5.9541120529174805,
                0.3711622357368469,
                65.0
            ],
            [
                5.700183391571045,
                -0.2601274847984314,
                70.0
            ],
            [
                5.446232795715332,
                -0.8914172053337097,
                75.0
            ],
            [
                5.192260265350342,
                -1.5227069854736328,
                80.0
            ],
            [
                4.938265800476074,
                -2.153996706008911,
                85.0
            ],
            [
                4.684248447418213,
                -2.7852864265441895,
                90.0
            ],
            [
                4.430208206176758,
                -3.4165761470794678,
                95.0
            ],
            [
                4.176145076751709,
                -4.047865867614746,
                100.0
            ],
            [
                3.1596522331237793,
                -6.573025703430176,
                120.0
            ],
            [
                2.1427536010742188,
                -9.098186492919922,
                140.0
            ],
            [
                1.1255288124084473,
                -11.623358726501465,
                160.0
            ],
            [
                0.10780929774045944,
                -14.148521423339844,
                180.0
            ],
            [
                -0.9103446006774902,
                -16.673686981201172,
                200.0
            ],
            [
                -1.9289597272872925,
                -19.198854446411133,
                220.0
            ],
            [
                -2.9480645656585693,
                -21.72402572631836,
                240.0
            ],
            [
                -3.9676878452301025,
                -24.24919891357422,
                260.0
            ],
            [
                -4.987858772277832,
                -26.774377822875977,
                280.0
            ],
            [
                -6.0084004402160645,
                -29.299556732177734,
                300.0
            ],
            [
                -7.029605388641357,
                -31.824743270874023,
                320.0
            ],
            [
                -8.051386833190918,
                -34.34993362426758,
                340.0
            ],
            [
                -9.07376480102539,
                -36.87512969970703,
                360.0
            ],
            [
                -10.096763610839844,
                -39.400333404541016,
                380.0
            ],
            [
                -11.120404243469238,
                -41.92554473876953,
                400.0
            ],
            [
                -12.144712448120117,
                -44.45075988769531,
                420.0
            ],
            [
                -13.169703483581543,
                -46.97598648071289,
                440.0
            ],
            [
                -14.195396423339844,
                -49.501220703125,
                460.0
            ],
            [
                -15.221813201904297,
                -52.02646255493164,
                480.0
            ],
            [
                -16.248971939086914,
                -54.55171585083008,
                500.0
            ],
            [
                -17.276912689208984,
                -57.07698059082031,
                520.0
            ],
            [
                -18.305679321289063,
                -59.60225296020508,
                540.0
            ],
            [
                -19.33536720275879,
                -62.127540588378906,
                560.0
            ],
            [
                -20.365915298461914,
                -64.65283966064453,
                580.0
            ],
            [
                -21.397350311279297,
                -67.17815399169922,
                600.0
            ],
            [
                -22.429723739624023,
                -69.70347595214844,
                620.0
            ],
            [
                -23.463037490844727,
                -72.22881317138672,
                640.0
            ],
            [
                -24.497312545776367,
                -74.7541732788086,
                660.0
            ],
            [
                -25.532573699951172,
                -77.279541015625,
                680.0
            ],
            [
                -26.568845748901367,
                -79.80492401123047,
                700.0
            ],
            [
                -27.60633087158203,
                -82.330322265625,
                720.0
            ],
            [
                -28.644908905029297,
                -84.85572814941406,
                740.0
            ],
            [
                -29.684598922729492,
                -87.38115692138672,
                760.0
            ],
            [
                -30.725425720214844,
                -89.90660095214844,
                780.0
            ],
            [
                -31.767417907714844,
                -92.43206024169922,
                800.0
            ],
            [
                -32.81056594848633,
                -94.95753479003906,
                820.0
            ],
            [
                -33.85491943359375,
                -97.48302459716797,
                840.0
            ],
            [
                -34.9005126953125,
                -100.00853729248047,
                860.0
            ],
            [
                -35.947792053222656,
                -102.53407287597656,
                880.0
            ],
            [
                -36.9967155456543,
                -105.05962371826172,
                900.0
            ],
            [
                -38.046878814697266,
                -107.58518981933594,
                920.0
            ],
            [
                -39.09845733642578,
                -110.11077880859375,
                940.0
            ],
            [
                -40.15148162841797,
                -112.63638305664063,
                960.0
            ],
            [
                -41.20598220825195,
                -115.16200256347656,
                980.0
            ],
            [
                -42.261985778808594,
                -117.68762969970703,
                1000.0
            ],
            [
                -47.56227111816406,
                -130.31553649902344,
                1100.0
            ],
            [
                -52.912322998046875,
                -142.94326782226563,
                1200.0
            ],
            [
                -58.29571533203125,
                -155.5710906982422,
                1300.0
            ],
            [
                -63.718345642089844,
                -168.1986083984375,
                1400.0
            ],
            [
                -69.17525482177734,
                -180.82586669921875,
                1500.0
            ],
            [
                -74.67398834228516,
                -193.45326232910156,
                1600.0
            ],
            [
                -80.20994567871094,
                -206.08139038085938,
                1700.0
            ],
            [
                -85.79147338867188,
                -218.71031188964844,
                1800.0
            ],
            [
                -91.40876007080078,
                -231.3404541015625,
                1900.0
            ],
            [
                -97.08586883544922,
                -243.97178649902344,
                2000.0
            ],
            [
                -102.81009674072266,
                -256.6059265136719,
                2100.0
            ],
            [
                -108.61978912353516,
                -269.24432373046875,
                2200.0
            ],
            [
                -114.49429321289063,
                -281.88629150390625,
                2300.0
            ],
            [
                -120.46340942382813,
                -294.5353698730469,
                2400.0
            ],
            [
                -126.56966400146484,
                -307.1918029785156,
                2500.0
            ],
            [
                -132.81581115722656,
                -319.8582458496094,
                2600.0
            ],
            [
                -139.22406005859375,
                -332.53729248046875,
                2700.0
            ],
            [
                -145.8419647216797,
                -345.2292785644531,
                2800.0
            ],
            [
                -152.7313232421875,
                -357.938232421875,
                2900.0
            ],
            [
                -159.91810607910156,
                -370.66888427734375,
                3000.0
            ],
            [
                -167.43063354492188,
                -383.42132568359375,
                3100.0
            ],
            [
                -175.39781188964844,
                -396.1983642578125,
                3200.0
            ],
            [
                -183.8217010498047,
                -409.0051574707031,
                3300.0
            ],
            [
                -192.76779174804688,
                -421.8481140136719,
                3400.0
            ],
            [
                -202.34286499023438,
                -434.7348327636719,
                3500.0
            ],
            [
                -212.58937072753906,
                -447.666748046875,
                3600.0
            ],
            [
                -223.62118530273438,
                -460.6466369628906,
                3700.0
            ],
            [
                -235.56626892089844,
                -473.6784973144531,
                3800.0
            ],
            [
                -248.4462432861328,
                -486.77618408203125,
                3900.0
            ],
            [
                -262.31024169921875,
                -499.93609619140625,
                4000.0
            ],
            [
                -277.3220520019531,
                -513.1644897460938,
                4100.0
            ],
            [
                -293.5631103515625,
                -526.4510498046875,
                4200.0
            ],
            [
                -311.03741455078125,
                -539.8045654296875,
                4300.0
            ],
            [
                -329.7308044433594,
                -553.224365234375,
                4400.0
            ],
            [
                -349.7297058105469,
                -566.6944580078125,
                4500.0
            ],
            [
                -371.0773010253906,
                -580.2144165039063,
                4600.0
            ],
            [
                -393.8212890625,
                -593.777099609375,
                4700.0
            ],
            [
                -417.87066650390625,
                -607.388671875,
                4800.0
            ],
            [
                -435.59375,
                -613.3800659179688,
                4900.0
            ],
            [
                -462.5298767089844,
                -626.8738403320313,
                5000.0
            ],
            [
                -490.8638610839844,
                -640.4285278320313,
                5100.0
            ],
            [
                -520.5311889648438,
                -653.98779296875,
                5200.0
            ],
            [
                -551.5599365234375,
                -667.59423828125,
                5300.0
            ],
            [
                -583.9207763671875,
                -681.1814575195313,
                5400.0
            ],
            [
                -617.6591796875,
                -694.7838745117188,
                5500.0
            ],
            [
                -652.6607666015625,
                -708.411865234375,
                5600.0
            ],
            [
                -689.0491943359375,
                -722.0123901367188,
                5700.0
            ],
            [
                -726.7445678710938,
                -735.6243896484375,
                5800.0
            ],
            [
                -765.7117309570313,
                -749.2212524414063,
                5900.0
            ],
            [
                -806.0344848632813,
                -762.7958374023438,
                6000.0
            ],
            [
                -847.6153564453125,
                -776.3510131835938,
                6100.0
            ],
            [
                -890.4472045898438,
                -789.849365234375,
                6200.0
            ],
            [
                -934.554931640625,
                -803.2962036132813,
                6300.0
            ],
            [
                -979.87939453125,
                -816.689697265625,
                6400.0
            ],
            [
                -1026.3984375,
                -830.0104370117188,
                6500.0
            ],
            [
                -1074.07275390625,
                -843.2305297851563,
                6600.0
            ],
            [
                -1122.8994140625,
                -856.345947265625,
                6700.0
            ],
            [
                -1172.763671875,
                -869.3494873046875,
                6800.0
            ],
            [
                -1223.685546875,
                -882.2138671875,
                6900.0
            ],
            [
                -1275.5660400390625,
                -894.9407348632813,
                7000.0
            ],
            [
                -1328.3460693359375,
                -907.520751953125,
                7100.0
            ],
            [
                -1381.95751953125,
                -919.9492797851563,
                7200.0
            ],
            [
                -1436.3299560546875,
                -932.2279663085938,
                7300.0
            ],
            [
                -1491.437744140625,
                -944.3512573242188,
                7400.0
            ],
            [
                -1547.1455078125,
                -956.3388061523438,
                7500.0
            ],
            [
                -1603.4619140625,
                -968.1732788085938,
                7600.0
            ],
            [
                -1660.2880859375,
                -979.8820190429688,
                7700.0
            ],
            [
                -1717.5911865234375,
                -991.46728515625,
                7800.0
            ],
            [
                -1775.3089599609375,
                -1002.9434814453125,
                7900.0
            ],
            [
                -1833.390869140625,
                -1014.3236083984375,
                8000.0
            ],
            [
                -1891.8072509765625,
                -1025.6163330078125,
                8100.0
            ],
            [
                -1950.505615234375,
                -1036.83642578125,
                8200.0
            ],
            [
                -2009.4566650390625,
                -1047.99462890625,
                8300.0
            ],
            [
                -2068.632568359375,
                -1059.0994873046875,
                8400.0
            ],
            [
                -2128.0048828125,
                -1070.1624755859375,
                8500.0
            ],
            [
                -2187.544677734375,
                -1081.1905517578125,
                8600.0
            ],
            [
                -2247.235595703125,
                -1092.191650390625,
                8700.0
            ],
            [
                -2307.059326171875,
                -1103.171630859375,
                8800.0
            ],
            [
                -2366.998046875,
                -1114.1363525390625,
                8900.0
            ],
            [
                -2427.039794921875,
                -1125.089599609375,
                9000.0
            ],
            [
                -2487.171875,
                -1136.0350341796875,
                9100.0
            ],
            [
                -2547.38330078125,
                -1146.9754638671875,
                9200.0
            ],
            [
                -2607.66552734375,
                -1157.912841796875,
                9300.0
            ],
            [
                -2668.010009765625,
                -1168.8486328125,
                9400.0
            ],
            [
                -2728.409912109375,
                -1179.7841796875,
                9500.0
            ],
            [
                -2788.859130859375,
                -1190.72021484375,
                9600.0
            ],
            [
                -2849.351318359375,
                -1201.6578369140625,
                9700.0
            ],
            [
                -2909.881591796875,
                -1212.5977783203125,
                9800.0
            ],
            [
                -2970.445556640625,
                -1223.54052734375,
                9900.0
            ],
            [
                -3031.038818359375,
                -1234.4864501953125,
                10000.0
            ],
            [
                -3152.300048828125,
                -1256.388671875,
                10200.0
            ],
            [
                -3273.6416015625,
                -1278.3060302734375,
                10400.0
            ],
            [
                -3395.046630859375,
                -1300.2362060546875,
                10600.0
            ],
            [
                -3516.49853515625,
                -1322.1812744140625,
                10800.0
            ],
            [
                -3637.984375,
                -1344.139892578125,
                11000.0
            ],
            [
                -3759.49658203125,
                -1366.1112060546875,
                11200.0
            ],
            [
                -3881.031494140625,
                -1388.09619140625,
                11400.0
            ],
            [
                -4002.579345703125,
                -1410.0858154296875,
                11600.0
            ],
            [
                -4124.13427734375,
                -1432.0875244140625,
                11800.0
            ],
            [
                -4245.69384765625,
                -1454.0982666015625,
                12000.0
            ],
            [
                -4367.244140625,
                -1476.0972900390625,
                12200.0
            ],
            [
                -4488.82666015625,
                -1498.129638671875,
                12400.0
            ],
            [
                -4610.37744140625,
                -1520.1201171875,
                12600.0
            ],
            [
                -4731.92333984375,
                -1542.1121826171875,
                12800.0
            ],
            [
                -4853.50244140625,
                -1564.15234375,
                13000.0
            ],
            [
                -4975.04541015625,
                -1586.1395263671875,
                13200.0
            ],
            [
                -5096.64990234375,
                -1608.1988525390625,
                13400.0
            ]
        ],
        "zFirstMeasurement": 199.2057
    }
]
